0.740000	0.531459	0.334448
2.220000	0.550729	0.326593
4.550000	0.575986	0.304885
13.570000	0.513453	0.322183
19.800000	1.219055	0.291680
24.810000	1.226747	0.305924
42.130000	1.429974	0.291010
53.610000	1.359723	0.278430
56.380000	1.474895	0.282492
61.570000	1.462710	0.267325
68.890000	1.532008	0.263314
86.340000	1.569581	0.264034
384.590000	1.519596	0.259911
996.240000	1.468616	0.255440
1213.840000	1.457038	0.264483
1437.030000	1.456234	0.261894
1955.940000	1.456233	0.260738
2010.090000	1.448584	0.261844
-2007.747296	1.451833	0.258650
-852.917296	1.451833	0.258650
