0.520000	0.462127	0.320634
1.630000	0.443540	0.323855
10.600000	0.473471	0.313367
23.960000	0.637513	0.318190
26.610000	0.627729	0.310898
29.690000	0.598878	0.320213
43.930000	0.814151	0.297052
102.530000	0.552253	0.322952
143.340000	0.589237	0.322252
203.440000	0.541832	0.314020
217.660000	0.571325	0.317510
312.460000	0.537385	0.314331
354.840000	0.561688	0.318833
376.190000	0.575518	0.317514
449.690000	0.580177	0.317977
470.980000	0.578356	0.318811
482.000000	0.575845	0.318961
503.520000	0.575699	0.318476
514.420000	0.576402	0.318054
525.420000	0.576766	0.317776
536.300000	0.576986	0.317615
547.240000	0.577117	0.317521
558.100000	0.577195	0.317466
569.050000	0.577240	0.317434
579.990000	0.577266	0.317416
590.870000	0.577281	0.317405
601.780000	0.577290	0.317399
612.750000	0.577295	0.317395
623.590000	0.577298	0.317393
634.610000	0.577300	0.317392
645.460000	0.577301	0.317392
656.430000	0.577301	0.317391
667.400000	0.577301	0.317391
678.360000	0.577301	0.317391
689.360000	0.577302	0.317391
700.250000	0.577302	0.317391
711.140000	0.577302	0.317391
722.100000	0.577302	0.317391
733.130000	0.577302	0.317391
744.010000	0.577302	0.317391
754.920000	0.577302	0.317391
765.810000	0.577302	0.317391
776.800000	0.577302	0.317391
787.660000	0.577302	0.317391
798.660000	0.577302	0.317391
809.540000	0.577302	0.317391
820.480000	0.577302	0.317391
831.390000	0.577302	0.317391
842.360000	0.577302	0.317391
853.370000	0.577302	0.317391
864.370000	0.577302	0.317391
875.420000	0.577302	0.317391
886.280000	0.577302	0.317391
897.290000	0.577302	0.317391
929.190000	0.577302	0.317391
961.480000	0.581782	0.317631
972.400000	0.572839	0.314684
993.800000	0.574101	0.315088
1015.210000	0.571477	0.315054
1026.170000	0.567589	0.314678
1047.040000	0.547124	0.315797
1058.600000	0.553848	0.322408
1079.340000	0.561009	0.325711
1090.320000	0.562508	0.329431
1091.420000	0.566624	0.324590
1102.360000	0.567465	0.324371
1113.310000	0.568227	0.323994
1124.340000	0.568640	0.323799
1135.250000	0.568834	0.323709
1146.090000	0.568920	0.323669
1157.010000	0.568957	0.323652
1167.870000	0.568973	0.323645
1178.890000	0.568980	0.323642
1189.370000	0.570923	0.323903
1190.410000	0.570563	0.323872
1201.290000	0.571245	0.323961
1212.210000	0.571530	0.323996
1223.130000	0.571648	0.324011
1233.990000	0.571696	0.324017
1244.420000	0.571796	0.324002
1255.360000	0.571933	0.324027
1256.430000	0.572140	0.324003
1267.320000	0.572203	0.324005
1278.210000	0.572227	0.324005
1289.260000	0.572237	0.324005
1299.710000	0.572369	0.323997
1310.680000	0.572416	0.323993
1311.700000	0.572460	0.323991
1322.100000	0.572434	0.323992
1323.120000	0.572481	0.323988
1334.080000	0.572490	0.323987
1345.000000	0.572493	0.323987
1355.910000	0.572494	0.323987
1366.390000	0.572501	0.323986
1367.410000	0.572501	0.323986
1377.790000	0.572501	0.323986
1388.670000	0.572501	0.323986
1399.540000	0.572501	0.323986
1410.400000	0.572501	0.323986
1411.420000	0.572499	0.323987
1422.360000	0.572499	0.323987
1433.230000	0.572499	0.323987
1444.270000	0.572499	0.323987
1455.240000	0.572499	0.323987
1465.520000	0.572498	0.323987
1476.430000	0.572498	0.323987
1487.400000	0.572499	0.323987
1498.430000	0.572499	0.323987
1509.290000	0.572499	0.323987
1520.180000	0.572499	0.323987
1531.110000	0.572499	0.323987
1542.060000	0.572499	0.323987
1543.170000	0.572499	0.323987
1554.050000	0.572499	0.323987
1564.890000	0.572499	0.323987
1575.830000	0.572499	0.323987
1586.740000	0.572499	0.323987
1597.690000	0.572499	0.323987
1608.640000	0.572499	0.323987
1618.510000	0.563283	0.324971
1640.480000	0.567752	0.326536
1650.810000	0.564653	0.326116
1661.800000	0.565139	0.326484
1672.740000	0.565251	0.326597
1674.300000	0.567803	0.326718
1695.560000	0.567599	0.326425
1737.420000	0.567740	0.326377
1748.230000	0.567738	0.326339
1759.040000	0.567731	0.326325
1769.960000	0.567729	0.326321
1780.840000	0.567728	0.326320
1791.770000	0.567728	0.326319
1802.600000	0.567728	0.326319
1813.510000	0.567728	0.326319
1824.380000	0.567728	0.326319
1834.710000	0.567525	0.326051
1835.730000	0.567386	0.325772
1846.600000	0.567355	0.325608
1857.470000	0.567353	0.325559
1868.440000	0.567353	0.325544
1879.280000	0.567353	0.325540
1890.190000	0.567353	0.325538
1900.610000	0.567201	0.325486
1911.430000	0.567044	0.325411
1922.320000	0.566992	0.325387
1933.140000	0.566976	0.325379
1944.070000	0.566972	0.325377
1945.090000	0.566963	0.325365
1955.990000	0.566972	0.325367
1966.810000	0.566975	0.325368
1976.740000	0.567138	0.325184
1988.140000	0.567405	0.324803
1999.130000	0.567564	0.324630
2000.150000	0.567945	0.324465
2011.000000	0.568186	0.324356
2020.880000	0.566940	0.324288
2031.830000	0.566529	0.324127
2042.720000	0.566408	0.324076
2054.790000	0.567418	0.324087
2075.660000	0.566962	0.323846
2086.540000	0.567177	0.323801
2097.420000	0.567225	0.323793
2108.370000	0.567240	0.323791
2109.450000	0.567304	0.323860
2120.380000	0.567132	0.323763
2131.320000	0.567080	0.323733
2142.300000	0.567065	0.323724
-2142.657296	0.567182	0.323779
-2131.747296	0.567182	0.323766
-2120.807296	0.567182	0.323762
-2109.847296	0.567182	0.323761
-2108.807296	0.567182	0.323761
