0.330000	0.387896	0.317636
1.340000	0.373325	0.315690
2.660000	0.416419	0.319322
5.040000	0.357744	0.316485
8.110000	0.408842	0.314621
9.910000	0.671758	0.306726
80.530000	0.580943	0.318315
117.060000	0.607364	0.325126
131.970000	0.612271	0.323046
153.990000	0.607671	0.321794
219.660000	0.615451	0.321014
299.820000	0.616350	0.321137
321.990000	0.613695	0.320902
337.010000	0.613733	0.320847
344.680000	0.614526	0.320922
352.280000	0.614990	0.320968
359.920000	0.615262	0.320996
367.560000	0.615423	0.321013
375.220000	0.615517	0.321023
382.780000	0.615572	0.321028
390.380000	0.615604	0.321032
397.980000	0.615623	0.321034
405.570000	0.615633	0.321035
413.130000	0.615639	0.321035
420.670000	0.615643	0.321036
428.280000	0.615645	0.321036
435.900000	0.615646	0.321036
443.450000	0.615647	0.321036
451.020000	0.615647	0.321036
458.540000	0.615647	0.321036
466.100000	0.615648	0.321036
473.790000	0.615648	0.321036
481.390000	0.615648	0.321036
489.010000	0.615648	0.321036
496.680000	0.615648	0.321036
504.260000	0.615648	0.321036
511.860000	0.615648	0.321036
519.550000	0.615648	0.321036
527.190000	0.615648	0.321036
534.810000	0.615648	0.321036
542.430000	0.615648	0.321036
550.100000	0.615648	0.321036
557.660000	0.615648	0.321036
565.210000	0.615648	0.321036
565.900000	0.612162	0.321161
573.050000	0.611466	0.320925
580.710000	0.609078	0.320870
581.420000	0.614324	0.321005
588.670000	0.611895	0.320945
596.320000	0.613451	0.320989
603.980000	0.614271	0.321019
611.510000	0.614688	0.321035
612.220000	0.614079	0.320872
619.820000	0.615250	0.320841
627.350000	0.615823	0.320827
628.440000	0.639339	0.320915
642.230000	0.616445	0.320757
643.680000	0.586784	0.319561
672.990000	0.571090	0.319448
680.610000	0.563309	0.319415
688.270000	0.562270	0.319424
695.870000	0.562265	0.319429
699.860000	1.051473	0.309903
707.880000	1.033559	0.309552
722.770000	1.036715	0.310422
730.770000	1.045988	0.308586
745.740000	1.049366	0.309952
752.920000	1.053296	0.311523
768.200000	1.049011	0.310184
775.080000	1.045678	0.302360
783.150000	1.042042	0.303948
790.430000	1.029171	0.303976
819.800000	1.029518	0.303437
834.650000	1.029580	0.303448
842.310000	1.030373	0.303672
849.940000	1.030731	0.303758
857.580000	1.030866	0.303792
858.740000	1.030116	0.304444
873.120000	1.031246	0.304640
880.290000	1.028734	0.304159
888.020000	1.028173	0.304341
895.710000	1.027940	0.304412
903.410000	1.027848	0.304440
911.070000	1.027813	0.304450
911.830000	1.027019	0.304445
919.460000	1.027024	0.304510
926.810000	1.027437	0.304548
934.420000	1.027368	0.304588
935.610000	1.026738	0.304242
942.790000	1.032788	0.304401
943.560000	1.027598	0.304338
950.790000	1.027867	0.304311
951.600000	1.027911	0.304372
958.850000	1.027370	0.304222
966.540000	1.027195	0.304189
967.310000	1.027568	0.304304
970.970000	0.632081	0.314882
985.780000	0.634996	0.314219
992.630000	0.642703	0.316575
993.750000	0.635132	0.313896
1001.350000	0.635233	0.313835
1008.860000	0.635267	0.313818
1015.820000	0.642232	0.313310
1023.390000	0.642533	0.312629
1038.230000	0.642009	0.312756
1038.930000	0.642925	0.312590
1046.130000	0.642943	0.312841
1046.840000	0.643561	0.312436
1054.020000	0.643896	0.312613
1061.600000	0.644210	0.312535
1062.650000	0.638419	0.313015
1069.800000	0.640121	0.312674
1077.030000	0.640707	0.312493
1084.540000	0.639281	0.312517
1092.070000	0.638807	0.312527
1092.790000	0.638984	0.312490
1100.280000	0.638516	0.312428
1107.900000	0.638363	0.312408
1108.620000	0.639814	0.312610
1115.490000	0.638385	0.312394
1123.020000	0.638214	0.312396
1123.770000	0.637261	0.312418
1130.980000	0.637154	0.312405
1131.730000	0.636726	0.312390
1132.420000	0.637874	0.312416
1139.950000	0.637254	0.312375
1147.590000	0.637054	0.312363
1155.110000	0.636994	0.312359
1162.750000	0.636976	0.312358
1170.010000	0.636923	0.312343
1177.250000	0.636761	0.312340
1184.820000	0.636677	0.312333
1192.460000	0.636652	0.312331
1193.160000	0.636761	0.312325
1200.320000	0.636695	0.312330
1201.030000	0.636698	0.312324
1208.650000	0.636679	0.312324
1209.340000	0.636662	0.312319
1216.920000	0.636648	0.312316
1224.260000	0.636608	0.312319
1231.790000	0.636584	0.312319
1239.320000	0.636577	0.312319
1246.530000	0.636568	0.312318
1254.130000	0.636556	0.312319
1261.770000	0.636552	0.312319
1269.370000	0.636551	0.312319
1270.080000	0.636546	0.312319
1277.660000	0.636545	0.312319
1278.380000	0.636535	0.312319
1285.650000	0.636535	0.312319
1293.130000	0.636532	0.312319
1293.850000	0.636533	0.312319
1301.070000	0.636532	0.312319
1301.790000	0.636534	0.312319
1308.710000	0.636529	0.312319
1309.390000	0.636533	0.312319
1316.970000	0.636533	0.312319
1324.510000	0.636533	0.312319
1332.100000	0.636533	0.312319
1332.810000	0.636533	0.312319
1340.390000	0.636533	0.312319
1347.250000	0.636533	0.312319
1348.330000	0.636533	0.312319
1355.240000	0.636533	0.312319
1362.790000	0.636533	0.312319
1370.480000	0.636533	0.312319
1371.180000	0.636533	0.312319
1378.840000	0.636533	0.312319
1379.560000	0.636533	0.312319
1386.470000	0.636533	0.312319
1387.550000	0.636533	0.312319
1395.100000	0.636533	0.312319
1402.400000	0.636533	0.312319
1409.620000	0.636533	0.312319
1417.250000	0.636533	0.312319
1424.910000	0.636533	0.312319
1432.560000	0.636533	0.312319
1433.330000	0.636533	0.312319
1440.900000	0.636533	0.312319
1448.460000	0.636533	0.312319
1455.750000	0.636533	0.312319
1463.350000	0.636533	0.312319
1470.920000	0.636533	0.312319
1478.490000	0.636533	0.312319
1479.210000	0.636533	0.312319
1486.840000	0.636533	0.312319
1494.440000	0.636533	0.312319
1501.700000	0.636533	0.312319
1502.780000	0.636533	0.312319
1510.010000	0.636533	0.312319
1510.710000	0.636533	0.312319
1517.930000	0.636533	0.312319
1518.690000	0.636533	0.312319
1525.230000	0.636533	0.312319
