using files: 
input-train_pred100.series
target-train_pred100.series
input-test_pred100.series
target-test_pred100.series
input-validate_pred100.series
target-validate_pred100.series
0.070000	0.440603	0.068841
0.200000	0.492087	0.072812
0.920000	0.513394	0.069075
1.180000	0.522168	0.064256
1.380000	0.474991	0.069185
1.710000	0.784220	0.074649
2.010000	0.817896	0.070597
2.230000	0.900588	0.070264
3.010000	0.808278	0.070195
3.310000	1.201016	0.077190
4.660000	1.209334	0.080601
7.680000	1.224139	0.083738
16.510000	1.249504	0.106254
34.000000	1.255408	0.105015
35.530000	1.234834	0.070556
37.060000	1.234411	0.065127
41.520000	1.234305	0.065746
54.700000	1.235442	0.064684
56.380000	1.192876	0.082948
59.440000	1.182620	0.091087
65.260000	1.199696	0.073783
66.860000	1.204167	0.084260
68.400000	1.183916	0.073934
74.290000	1.191275	0.078131
78.740000	1.191766	0.077113
81.720000	1.191985	0.078094
86.150000	1.191175	0.077784
89.120000	1.191513	0.077897
90.650000	1.192317	0.078777
92.180000	1.192806	0.079287
96.560000	1.200035	0.088945
104.020000	1.193211	0.096492
114.320000	1.191094	0.097889
115.880000	1.191017	0.103340
117.420000	1.191043	0.106690
118.970000	1.191062	0.108821
120.510000	1.191077	0.110166
122.030000	1.191070	0.111057
123.570000	1.191064	0.111626
125.030000	1.192895	0.110088
126.560000	1.191917	0.107682
128.090000	1.191517	0.105353
129.690000	1.194398	0.098672
134.060000	1.195250	0.098066
135.580000	1.194814	0.099058
137.120000	1.194585	0.099594
137.270000	1.196092	0.097924
138.710000	1.195579	0.097985
140.240000	1.195954	0.097866
140.400000	1.196024	0.096542
143.300000	1.196095	0.096851
144.840000	1.195876	0.097176
146.360000	1.195740	0.097375
146.500000	1.195722	0.098258
148.030000	1.195549	0.098841
149.560000	1.195442	0.099189
151.080000	1.195377	0.099399
152.530000	1.195358	0.099513
154.070000	1.195269	0.099176
155.600000	1.195214	0.098962
157.130000	1.195181	0.098829
157.280000	1.195196	0.098878
158.740000	1.195174	0.098881
160.270000	1.195169	0.098911
161.810000	1.195167	0.098929
161.960000	1.195117	0.098897
163.410000	1.195134	0.098951
163.560000	1.195148	0.099065
165.020000	1.195127	0.099117
166.540000	1.195123	0.099216
168.060000	1.195120	0.099275
168.210000	1.195066	0.099232
169.730000	1.195029	0.099264
171.180000	1.194997	0.099262
171.330000	1.195007	0.099282
172.790000	1.194971	0.099245
174.310000	1.194954	0.099233
175.840000	1.194945	0.099226
177.370000	1.194939	0.099222
177.520000	1.194925	0.099201
179.050000	1.194921	0.099230
180.500000	1.194929	0.099260
182.030000	1.194924	0.099280
183.560000	1.194921	0.099291
185.100000	1.194920	0.099298
186.620000	1.194919	0.099302
188.160000	1.194918	0.099305
188.310000	1.194917	0.099311
189.840000	1.194915	0.099315
191.300000	1.194914	0.099317
192.810000	1.194914	0.099324
194.340000	1.194913	0.099327
195.880000	1.194913	0.099330
197.400000	1.194913	0.099331
197.550000	1.194913	0.099333
199.080000	1.194914	0.099341
200.600000	1.194914	0.099345
202.120000	1.194914	0.099348
203.580000	1.194914	0.099351
205.120000	1.194915	0.099357
206.650000	1.194915	0.099360
206.870000	1.191785	0.108588
211.250000	1.191738	0.106641
215.690000	1.192545	0.106533
220.140000	1.192752	0.106435
220.280000	1.192281	0.106674
221.750000	1.192344	0.107910
223.350000	1.192141	0.108908
224.880000	1.192654	0.109245
226.250000	1.192077	0.109072
229.320000	1.192156	0.108014
230.840000	1.192382	0.106897
231.000000	1.193397	0.107282
232.370000	1.192636	0.108913
233.900000	1.193371	0.108937
235.510000	1.192203	0.109352
236.960000	1.192725	0.108937
237.180000	1.192999	0.109409
238.720000	1.194158	0.109113
240.250000	1.194798	0.108802
241.770000	1.194918	0.108844
243.290000	1.194983	0.108852
244.830000	1.195019	0.108850
249.110000	1.194221	0.106731
250.710000	1.193446	0.108412
252.160000	1.193591	0.107593
255.200000	1.193572	0.107857
256.660000	1.193267	0.107124
258.270000	1.193628	0.107016
259.720000	1.193635	0.107256
259.870000	1.193505	0.106581
260.020000	1.193806	0.106912
261.400000	1.193882	0.106851
261.560000	1.193796	0.106577
263.020000	1.194033	0.106556
263.170000	1.193951	0.106562
264.620000	1.193931	0.106452
264.770000	1.194033	0.106551
266.240000	1.193825	0.106668
266.390000	1.194077	0.106544
267.850000	1.193976	0.106694
269.380000	1.194056	0.106707
269.530000	1.194057	0.106511
270.980000	1.194076	0.106559
271.130000	1.194034	0.106495
271.290000	1.194037	0.106648
272.660000	1.194057	0.106449
272.890000	1.194079	0.106489
274.280000	1.194048	0.106392
274.430000	1.194085	0.106505
275.960000	1.194155	0.106487
277.490000	1.194191	0.106477
277.650000	1.194177	0.106543
279.030000	1.194200	0.106580
279.260000	1.194217	0.106563
280.650000	1.194215	0.106641
280.810000	1.194249	0.106578
282.260000	1.194280	0.106674
283.810000	1.194313	0.106690
285.360000	1.194331	0.106699
286.910000	1.194340	0.106703
288.450000	1.194344	0.106705
288.610000	1.194405	0.106700
290.160000	1.194417	0.106707
291.620000	1.194429	0.106730
291.770000	1.194423	0.106710
291.920000	1.194509	0.106674
293.460000	1.194569	0.106630
294.930000	1.194585	0.106629
295.080000	1.194600	0.106608
296.460000	1.194587	0.106674
298.000000	1.194643	0.106644
299.540000	1.194672	0.106629
301.090000	1.194687	0.106621
301.240000	1.194700	0.106609
302.710000	1.194706	0.106619
302.870000	1.194724	0.106607
303.020000	1.194666	0.106625
304.410000	1.194737	0.106621
304.560000	1.194687	0.106630
304.720000	1.194667	0.106640
306.190000	1.194657	0.106643
306.340000	1.194667	0.106647
307.740000	1.194687	0.106607
307.890000	1.194669	0.106636
309.370000	1.194671	0.106614
310.910000	1.194663	0.106617
311.060000	1.194678	0.106610
312.610000	1.194679	0.106599
312.760000	1.194712	0.106604
314.220000	1.194698	0.106608
314.380000	1.194721	0.106592
315.930000	1.194726	0.106586
317.300000	1.194721	0.106627
318.840000	1.194734	0.106627
319.000000	1.194738	0.106612
320.450000	1.194745	0.106611
320.610000	1.194745	0.106617
322.150000	1.194749	0.106619
323.680000	1.194751	0.106620
323.830000	1.194756	0.106623
325.220000	1.194761	0.106615
326.760000	1.194774	0.106609
328.280000	1.194781	0.106607
328.440000	1.194782	0.106604
329.900000	1.194787	0.106603
330.050000	1.194791	0.106600
331.600000	1.194795	0.106598
331.750000	1.194798	0.106599
333.280000	1.194803	0.106596
334.740000	1.194810	0.106589
336.200000	1.194816	0.106585
337.730000	1.194825	0.106580
339.260000	1.194830	0.106577
340.800000	1.194832	0.106576
340.960000	1.194835	0.106574
342.510000	1.194839	0.106573
343.970000	1.194841	0.106571
345.500000	1.194843	0.106570
347.030000	1.194845	0.106569
348.570000	1.194845	0.106569
348.730000	1.194845	0.106568
350.270000	1.194847	0.106567
350.420000	1.194851	0.106565
351.980000	1.194856	0.106562
353.510000	1.194858	0.106560
355.060000	1.194859	0.106560
356.520000	1.194862	0.106557
357.980000	1.194862	0.106558
358.140000	1.194864	0.106556
359.600000	1.194867	0.106555
361.130000	1.194870	0.106554
362.670000	1.194871	0.106553
364.210000	1.194872	0.106553
364.360000	1.194871	0.106555
365.820000	1.194871	0.106555
365.970000	1.194872	0.106555
367.430000	1.194872	0.106555
367.660000	1.194872	0.106555
369.110000	1.194873	0.106555
369.270000	1.194872	0.106556
370.730000	1.194872	0.106557
372.270000	1.194872	0.106557
373.810000	1.194872	0.106558
375.260000	1.194872	0.106559
376.800000	1.194872	0.106559
378.360000	1.194872	0.106560
379.890000	1.194872	0.106560
380.040000	1.194872	0.106560
381.510000	1.194872	0.106560
381.670000	1.194872	0.106560
381.830000	1.194872	0.106560
383.290000	1.194872	0.106560
383.450000	1.194872	0.106560
384.910000	1.194872	0.106560
386.370000	1.194872	0.106560
386.520000	1.194872	0.106560
387.990000	1.194872	0.106561
389.520000	1.194872	0.106561
391.080000	1.194872	0.106561
391.220000	1.194872	0.106561
392.700000	1.194872	0.106561
392.860000	1.194872	0.106561
394.330000	1.194872	0.106561
394.480000	1.194872	0.106561
395.940000	1.194872	0.106561
396.170000	1.194872	0.106561
397.550000	1.194872	0.106561
397.710000	1.194872	0.106561
397.860000	1.194872	0.106561
399.310000	1.194872	0.106561
400.850000	1.194872	0.106561
402.390000	1.194872	0.106561
403.850000	1.194872	0.106561
405.390000	1.194872	0.106561
406.940000	1.194872	0.106561
408.480000	1.194872	0.106561
410.030000	1.194872	0.106561
411.570000	1.194872	0.106561
411.720000	1.194872	0.106561
413.260000	1.194872	0.106561
414.810000	1.194872	0.106561
414.960000	1.194872	0.106561
416.500000	1.194872	0.106561
417.980000	1.194872	0.106561
419.450000	1.194872	0.106561
419.600000	1.194872	0.106561
421.080000	1.194872	0.106561
421.230000	1.194872	0.106561
422.710000	1.194872	0.106561
424.240000	1.194872	0.106561
425.790000	1.194872	0.106561
426.020000	1.194872	0.106561
427.490000	1.194872	0.106561
427.640000	1.194872	0.106561
429.110000	1.194872	0.106561
430.570000	1.194872	0.106561
432.120000	1.194872	0.106561
433.670000	1.194872	0.106561
435.210000	1.194872	0.106561
435.360000	1.194872	0.106561
436.910000	1.194872	0.106561
438.460000	1.194872	0.106561
438.610000	1.194872	0.106561
440.080000	1.194872	0.106561
441.560000	1.194872	0.106561
441.720000	1.194872	0.106561
443.170000	1.194872	0.106561
444.720000	1.194872	0.106561
446.250000	1.194872	0.106561
446.410000	1.194872	0.106561
447.870000	1.194872	0.106561
448.030000	1.194872	0.106561
449.490000	1.194872	0.106561
449.640000	1.194872	0.106561
449.800000	1.194872	0.106561
451.270000	1.194872	0.106561
451.420000	1.194872	0.106561
452.890000	1.194872	0.106561
453.050000	1.194872	0.106561
454.450000	1.194872	0.106561
456.000000	1.194872	0.106561
457.560000	1.194872	0.106561
457.710000	1.194872	0.106561
459.170000	1.194872	0.106561
459.330000	1.194872	0.106561
459.490000	1.194872	0.106561
461.040000	1.194872	0.106561
462.590000	1.194872	0.106561
464.140000	1.194872	0.106561
468.460000	1.194872	0.106561
470.010000	1.194872	0.106561
471.550000	1.194872	0.106561
473.170000	1.194872	0.106561
476.190000	1.194872	0.106561
476.340000	1.194872	0.106561
479.340000	1.194872	0.106561
483.850000	1.194872	0.106561
497.140000	1.194872	0.106561
500.080000	1.194872	0.106561
522.180000	1.194872	0.106561
528.030000	1.194872	0.106561
594.060000	1.194872	0.106561
758.150000	1.194872	0.106561
