using files: 
input-train_pred50.series
target-train_pred50.series
input-test_pred50.series
target-test_pred50.series
input-validate_pred50.series
target-validate_pred50.series
0.060000	0.441940	0.054228
0.200000	0.490297	0.055293
0.340000	0.472849	0.055543
0.480000	0.488210	0.052596
0.680000	0.491078	0.049533
1.790000	0.818718	0.045069
2.020000	0.818868	0.047565
2.250000	0.701788	0.041023
4.110000	1.030376	0.036729
4.500000	0.760979	0.035849
5.730000	0.868023	0.031598
6.880000	0.847865	0.025062
7.420000	1.063496	0.032203
10.130000	0.977057	0.021035
12.230000	1.051505	0.019638
14.490000	0.987678	0.020129
23.850000	0.937602	0.022007
24.780000	1.071732	0.020181
38.040000	0.957247	0.016058
45.330000	1.070593	0.009936
58.090000	1.084232	0.009135
64.560000	1.074017	0.007451
80.520000	1.073599	0.007323
91.690000	1.075145	0.007153
98.160000	1.075620	0.007127
101.330000	1.076310	0.007838
103.080000	1.079574	0.007883
109.450000	1.076504	0.007106
111.110000	1.072062	0.007578
112.810000	1.075288	0.007659
116.110000	1.074117	0.007493
121.090000	1.070325	0.006653
125.890000	1.070167	0.006589
127.560000	1.070992	0.006708
138.920000	1.070128	0.006884
142.130000	1.071416	0.006705
143.830000	1.073008	0.006818
145.620000	1.073057	0.006727
150.440000	1.072381	0.006582
152.140000	1.072807	0.006451
155.450000	1.073111	0.006443
155.620000	1.073840	0.006535
158.850000	1.073871	0.006475
159.020000	1.073584	0.006556
160.620000	1.073873	0.006504
160.790000	1.073415	0.006512
162.490000	1.073310	0.006486
164.190000	1.073246	0.006471
165.790000	1.073206	0.006463
167.490000	1.073099	0.006450
169.200000	1.073033	0.006441
170.880000	1.072992	0.006436
171.060000	1.073010	0.006452
172.760000	1.072948	0.006444
174.460000	1.072911	0.006440
176.070000	1.072891	0.006433
177.780000	1.072833	0.006427
179.480000	1.072798	0.006424
181.160000	1.072777	0.006422
181.340000	1.072804	0.006422
183.040000	1.072760	0.006423
184.650000	1.072733	0.006422
184.820000	1.072733	0.006424
186.420000	1.072705	0.006424
188.110000	1.072775	0.006425
189.820000	1.072765	0.006426
191.500000	1.072759	0.006427
191.670000	1.072758	0.006426
193.280000	1.072757	0.006427
193.450000	1.072744	0.006428
195.140000	1.072736	0.006429
196.760000	1.072647	0.006428
196.930000	1.072731	0.006430
198.530000	1.072720	0.006430
200.210000	1.072712	0.006432
201.920000	1.072707	0.006432
203.600000	1.072704	0.006433
203.770000	1.072699	0.006433
205.370000	1.072700	0.006433
205.540000	1.072694	0.006434
207.140000	1.072694	0.006433
207.310000	1.072691	0.006434
208.910000	1.072688	0.006434
209.080000	1.072690	0.006435
210.670000	1.072685	0.006435
210.840000	1.072689	0.006435
212.450000	1.072688	0.006435
214.140000	1.072689	0.006436
214.310000	1.072688	0.006436
215.990000	1.072688	0.006436
217.680000	1.072688	0.006436
219.280000	1.072687	0.006436
220.970000	1.072687	0.006437
222.660000	1.072686	0.006437
224.340000	1.072686	0.006438
226.020000	1.072686	0.006438
226.200000	1.072685	0.006438
227.800000	1.072685	0.006438
227.970000	1.072684	0.006438
229.580000	1.072684	0.006438
229.760000	1.072684	0.006438
231.360000	1.072684	0.006438
233.040000	1.072684	0.006438
234.730000	1.072684	0.006438
234.910000	1.072684	0.006438
236.520000	1.072683	0.006438
236.690000	1.072683	0.006438
238.300000	1.072683	0.006438
238.460000	1.072683	0.006439
240.060000	1.072683	0.006439
241.750000	1.072683	0.006439
243.440000	1.072683	0.006439
243.600000	1.072683	0.006439
245.200000	1.072683	0.006439
245.380000	1.072683	0.006439
246.980000	1.072683	0.006439
247.150000	1.072683	0.006439
248.740000	1.072683	0.006439
250.430000	1.072683	0.006439
252.110000	1.072683	0.006439
253.800000	1.072684	0.006439
253.980000	1.072684	0.006439
255.660000	1.072684	0.006439
257.270000	1.072684	0.006439
257.430000	1.072684	0.006439
259.030000	1.072684	0.006439
260.730000	1.072684	0.006439
262.410000	1.072684	0.006439
264.110000	1.072684	0.006439
264.280000	1.072684	0.006439
265.880000	1.072684	0.006439
266.050000	1.072684	0.006439
267.650000	1.072684	0.006439
269.320000	1.072684	0.006439
271.010000	1.072684	0.006439
272.700000	1.072684	0.006439
274.380000	1.072684	0.006439
274.560000	1.072684	0.006439
274.810000	1.082565	0.006874
276.500000	1.080122	0.008162
281.370000	1.080858	0.007795
286.180000	1.072883	0.006474
291.070000	1.073975	0.006153
300.680000	1.074341	0.006365
302.350000	1.074273	0.006474
305.600000	1.074366	0.006508
307.270000	1.074434	0.006492
308.930000	1.074471	0.006483
310.600000	1.074489	0.006479
312.280000	1.074499	0.006476
313.940000	1.074504	0.006475
314.110000	1.075148	0.006448
315.700000	1.074959	0.006489
317.350000	1.075208	0.006478
319.120000	1.074422	0.006547
320.710000	1.074653	0.006647
324.040000	1.074587	0.006653
325.620000	1.074871	0.006575
325.790000	1.074745	0.006630
327.380000	1.074946	0.006608
329.050000	1.074984	0.006625
330.730000	1.075004	0.006632
332.410000	1.075014	0.006635
334.090000	1.075019	0.006637
334.260000	1.075050	0.006629
335.930000	1.075056	0.006644
337.520000	1.075039	0.006644
339.180000	1.075048	0.006650
340.870000	1.075052	0.006653
342.550000	1.075054	0.006654
342.740000	1.075055	0.006670
344.330000	1.075064	0.006674
344.510000	1.075051	0.006686
346.180000	1.075048	0.006694
347.860000	1.075047	0.006698
349.460000	1.075057	0.006693
351.130000	1.075057	0.006696
352.810000	1.075058	0.006697
354.480000	1.075058	0.006698
354.650000	1.075068	0.006693
356.320000	1.075070	0.006694
357.930000	1.075072	0.006692
358.100000	1.075070	0.006695
359.690000	1.075072	0.006694
361.380000	1.075072	0.006696
363.060000	1.075072	0.006696
364.740000	1.075072	0.006697
366.420000	1.075072	0.006697
366.590000	1.075073	0.006697
368.200000	1.075073	0.006697
368.370000	1.075073	0.006697
369.960000	1.075073	0.006697
371.650000	1.075073	0.006697
373.320000	1.075074	0.006698
375.000000	1.075074	0.006698
375.180000	1.075074	0.006698
376.680000	1.079918	0.006878
384.730000	1.079919	0.006813
384.910000	1.080418	0.006942
386.590000	1.080247	0.006833
388.190000	1.080440	0.006675
393.070000	1.080461	0.006762
393.240000	1.080519	0.006730
394.920000	1.080554	0.006715
396.510000	1.080665	0.006812
396.670000	1.080570	0.006709
396.850000	1.080552	0.006837
398.350000	1.080611	0.006717
398.610000	1.080461	0.006862
400.120000	1.080587	0.006677
401.790000	1.080574	0.006659
401.970000	1.080455	0.006809
403.650000	1.080505	0.006831
405.250000	1.080579	0.006801
408.510000	1.080653	0.006822
410.190000	1.080619	0.006816
411.870000	1.080604	0.006814
412.120000	1.080564	0.006786
413.800000	1.080522	0.006757
415.490000	1.080503	0.006744
417.000000	1.080581	0.006807
418.690000	1.080575	0.006805
420.380000	1.080572	0.006804
420.550000	1.080617	0.006800
422.160000	1.080602	0.006801
422.330000	1.080656	0.006820
424.020000	1.080674	0.006828
424.200000	1.080596	0.006778
425.790000	1.080608	0.006787
425.960000	1.080616	0.006777
427.550000	1.080591	0.006775
427.720000	1.080625	0.006777
429.310000	1.080627	0.006782
430.990000	1.080643	0.006785
432.590000	1.080663	0.006811
434.270000	1.080708	0.006839
435.950000	1.080728	0.006851
436.130000	1.080699	0.006834
437.710000	1.080713	0.006836
439.390000	1.080707	0.006829
441.070000	1.080704	0.006827
442.770000	1.080703	0.006825
442.940000	1.080704	0.006825
444.620000	1.080704	0.006825
446.210000	1.080703	0.006824
446.460000	1.080698	0.006816
447.970000	1.080703	0.006823
448.230000	1.080696	0.006811
449.890000	1.080694	0.006808
451.560000	1.080694	0.006808
453.060000	1.080699	0.006811
454.740000	1.080698	0.006806
454.900000	1.080705	0.006808
456.480000	1.080708	0.006806
456.650000	1.080707	0.006808
458.240000	1.080709	0.006806
459.900000	1.080710	0.006806
461.570000	1.080710	0.006806
461.820000	1.080710	0.006807
463.400000	1.080712	0.006804
463.570000	1.080710	0.006807
465.160000	1.080713	0.006806
466.830000	1.080713	0.006807
467.010000	1.080713	0.006804
468.610000	1.080713	0.006806
468.780000	1.080714	0.006803
470.260000	1.080713	0.006806
470.520000	1.080715	0.006803
472.020000	1.080712	0.006806
473.680000	1.080712	0.006806
473.850000	1.080714	0.006804
475.520000	1.080714	0.006805
477.180000	1.080714	0.006805
477.350000	1.080715	0.006805
479.020000	1.080715	0.006806
480.690000	1.080715	0.006806
482.280000	1.080715	0.006807
483.850000	1.080715	0.006807
484.020000	1.080715	0.006807
485.590000	1.080715	0.006807
487.260000	1.080715	0.006807
488.930000	1.080715	0.006807
490.610000	1.080715	0.006807
492.300000	1.080715	0.006807
493.980000	1.080715	0.006807
494.150000	1.080715	0.006807
495.850000	1.080715	0.006807
497.450000	1.080715	0.006807
497.710000	1.080715	0.006807
499.220000	1.080715	0.006807
499.390000	1.080715	0.006807
499.560000	1.080715	0.006807
501.070000	1.080715	0.006807
502.750000	1.080715	0.006807
504.430000	1.080715	0.006807
506.120000	1.080715	0.006807
507.800000	1.080715	0.006807
509.470000	1.080715	0.006807
509.640000	1.080715	0.006807
509.820000	1.080715	0.006807
511.490000	1.080715	0.006807
513.080000	1.080715	0.006807
514.750000	1.080715	0.006807
516.430000	1.080715	0.006807
518.020000	1.080715	0.006807
518.280000	1.080715	0.006807
519.780000	1.080715	0.006807
520.050000	1.080715	0.006807
521.550000	1.080715	0.006807
521.720000	1.080715	0.006807
523.310000	1.080715	0.006807
523.490000	1.080715	0.006807
525.170000	1.080715	0.006807
526.840000	1.080715	0.006807
527.010000	1.080715	0.006807
528.690000	1.080715	0.006807
530.130000	1.078198	0.006400
541.350000	1.077216	0.006339
541.700000	1.079184	0.006241
546.480000	1.079046	0.006289
548.150000	1.078864	0.006305
551.400000	1.078857	0.006301
552.990000	1.078088	0.006318
553.250000	1.078726	0.006253
554.920000	1.078673	0.006240
556.520000	1.078637	0.006232
556.700000	1.078655	0.006236
558.280000	1.078646	0.006223
559.970000	1.078648	0.006220
560.150000	1.078645	0.006216
561.830000	1.078643	0.006209
563.330000	1.078704	0.006180
565.010000	1.078730	0.006157
566.690000	1.078739	0.006149
568.370000	1.078742	0.006146
569.960000	1.077427	0.005920
573.240000	1.077435	0.005959
574.920000	1.077648	0.005985
576.590000	1.077720	0.005994
576.840000	1.078600	0.006070
578.400000	1.077999	0.006075
579.980000	1.078010	0.005974
581.650000	1.078107	0.005970
581.820000	1.077977	0.006042
583.410000	1.078028	0.006006
585.080000	1.078002	0.006019
586.770000	1.077994	0.006022
588.450000	1.077991	0.006022
588.630000	1.078031	0.006019
590.300000	1.078056	0.006019
591.960000	1.078064	0.006019
592.130000	1.078124	0.005991
593.800000	1.078123	0.005980
595.370000	1.078184	0.005981
595.540000	1.078123	0.005977
597.120000	1.078157	0.005962
597.300000	1.078123	0.005975
598.890000	1.078130	0.005967
600.570000	1.078121	0.005969
600.820000	1.078148	0.006015
602.510000	1.078137	0.006006
604.190000	1.078134	0.006003
605.850000	1.078132	0.006002
607.260000	1.078106	0.005979
608.940000	1.078088	0.005982
610.620000	1.078082	0.005982
610.790000	1.078030	0.005981
612.390000	1.078010	0.005974
612.560000	1.078005	0.005983
612.730000	1.078038	0.005982
614.400000	1.078007	0.005975
616.090000	1.077998	0.005973
616.250000	1.078003	0.005977
617.850000	1.078000	0.005976
618.030000	1.077983	0.005971
619.700000	1.077977	0.005969
621.370000	1.077975	0.005968
623.050000	1.077975	0.005968
624.570000	1.077971	0.005966
626.260000	1.077970	0.005965
627.830000	1.077966	0.005966
629.410000	1.077883	0.006063
632.660000	1.077987	0.006015
632.820000	1.077907	0.005952
634.490000	1.077909	0.005967
636.070000	1.077919	0.005988
637.730000	1.077915	0.006017
637.900000	1.077924	0.005995
639.560000	1.077928	0.006002
641.240000	1.077929	0.006004
642.810000	1.077939	0.005992
643.060000	1.077971	0.006011
644.550000	1.077939	0.005991
644.800000	1.077977	0.006008
646.300000	1.077939	0.005990
646.470000	1.077957	0.005998
646.720000	1.077985	0.006000
648.310000	1.077988	0.006002
648.480000	1.077989	0.006004
648.640000	1.078069	0.005983
650.310000	1.078063	0.005999
651.970000	1.078060	0.006003
653.560000	1.078060	0.005977
655.220000	1.078069	0.005977
656.890000	1.078071	0.005977
658.560000	1.078072	0.005977
658.730000	1.078070	0.005971
660.400000	1.078067	0.005971
662.070000	1.078066	0.005971
663.480000	1.078055	0.005983
665.150000	1.078041	0.005986
665.320000	1.078036	0.005980
666.990000	1.078032	0.005984
668.650000	1.078031	0.005985
668.820000	1.078027	0.005987
670.400000	1.078026	0.005988
672.070000	1.078025	0.005990
673.730000	1.078024	0.005990
675.310000	1.078030	0.005989
676.900000	1.078044	0.005985
678.570000	1.078039	0.005987
680.270000	1.078038	0.005988
680.690000	1.078016	0.005993
682.270000	1.078017	0.005993
683.920000	1.078016	0.005994
685.580000	1.078016	0.005994
687.160000	1.078013	0.005996
688.830000	1.078010	0.005997
689.000000	1.078013	0.005995
689.170000	1.078019	0.005993
690.590000	1.078020	0.005996
692.270000	1.078024	0.005995
693.870000	1.078020	0.005996
695.550000	1.078020	0.005997
697.240000	1.078020	0.005997
698.900000	1.078020	0.005997
699.150000	1.078027	0.005996
700.750000	1.078029	0.005995
700.920000	1.078027	0.005996
702.510000	1.078030	0.005995
702.680000	1.078027	0.005996
702.840000	1.078030	0.005995
704.530000	1.078031	0.005995
704.700000	1.078029	0.005995
706.290000	1.078029	0.005995
706.460000	1.078029	0.005995
708.130000	1.078029	0.005995
709.450000	1.078036	0.005994
711.110000	1.078036	0.005994
711.280000	1.078037	0.005994
712.860000	1.078037	0.005994
713.040000	1.078037	0.005995
714.620000	1.078038	0.005995
714.790000	1.078038	0.005995
714.970000	1.078040	0.005995
716.470000	1.078038	0.005995
716.650000	1.078040	0.005995
716.820000	1.078041	0.005995
716.990000	1.078043	0.005995
718.580000	1.078043	0.005996
718.760000	1.078046	0.005995
720.430000	1.078047	0.005996
720.600000	1.078044	0.005996
722.290000	1.078046	0.005997
723.890000	1.078044	0.005997
724.070000	1.078047	0.005997
725.570000	1.078044	0.005997
725.740000	1.078048	0.005998
727.330000	1.078050	0.005998
729.000000	1.078052	0.005998
730.570000	1.078052	0.005999
730.830000	1.078052	0.005999
732.330000	1.078054	0.005999
732.590000	1.078053	0.005999
734.090000	1.078055	0.006000
734.270000	1.078053	0.005999
734.530000	1.078053	0.006000
736.110000	1.078054	0.006000
736.280000	1.078054	0.006000
737.960000	1.078054	0.006000
739.550000	1.078055	0.006000
741.140000	1.078055	0.006000
741.310000	1.078055	0.006001
742.830000	1.078055	0.006000
744.500000	1.078055	0.006001
746.180000	1.078055	0.006001
746.350000	1.078055	0.006001
747.940000	1.078055	0.006001
748.110000	1.078055	0.006001
749.620000	1.078056	0.006001
751.310000	1.078056	0.006001
752.980000	1.078056	0.006001
754.650000	1.078056	0.006001
756.330000	1.078056	0.006001
756.500000	1.078056	0.006001
758.170000	1.078056	0.006001
758.350000	1.078056	0.006001
759.940000	1.078056	0.006001
760.110000	1.078056	0.006001
760.370000	1.078055	0.006001
761.970000	1.078055	0.006001
762.140000	1.078055	0.006001
763.650000	1.078056	0.006001
763.810000	1.078055	0.006001
765.410000	1.078055	0.006001
767.080000	1.078055	0.006001
768.750000	1.078055	0.006001
770.250000	1.078055	0.006001
771.920000	1.078055	0.006001
772.090000	1.078055	0.006001
773.770000	1.078056	0.006001
775.440000	1.078056	0.006001
775.610000	1.078056	0.006001
777.280000	1.078056	0.006001
778.850000	1.078056	0.006001
780.440000	1.078056	0.006001
780.620000	1.078056	0.006001
780.860000	1.078056	0.006001
782.280000	1.078056	0.006001
782.620000	1.078056	0.006001
782.790000	1.078056	0.006001
784.290000	1.078056	0.006001
784.540000	1.078056	0.006001
786.220000	1.078056	0.006001
787.900000	1.078056	0.006001
789.220000	1.078056	0.006001
790.910000	1.078056	0.006001
791.080000	1.078056	0.006001
791.250000	1.078056	0.006001
792.850000	1.078056	0.006001
793.020000	1.078056	0.006001
794.630000	1.078056	0.006001
796.220000	1.078056	0.006001
797.910000	1.078056	0.006001
799.600000	1.078056	0.006001
801.270000	1.078056	0.006001
801.450000	1.078056	0.006001
803.050000	1.078056	0.006001
803.220000	1.078056	0.006001
804.800000	1.078056	0.006001
806.480000	1.078056	0.006001
806.730000	1.078056	0.006001
806.900000	1.078056	0.006001
808.590000	1.078056	0.006001
810.270000	1.078056	0.006001
810.440000	1.078056	0.006001
812.120000	1.078056	0.006001
813.800000	1.078056	0.006001
815.410000	1.078056	0.006001
815.580000	1.078056	0.006001
817.100000	1.078056	0.006001
818.780000	1.078056	0.006001
818.940000	1.078056	0.006001
820.360000	1.078056	0.006001
820.540000	1.078056	0.006001
820.880000	1.078056	0.006001
822.320000	1.078056	0.006001
822.660000	1.078056	0.006001
824.260000	1.078056	0.006001
824.430000	1.078056	0.006001
825.770000	1.078056	0.006001
826.110000	1.078056	0.006001
827.540000	1.078056	0.006001
827.790000	1.078056	0.006001
827.970000	1.078056	0.006001
829.560000	1.078056	0.006001
831.160000	1.078056	0.006001
832.770000	1.078056	0.006001
834.460000	1.078056	0.006001
836.140000	1.078056	0.006001
836.310000	1.078056	0.006001
838.010000	1.078056	0.006001
839.700000	1.078056	0.006001
841.310000	1.078056	0.006001
843.010000	1.078056	0.006001
843.180000	1.078056	0.006001
844.800000	1.078056	0.006001
846.090000	1.078056	0.006001
