using files: 
input-train_pred10.series
target-train_pred10.series
input-test_pred10.series
target-test_pred10.series
input-validate_pred10.series
target-validate_pred10.series
0.020000	0.314197	0.011025
0.180000	0.252698	0.011297
0.470000	0.643006	0.011186
0.530000	0.603157	0.010328
0.670000	0.546176	0.010431
1.000000	0.723671	0.010357
1.170000	0.786771	0.009629
2.060000	0.786943	0.006501
8.270000	0.779399	0.006402
8.730000	0.744604	0.006244
9.200000	0.735428	0.005996
10.110000	0.738027	0.005856
11.460000	0.734203	0.005718
12.370000	0.734333	0.005711
12.840000	0.721439	0.005285
17.680000	0.645869	0.005460
17.750000	0.738312	0.005156
18.200000	0.737926	0.004759
18.670000	0.739433	0.004665
20.460000	0.738952	0.004633
20.930000	0.738861	0.004618
21.390000	0.738702	0.004616
21.850000	0.738487	0.004616
22.320000	0.738410	0.004617
22.780000	0.738387	0.004606
23.250000	0.736673	0.004592
23.720000	0.736471	0.004592
24.170000	0.735960	0.004595
24.630000	0.734857	0.004598
25.100000	0.734598	0.004601
25.560000	0.734378	0.004604
26.020000	0.734261	0.004605
26.490000	0.734183	0.004606
26.950000	0.734132	0.004607
27.410000	0.734097	0.004608
27.880000	0.734075	0.004608
28.340000	0.734060	0.004608
28.800000	0.734050	0.004608
29.260000	0.734991	0.004609
29.710000	0.730172	0.004473
30.170000	0.726409	0.004382
32.860000	0.733117	0.004298
35.050000	0.731759	0.004248
35.090000	0.731837	0.004272
35.540000	0.731058	0.004155
37.350000	0.730725	0.004175
37.810000	0.730958	0.004163
40.450000	0.730885	0.004142
40.940000	0.730772	0.004147
41.380000	0.730185	0.004136
41.840000	0.730234	0.004162
42.340000	0.730043	0.004150
42.790000	0.729813	0.004156
43.260000	0.729640	0.004140
43.720000	0.729533	0.004131
43.770000	0.729517	0.004135
44.230000	0.729471	0.004126
44.680000	0.730399	0.004126
44.730000	0.729443	0.004121
45.170000	0.729359	0.004115
45.630000	0.729319	0.004109
46.100000	0.729294	0.004105
46.570000	0.729279	0.004103
47.040000	0.729270	0.004102
47.080000	0.729131	0.004096
47.550000	0.729106	0.004093
48.020000	0.729091	0.004091
48.470000	0.728980	0.004085
48.950000	0.728533	0.004081
49.420000	0.728498	0.004079
49.890000	0.728476	0.004078
50.350000	0.728463	0.004077
50.820000	0.728456	0.004077
50.860000	0.728469	0.004076
51.340000	0.728495	0.004077
51.810000	0.728511	0.004077
52.270000	0.728520	0.004077
52.740000	0.728526	0.004077
53.220000	0.728529	0.004077
53.660000	0.728532	0.004077
54.130000	0.728536	0.004077
54.610000	0.728539	0.004077
55.070000	0.728541	0.004077
55.120000	0.728542	0.004077
55.580000	0.728543	0.004077
56.050000	0.728543	0.004077
56.500000	0.728545	0.004077
56.970000	0.728546	0.004077
57.440000	0.728546	0.004077
57.910000	0.728546	0.004077
58.370000	0.728546	0.004077
58.420000	0.728547	0.004077
58.880000	0.728547	0.004077
58.920000	0.728547	0.004077
59.380000	0.728547	0.004077
59.840000	0.728548	0.004077
59.880000	0.728547	0.004077
60.330000	0.728547	0.004077
60.800000	0.728547	0.004077
61.260000	0.728547	0.004077
61.310000	0.728547	0.004077
61.760000	0.728547	0.004077
61.800000	0.728547	0.004077
62.250000	0.728547	0.004077
62.710000	0.728547	0.004077
63.190000	0.728547	0.004077
63.660000	0.728547	0.004077
63.700000	0.728547	0.004077
64.170000	0.728547	0.004077
64.640000	0.728547	0.004077
65.100000	0.728547	0.004077
65.570000	0.728547	0.004077
66.020000	0.728548	0.004077
66.490000	0.728547	0.004077
66.950000	0.728547	0.004077
67.420000	0.728547	0.004077
67.470000	0.728548	0.004077
67.930000	0.728547	0.004077
68.390000	0.728547	0.004077
68.870000	0.728547	0.004077
69.310000	0.728547	0.004077
69.780000	0.728547	0.004077
70.250000	0.728547	0.004077
70.720000	0.728547	0.004077
71.180000	0.728547	0.004077
71.230000	0.728547	0.004077
71.670000	0.728547	0.004077
71.720000	0.728547	0.004077
72.170000	0.728547	0.004077
72.640000	0.728547	0.004077
73.100000	0.728547	0.004077
73.570000	0.728547	0.004077
73.610000	0.728547	0.004077
74.060000	0.728547	0.004077
74.100000	0.728547	0.004077
74.560000	0.728547	0.004077
75.020000	0.728547	0.004077
75.490000	0.728547	0.004077
75.910000	0.726094	0.003947
78.180000	0.844552	0.003788
78.620000	0.888378	0.003769
79.090000	0.643103	0.003598
80.000000	0.628818	0.003609
83.120000	0.622477	0.003603
83.170000	0.835186	0.003576
86.250000	0.737200	0.003559
86.340000	0.614256	0.003626
86.750000	0.624291	0.003561
87.210000	0.588348	0.003565
87.680000	0.576690	0.003567
87.740000	0.648374	0.003588
88.210000	0.758268	0.003551
89.100000	0.679420	0.003530
89.990000	0.575202	0.003524
90.080000	0.792604	0.003549
90.480000	0.578395	0.003517
90.520000	0.572008	0.003535
90.570000	0.678859	0.003514
90.990000	0.572195	0.003529
91.080000	0.603625	0.003534
91.530000	0.674811	0.003513
91.990000	0.657620	0.003519
93.330000	0.589351	0.003532
95.140000	0.593857	0.003527
96.010000	0.587700	0.003538
96.520000	0.604042	0.003526
96.570000	0.599002	0.003516
97.030000	0.587079	0.003520
97.480000	0.615324	0.003512
97.950000	0.612927	0.003510
98.420000	0.611792	0.003509
98.890000	0.611247	0.003508
99.350000	0.610985	0.003508
99.390000	0.610533	0.003505
99.870000	0.603542	0.003506
100.320000	0.603045	0.003505
100.770000	0.612708	0.003506
100.810000	0.599398	0.003504
101.250000	0.601221	0.003508
101.720000	0.596518	0.003509
102.190000	0.594448	0.003510
102.280000	0.578687	0.003489
103.150000	0.587009	0.003500
103.200000	0.575562	0.003485
103.620000	0.592078	0.003496
103.670000	0.579925	0.003500
104.120000	0.582678	0.003488
104.580000	0.579601	0.003485
104.630000	0.577227	0.003483
105.070000	0.577466	0.003483
105.120000	0.577063	0.003476
105.570000	0.576671	0.003479
105.610000	0.576991	0.003473
106.060000	0.576297	0.003474
106.530000	0.576134	0.003471
106.990000	0.576060	0.003470
107.470000	0.576027	0.003470
107.940000	0.576011	0.003470
108.380000	0.576449	0.003472
108.850000	0.576807	0.003470
109.330000	0.576982	0.003469
109.370000	0.577168	0.003470
109.810000	0.576998	0.003470
109.860000	0.577511	0.003470
110.300000	0.577381	0.003469
110.770000	0.577566	0.003469
111.240000	0.577653	0.003469
111.290000	0.577423	0.003469
111.730000	0.577526	0.003469
111.770000	0.577411	0.003469
112.220000	0.577448	0.003469
112.290000	0.576974	0.003468
112.740000	0.577139	0.003468
112.830000	0.579345	0.003468
113.290000	0.580529	0.003468
113.760000	0.581106	0.003467
114.240000	0.581375	0.003467
114.660000	0.579105	0.003468
114.700000	0.580811	0.003469
115.120000	0.577832	0.003468
115.170000	0.581844	0.003467
115.620000	0.580124	0.003471
116.090000	0.581351	0.003472
116.550000	0.581938	0.003473
117.020000	0.582206	0.003473
117.090000	0.580609	0.003467
117.540000	0.581485	0.003468
118.030000	0.581944	0.003468
118.500000	0.582119	0.003469
118.960000	0.582196	0.003470
119.420000	0.582277	0.003471
119.890000	0.582384	0.003471
120.350000	0.582431	0.003471
120.790000	0.582767	0.003469
120.840000	0.582451	0.003471
121.290000	0.583073	0.003470
121.730000	0.583902	0.003469
122.200000	0.583837	0.003469
122.660000	0.583809	0.003469
123.130000	0.583797	0.003470
123.170000	0.584011	0.003469
123.620000	0.583824	0.003469
123.660000	0.584034	0.003469
124.110000	0.583881	0.003469
124.160000	0.584044	0.003469
124.600000	0.584097	0.003469
124.690000	0.584626	0.003467
125.150000	0.584467	0.003468
125.620000	0.584401	0.003468
126.100000	0.584373	0.003469
126.140000	0.584760	0.003469
126.590000	0.584689	0.003468
126.640000	0.584751	0.003468
127.080000	0.585003	0.003468
127.120000	0.584748	0.003468
127.590000	0.584746	0.003468
128.020000	0.585127	0.003469
128.490000	0.585150	0.003469
128.960000	0.585160	0.003469
129.390000	0.584030	0.003466
129.850000	0.584116	0.003466
129.900000	0.584409	0.003468
130.370000	0.583911	0.003468
130.840000	0.583711	0.003468
130.880000	0.583893	0.003467
131.330000	0.583809	0.003467
131.370000	0.583455	0.003466
131.840000	0.583280	0.003466
132.310000	0.583210	0.003466
132.360000	0.582864	0.003466
132.820000	0.582590	0.003467
132.870000	0.583040	0.003464
133.320000	0.582582	0.003464
133.360000	0.582620	0.003464
133.810000	0.582679	0.003463
134.260000	0.582389	0.003463
134.720000	0.582395	0.003462
135.180000	0.582398	0.003462
135.230000	0.582302	0.003462
135.650000	0.582401	0.003462
135.720000	0.582263	0.003462
136.150000	0.582526	0.003461
136.240000	0.582031	0.003462
136.620000	0.581932	0.003461
137.090000	0.581907	0.003461
137.140000	0.582167	0.003462
137.590000	0.582040	0.003461
137.630000	0.582010	0.003462
138.080000	0.582006	0.003462
138.120000	0.581949	0.003462
138.590000	0.581925	0.003462
139.060000	0.581916	0.003462
139.110000	0.581864	0.003462
139.150000	0.581394	0.003462
139.600000	0.581530	0.003461
139.640000	0.581147	0.003462
140.090000	0.581132	0.003461
140.140000	0.581052	0.003461
140.180000	0.581015	0.003462
140.600000	0.580828	0.003461
140.670000	0.580850	0.003462
141.140000	0.580787	0.003462
141.590000	0.580762	0.003462
142.020000	0.580390	0.003461
142.080000	0.580711	0.003462
142.540000	0.580692	0.003462
143.020000	0.580685	0.003462
143.420000	0.580232	0.003461
143.880000	0.580189	0.003461
143.930000	0.580255	0.003462
144.400000	0.580188	0.003462
144.860000	0.580163	0.003461
144.910000	0.580081	0.003462
145.380000	0.580036	0.003462
145.420000	0.579971	0.003462
145.870000	0.579956	0.003462
145.920000	0.579839	0.003462
146.380000	0.579790	0.003462
146.430000	0.579731	0.003461
146.870000	0.579684	0.003461
146.920000	0.579633	0.003462
147.380000	0.579579	0.003462
147.820000	0.579569	0.003462
147.860000	0.579540	0.003462
148.290000	0.579505	0.003462
148.340000	0.579489	0.003462
148.780000	0.579412	0.003462
149.230000	0.579437	0.003462
149.270000	0.579378	0.003462
149.720000	0.579350	0.003462
150.200000	0.579319	0.003462
150.660000	0.579308	0.003462
150.760000	0.579360	0.003462
151.180000	0.579322	0.003462
151.630000	0.579311	0.003462
152.090000	0.579313	0.003462
152.570000	0.579314	0.003461
152.610000	0.579310	0.003462
153.070000	0.579308	0.003461
153.110000	0.579309	0.003461
153.150000	0.579311	0.003461
153.570000	0.579306	0.003461
153.620000	0.579305	0.003461
153.670000	0.579311	0.003461
153.710000	0.579283	0.003461
154.160000	0.579289	0.003461
154.200000	0.579277	0.003461
154.650000	0.579263	0.003461
155.090000	0.579251	0.003462
155.140000	0.579253	0.003461
155.200000	0.579259	0.003461
155.600000	0.579240	0.003461
155.700000	0.579259	0.003461
156.080000	0.579231	0.003462
156.170000	0.579254	0.003461
156.570000	0.579223	0.003462
156.660000	0.579253	0.003461
157.060000	0.579220	0.003462
157.150000	0.579253	0.003461
157.550000	0.579219	0.003462
157.590000	0.579218	0.003462
157.640000	0.579256	0.003461
158.090000	0.579223	0.003461
158.130000	0.579256	0.003461
158.600000	0.579257	0.003461
159.070000	0.579257	0.003461
159.110000	0.579245	0.003461
159.590000	0.579241	0.003461
160.020000	0.579243	0.003461
160.080000	0.579240	0.003461
160.500000	0.579246	0.003461
160.940000	0.579237	0.003461
160.990000	0.579247	0.003461
161.040000	0.579239	0.003461
161.460000	0.579255	0.003461
161.510000	0.579241	0.003461
161.950000	0.579248	0.003461
161.990000	0.579239	0.003461
162.060000	0.579242	0.003461
162.540000	0.579242	0.003461
163.000000	0.579242	0.003461
163.450000	0.579242	0.003461
163.510000	0.579244	0.003461
163.960000	0.579244	0.003461
164.380000	0.579244	0.003461
164.460000	0.579245	0.003461
164.860000	0.579244	0.003461
165.320000	0.579244	0.003461
165.790000	0.579245	0.003461
165.860000	0.579245	0.003461
166.330000	0.579245	0.003461
166.790000	0.579245	0.003461
167.240000	0.579244	0.003461
167.290000	0.579245	0.003461
167.350000	0.579245	0.003461
167.750000	0.579245	0.003461
167.820000	0.579245	0.003461
167.870000	0.579245	0.003461
168.310000	0.579245	0.003461
168.360000	0.579245	0.003461
168.780000	0.579245	0.003461
168.830000	0.579245	0.003461
169.250000	0.579245	0.003461
169.290000	0.579245	0.003461
169.760000	0.579245	0.003461
170.180000	0.579245	0.003461
170.230000	0.579245	0.003461
170.290000	0.579244	0.003461
170.690000	0.579244	0.003461
171.160000	0.579244	0.003461
171.210000	0.579244	0.003461
171.290000	0.579244	0.003461
171.670000	0.579244	0.003461
172.130000	0.579244	0.003461
172.600000	0.579244	0.003461
172.650000	0.579244	0.003461
172.700000	0.579244	0.003461
173.140000	0.579244	0.003461
173.190000	0.579244	0.003461
173.630000	0.579244	0.003461
174.080000	0.579244	0.003461
174.120000	0.579244	0.003461
174.570000	0.579244	0.003461
175.040000	0.579244	0.003461
175.500000	0.579244	0.003461
175.550000	0.579245	0.003461
175.590000	0.579244	0.003461
176.050000	0.579244	0.003461
176.500000	0.579244	0.003461
176.550000	0.579244	0.003461
176.590000	0.579245	0.003461
177.060000	0.579245	0.003461
177.510000	0.579245	0.003461
177.570000	0.579245	0.003461
178.040000	0.579245	0.003461
178.510000	0.579245	0.003461
178.940000	0.579245	0.003461
179.390000	0.579245	0.003461
179.860000	0.579245	0.003461
180.300000	0.579245	0.003461
180.770000	0.579245	0.003461
181.210000	0.579245	0.003461
181.680000	0.579245	0.003461
182.140000	0.579245	0.003461
182.610000	0.579245	0.003461
182.650000	0.579245	0.003461
183.100000	0.579245	0.003461
183.170000	0.579245	0.003461
183.640000	0.579245	0.003461
184.110000	0.579245	0.003461
184.150000	0.579245	0.003461
184.200000	0.579245	0.003461
184.620000	0.579245	0.003461
184.660000	0.579245	0.003461
185.100000	0.579245	0.003461
185.550000	0.579245	0.003461
185.590000	0.579245	0.003461
186.040000	0.579245	0.003461
186.480000	0.579245	0.003461
186.950000	0.579245	0.003461
187.410000	0.579245	0.003461
187.880000	0.579245	0.003461
187.920000	0.579245	0.003461
188.390000	0.579245	0.003461
188.430000	0.579245	0.003461
188.900000	0.579245	0.003461
188.970000	0.579245	0.003461
189.440000	0.579245	0.003461
189.870000	0.579245	0.003461
190.340000	0.579245	0.003461
190.810000	0.579245	0.003461
191.230000	0.579245	0.003461
191.700000	0.579245	0.003461
192.150000	0.579245	0.003461
192.190000	0.579245	0.003461
192.650000	0.579245	0.003461
192.700000	0.579245	0.003461
193.120000	0.579245	0.003461
193.190000	0.579245	0.003461
193.230000	0.579245	0.003461
193.690000	0.579245	0.003461
194.140000	0.579245	0.003461
194.600000	0.579245	0.003461
194.670000	0.579245	0.003461
195.050000	0.579245	0.003461
195.100000	0.579245	0.003461
195.550000	0.579245	0.003461
196.000000	0.579245	0.003461
196.480000	0.579245	0.003461
196.940000	0.579245	0.003461
197.430000	0.579245	0.003461
197.490000	0.579245	0.003461
197.920000	0.579245	0.003461
198.360000	0.579245	0.003461
198.820000	0.579245	0.003461
201.120000	0.579245	0.003461
201.580000	0.579245	0.003461
201.620000	0.579245	0.003461
202.060000	0.579245	0.003461
202.560000	0.579245	0.003461
202.600000	0.579245	0.003461
203.060000	0.579245	0.003461
203.510000	0.579245	0.003461
203.550000	0.579245	0.003461
204.010000	0.579245	0.003461
204.440000	0.579245	0.003461
204.860000	0.579245	0.003461
204.910000	0.579245	0.003461
205.360000	0.579245	0.003461
206.290000	0.579245	0.003461
206.800000	0.579245	0.003461
207.740000	0.579245	0.003461
208.210000	0.579245	0.003461
209.100000	0.579245	0.003461
209.560000	0.579245	0.003461
210.440000	0.579245	0.003461
213.550000	0.579245	0.003461
217.140000	0.579245	0.003461
220.260000	0.579245	0.003461
222.110000	0.579245	0.003461
223.880000	0.579245	0.003461
232.290000	0.579245	0.003461
234.390000	0.579245	0.003461
