using files: 
input-train_pred100.series
target-train_pred100.series
input-test_pred100.series
target-test_pred100.series
input-validate_pred100.series
target-validate_pred100.series
0.100000	0.569203	0.068653
0.380000	0.550821	0.070329
3.060000	1.009376	0.074184
3.280000	1.265936	0.090694
11.290000	1.176252	0.384969
18.070000	1.265223	0.078237
26.590000	1.285172	0.081345
32.660000	1.155467	0.390120
47.280000	1.128175	0.188910
47.510000	1.107721	0.089069
51.780000	1.122270	0.080115
58.160000	1.105828	0.107765
62.480000	1.100864	0.107692
64.710000	1.102865	0.128445
79.590000	1.104377	0.091515
92.440000	1.106925	0.095159
94.690000	1.108042	0.092672
96.920000	1.110882	0.093379
111.820000	1.110576	0.092397
114.030000	1.109910	0.092120
118.340000	1.109602	0.091217
120.550000	1.109730	0.090896
122.770000	1.109841	0.090674
127.090000	1.109899	0.090617
129.310000	1.109882	0.090676
131.530000	1.109870	0.090715
133.730000	1.109863	0.090741
135.950000	1.109863	0.090763
153.000000	1.109862	0.090762
155.240000	1.109862	0.090758
157.480000	1.109862	0.090755
159.710000	1.109863	0.090753
161.960000	1.109863	0.090752
164.190000	1.109863	0.090751
166.410000	1.109863	0.090751
168.630000	1.109863	0.090750
170.840000	1.109863	0.090750
173.060000	1.109863	0.090750
175.290000	1.109863	0.090750
177.500000	1.109863	0.090750
179.710000	1.109863	0.090750
181.930000	1.109863	0.090750
184.150000	1.109863	0.090750
186.370000	1.109863	0.090750
188.570000	1.109863	0.090750
190.790000	1.109863	0.090750
192.990000	1.109863	0.090750
195.200000	1.109863	0.090750
197.410000	1.109863	0.090750
199.620000	1.109863	0.090750
201.820000	1.109863	0.090750
204.030000	1.109863	0.090750
206.250000	1.109863	0.090750
208.450000	1.109863	0.090750
208.670000	1.067669	0.079367
269.920000	1.067895	0.078384
278.470000	1.068801	0.077302
280.690000	1.069198	0.075741
282.920000	1.069496	0.074880
285.130000	1.069668	0.074405
287.350000	1.069768	0.074137
289.450000	1.067690	0.082854
291.770000	1.065718	0.082309
295.970000	1.066335	0.083176
300.280000	1.067119	0.084844
306.790000	1.064937	0.079791
308.890000	1.066476	0.081802
309.110000	1.064895	0.079026
311.200000	1.065312	0.079810
315.620000	1.066569	0.082002
322.050000	1.065635	0.083111
328.510000	1.065673	0.082886
330.620000	1.064981	0.082679
332.850000	1.064572	0.082370
335.190000	1.063838	0.082190
337.420000	1.063184	0.082183
339.640000	1.062841	0.082138
341.750000	1.062856	0.082299
344.100000	1.062752	0.082452
346.340000	1.062805	0.082652
348.550000	1.062834	0.082764
350.670000	1.064005	0.083477
352.890000	1.064163	0.083797
355.100000	1.064249	0.083970
357.320000	1.064295	0.084063
359.540000	1.064320	0.084114
361.770000	1.064334	0.084141
363.990000	1.064341	0.084156
366.220000	1.064345	0.084164
366.450000	1.064165	0.084319
368.680000	1.064323	0.084542
370.800000	1.064297	0.084642
373.040000	1.064264	0.084853
375.260000	1.064246	0.084965
377.480000	1.064237	0.085026
377.710000	1.064207	0.084939
379.820000	1.064225	0.084992
380.040000	1.064161	0.085048
382.150000	1.051739	0.085031
382.380000	1.064136	0.085106
384.590000	1.064124	0.085136
386.700000	1.064091	0.085175
388.910000	1.064066	0.085229
391.120000	1.064054	0.085257
393.320000	1.064047	0.085272
395.530000	1.064044	0.085280
395.760000	1.064035	0.085300
397.980000	1.064029	0.085318
400.090000	1.064027	0.085326
400.310000	1.064025	0.085327
402.420000	1.064022	0.085338
404.680000	1.064020	0.085345
406.890000	1.064019	0.085348
409.120000	1.064018	0.085350
409.340000	1.064016	0.085353
411.460000	1.064016	0.085355
411.680000	1.064015	0.085358
413.800000	1.064015	0.085360
416.030000	1.064014	0.085362
418.280000	1.064014	0.085363
420.490000	1.064014	0.085364
420.710000	1.064014	0.085366
422.820000	1.064013	0.085365
423.050000	1.064013	0.085366
425.160000	1.064013	0.085367
427.360000	1.064013	0.085369
429.570000	1.064013	0.085369
431.780000	1.064013	0.085369
433.990000	1.064013	0.085369
436.200000	1.064013	0.085370
436.420000	1.064013	0.085370
438.620000	1.064013	0.085370
440.820000	1.064013	0.085370
442.910000	1.064013	0.085370
443.130000	1.064013	0.085370
445.220000	1.064013	0.085370
447.430000	1.064013	0.085370
449.630000	1.064013	0.085370
451.840000	1.064013	0.085370
454.040000	1.064013	0.085370
454.270000	1.064013	0.085370
456.380000	1.064013	0.085370
458.580000	1.064013	0.085370
460.800000	1.064013	0.085370
461.040000	1.064013	0.085370
463.130000	1.064013	0.085370
465.350000	1.064013	0.085370
465.580000	1.064013	0.085370
467.690000	1.064013	0.085370
469.930000	1.064013	0.085370
472.140000	1.064013	0.085370
472.370000	1.064013	0.085370
474.480000	1.064013	0.085370
474.710000	1.064013	0.085370
476.820000	1.064013	0.085370
477.050000	1.064013	0.085370
479.250000	1.064013	0.085370
481.460000	1.064013	0.085370
483.550000	1.064013	0.085370
485.760000	1.064013	0.085370
487.970000	1.064013	0.085370
488.200000	1.064013	0.085370
490.410000	1.064013	0.085370
492.620000	1.064013	0.085370
494.840000	1.064013	0.085370
496.930000	1.064013	0.085370
499.130000	1.064013	0.085370
501.360000	1.064013	0.085370
503.570000	1.064013	0.085370
503.800000	1.064013	0.085370
505.890000	1.064013	0.085370
506.120000	1.064013	0.085370
508.200000	1.064013	0.085370
508.430000	1.064013	0.085370
510.520000	1.064013	0.085370
512.730000	1.064013	0.085370
514.930000	1.064013	0.085370
517.130000	1.064013	0.085370
519.330000	1.064013	0.085370
519.550000	1.064013	0.085370
521.650000	1.064013	0.085370
521.870000	1.064013	0.085370
523.970000	1.064013	0.085370
524.200000	1.064013	0.085370
526.400000	1.064013	0.085370
528.620000	1.064013	0.085370
530.830000	1.064013	0.085370
535.010000	1.064013	0.085370
537.320000	1.064013	0.085370
585.680000	1.064013	0.085370
598.120000	1.063898	0.087291
600.330000	1.064053	0.088671
602.520000	1.064118	0.089258
604.730000	1.064145	0.089502
606.950000	1.064156	0.089603
609.140000	1.064161	0.089645
609.370000	1.063969	0.090129
611.460000	1.063941	0.090414
611.680000	1.063966	0.090050
613.870000	1.063965	0.090016
616.080000	1.063964	0.090002
616.300000	1.064180	0.090169
618.400000	1.064008	0.089870
620.620000	1.064026	0.089814
620.850000	1.064064	0.090207
622.940000	1.064048	0.089996
625.150000	1.064058	0.090069
625.370000	1.063931	0.089873
627.470000	1.063950	0.090009
627.700000	1.063902	0.089796
629.800000	1.063826	0.089782
631.910000	1.063802	0.089902
634.120000	1.063701	0.089795
636.340000	1.063660	0.089753
638.540000	1.063644	0.089736
640.750000	1.063638	0.089729
640.970000	1.063607	0.089682
643.180000	1.063592	0.089638
645.390000	1.063586	0.089620
647.590000	1.063584	0.089613
649.690000	1.063582	0.089585
650.020000	1.063571	0.089610
651.990000	1.063582	0.089586
652.220000	1.063572	0.089600
654.310000	1.063577	0.089591
654.540000	1.063567	0.089596
656.620000	1.063567	0.089609
658.830000	1.063563	0.089616
661.050000	1.063561	0.089619
661.390000	1.063563	0.089607
663.630000	1.063563	0.089613
665.850000	1.063563	0.089616
667.950000	1.063562	0.089613
670.070000	1.063562	0.089609
670.300000	1.063562	0.089613
672.410000	1.063560	0.089613
674.630000	1.063559	0.089615
676.840000	1.063559	0.089615
679.040000	1.063559	0.089615
679.270000	1.063558	0.089616
681.470000	1.063557	0.089616
683.680000	1.063557	0.089616
685.770000	1.063557	0.089617
687.980000	1.063557	0.089617
690.170000	1.063557	0.089617
692.380000	1.063557	0.089617
692.610000	1.063557	0.089617
694.810000	1.063557	0.089617
695.050000	1.063557	0.089617
697.270000	1.063557	0.089617
699.500000	1.063557	0.089617
701.730000	1.063557	0.089617
703.850000	1.063557	0.089617
705.950000	1.063557	0.089617
708.180000	1.063557	0.089617
710.400000	1.063557	0.089617
712.610000	1.063557	0.089617
712.840000	1.063557	0.089617
714.940000	1.063557	0.089617
715.170000	1.063557	0.089617
717.290000	1.063557	0.089617
717.520000	1.063557	0.089617
717.740000	1.063557	0.089617
719.860000	1.063557	0.089617
720.080000	1.063557	0.089617
722.080000	1.063557	0.089617
724.290000	1.063557	0.089617
724.530000	1.063557	0.089617
726.760000	1.063557	0.089617
729.000000	1.063557	0.089617
731.110000	1.063557	0.089617
731.450000	1.063557	0.089617
733.670000	1.063557	0.089617
735.880000	1.063557	0.089617
738.000000	1.063557	0.089617
740.220000	1.063557	0.089617
742.460000	1.063557	0.089617
742.690000	1.063557	0.089617
744.680000	1.063557	0.089617
746.910000	1.063557	0.089617
749.140000	1.063557	0.089617
751.360000	1.063557	0.089617
751.590000	1.063557	0.089617
753.810000	1.063557	0.089617
755.920000	1.063557	0.089617
756.140000	1.063557	0.089617
758.230000	1.063557	0.089617
760.440000	1.063557	0.089617
762.660000	1.063557	0.089617
762.880000	1.063557	0.089617
764.980000	1.063557	0.089617
765.220000	1.063557	0.089617
765.440000	1.063557	0.089617
767.650000	1.063557	0.089617
769.880000	1.063557	0.089617
772.100000	1.063557	0.089617
774.100000	1.063557	0.089617
774.440000	1.063557	0.089617
776.430000	1.063557	0.089617
778.650000	1.063557	0.089617
780.970000	1.063557	0.089617
783.170000	1.063557	0.089617
785.370000	1.063557	0.089617
785.600000	1.063557	0.089617
787.790000	1.063557	0.089617
789.880000	1.063557	0.089617
790.100000	1.063557	0.089617
792.100000	1.063557	0.089617
792.320000	1.063557	0.089617
794.410000	1.063557	0.089617
794.630000	1.063557	0.089617
796.730000	1.063557	0.089617
796.950000	1.063557	0.089617
799.080000	1.063557	0.089617
801.290000	1.063557	0.089617
803.490000	1.063557	0.089617
803.720000	1.063557	0.089617
805.940000	1.063557	0.089617
808.150000	1.063557	0.089617
808.390000	1.063557	0.089617
810.460000	1.063557	0.089617
810.690000	1.063557	0.089617
812.670000	1.063557	0.089617
823.390000	1.063557	0.089617
827.700000	1.063557	0.089617
873.950000	1.063557	0.089617
1090.740000	1.063557	0.089617
