using files: 
input-train_pred75.series
target-train_pred75.series
input-test_pred75.series
target-test_pred75.series
input-validate_pred75.series
target-validate_pred75.series
0.040000	0.393870	0.032844
0.240000	0.408047	0.030865
0.370000	0.360945	0.030699
0.800000	0.409245	0.030570
1.580000	0.827492	0.031110
3.140000	0.776728	0.030677
5.340000	0.608741	0.031210
8.030000	0.592986	0.029899
15.010000	0.571584	0.031507
16.780000	0.587137	0.031864
20.270000	0.565847	0.031026
24.620000	0.573509	0.030702
29.840000	0.588025	0.030520
30.740000	0.659342	0.030430
31.640000	0.637565	0.030348
32.540000	0.611547	0.030293
33.440000	0.602366	0.030255
34.340000	0.598766	0.030230
35.250000	0.597168	0.030213
36.140000	0.596387	0.030201
37.040000	0.595976	0.030194
37.950000	0.595745	0.030188
38.850000	0.595609	0.030184
39.750000	0.595526	0.030182
41.500000	0.595523	0.030182
42.400000	0.595558	0.030184
43.300000	0.595583	0.030185
44.190000	0.595600	0.030185
45.090000	0.595611	0.030186
45.980000	0.595619	0.030186
46.880000	0.595625	0.030186
47.780000	0.595628	0.030186
48.680000	0.595631	0.030186
49.580000	0.595632	0.030186
50.480000	0.595633	0.030186
51.390000	0.595634	0.030186
52.290000	0.595635	0.030186
53.190000	0.595635	0.030186
54.090000	0.595635	0.030186
54.990000	0.595635	0.030186
55.890000	0.595635	0.030187
56.790000	0.595635	0.030187
57.700000	0.595635	0.030187
58.600000	0.595636	0.030187
59.500000	0.595636	0.030187
60.400000	0.595636	0.030187
61.300000	0.595636	0.030187
62.200000	0.595636	0.030187
63.100000	0.595636	0.030187
63.990000	0.595636	0.030187
64.900000	0.595636	0.030187
66.650000	0.595636	0.030187
67.550000	0.595636	0.030187
83.000000	0.595636	0.030187
88.170000	0.595636	0.030187
129.660000	0.764091	0.029245
130.550000	0.763921	0.029245
131.440000	0.763825	0.029245
132.340000	0.763771	0.029245
133.190000	0.763684	0.029247
134.090000	0.763736	0.029249
134.990000	0.763764	0.029250
135.080000	0.763706	0.029250
135.920000	0.763782	0.029250
136.000000	0.763728	0.029252
136.860000	0.763716	0.029252
136.960000	0.763741	0.029254
137.800000	0.763717	0.029255
138.700000	0.763718	0.029256
138.790000	0.763769	0.029255
139.640000	0.763786	0.029256
139.720000	0.763780	0.029256
140.580000	0.763817	0.029255
140.670000	0.763786	0.029256
141.520000	0.763801	0.029256
141.610000	0.763790	0.029256
142.470000	0.763787	0.029256
142.560000	0.763792	0.029256
143.440000	0.763793	0.029256
144.310000	0.763795	0.029256
145.200000	0.763805	0.029256
146.090000	0.763809	0.029256
146.990000	0.763812	0.029256
147.880000	0.763814	0.029256
147.970000	0.763816	0.029256
148.860000	0.763819	0.029256
149.710000	0.763819	0.029256
149.790000	0.763821	0.029256
150.650000	0.763821	0.029256
151.550000	0.763823	0.029256
152.440000	0.763823	0.029256
153.340000	0.763823	0.029256
154.230000	0.763824	0.029256
155.130000	0.763824	0.029256
155.220000	0.763824	0.029256
156.070000	0.763824	0.029256
156.970000	0.763824	0.029256
157.860000	0.763824	0.029256
158.750000	0.763824	0.029256
158.840000	0.763824	0.029256
159.690000	0.763824	0.029256
159.770000	0.763824	0.029256
160.630000	0.763824	0.029256
161.520000	0.763824	0.029256
162.420000	0.763824	0.029256
163.310000	0.763824	0.029256
164.210000	0.763824	0.029256
165.100000	0.763824	0.029256
165.190000	0.763824	0.029256
166.080000	0.763824	0.029256
166.940000	0.763824	0.029256
167.830000	0.763824	0.029256
168.720000	0.763824	0.029256
169.620000	0.763824	0.029256
169.700000	0.763824	0.029256
170.600000	0.763824	0.029256
171.490000	0.763824	0.029256
172.340000	0.763824	0.029256
173.240000	0.763824	0.029256
174.130000	0.763824	0.029256
175.030000	0.763824	0.029256
175.110000	0.763824	0.029256
175.970000	0.763824	0.029256
176.060000	0.763824	0.029256
176.910000	0.763824	0.029256
176.990000	0.763824	0.029256
177.840000	0.763824	0.029256
178.750000	0.763824	0.029256
179.640000	0.763824	0.029256
179.720000	0.763824	0.029256
180.580000	0.763824	0.029256
180.670000	0.763824	0.029256
183.230000	0.763824	0.029256
184.110000	0.763824	0.029256
185.050000	0.763824	0.029256
185.940000	0.763824	0.029256
186.790000	0.763824	0.029256
187.690000	0.763824	0.029256
188.590000	0.763824	0.029256
189.520000	0.763824	0.029256
216.770000	0.763824	0.029256
229.990000	0.569321	0.029399
231.690000	0.529521	0.029467
232.620000	0.603653	0.029788
235.210000	0.595538	0.029601
236.060000	0.540088	0.029467
237.000000	0.520642	0.029468
237.850000	0.527401	0.029512
238.740000	0.518418	0.029526
239.680000	0.518189	0.029569
240.530000	0.518651	0.029630
241.420000	0.520786	0.029658
242.310000	0.521878	0.029667
243.200000	0.522361	0.029671
244.090000	0.522566	0.029672
244.170000	0.523675	0.029673
245.020000	0.519241	0.029681
245.910000	0.518400	0.029684
246.800000	0.518134	0.029686
247.700000	0.518038	0.029686
247.780000	0.520037	0.029698
248.670000	0.519252	0.029701
249.570000	0.518970	0.029702
250.410000	0.519041	0.029705
250.490000	0.518861	0.029702
251.390000	0.518818	0.029702
252.240000	0.518780	0.029704
253.130000	0.518659	0.029704
254.030000	0.518612	0.029704
254.120000	0.518605	0.029705
255.010000	0.518542	0.029705
255.910000	0.518516	0.029705
256.750000	0.518496	0.029705
257.660000	0.518464	0.029706
258.550000	0.518451	0.029706
259.440000	0.518446	0.029706
260.340000	0.518444	0.029706
260.420000	0.518441	0.029706
261.320000	0.518431	0.029706
262.210000	0.518427	0.029706
263.100000	0.518425	0.029706
263.960000	0.518424	0.029706
264.850000	0.518424	0.029706
265.740000	0.518424	0.029706
266.620000	0.518424	0.029706
267.520000	0.518424	0.029706
268.400000	0.518424	0.029706
269.300000	0.518424	0.029706
270.190000	0.518424	0.029706
270.280000	0.518424	0.029706
271.170000	0.518423	0.029706
272.060000	0.518423	0.029706
272.920000	0.518423	0.029706
273.820000	0.518423	0.029706
274.710000	0.518423	0.029706
275.600000	0.518423	0.029706
276.500000	0.518423	0.029706
277.390000	0.518423	0.029706
278.290000	0.518423	0.029706
280.930000	0.518423	0.029706
281.780000	0.518423	0.029706
282.670000	0.518423	0.029706
283.610000	0.518423	0.029706
285.350000	0.518423	0.029706
286.190000	0.518423	0.029706
291.380000	0.518423	0.029706
293.090000	0.518423	0.029706
294.870000	0.518423	0.029706
304.250000	0.518423	0.029706
346.580000	0.523041	0.029849
347.470000	0.553002	0.029869
348.360000	0.559907	0.029876
349.240000	0.561868	0.029878
350.130000	0.562428	0.029878
351.010000	0.562595	0.029878
351.100000	0.569502	0.029877
351.980000	0.572129	0.029897
352.830000	0.571492	0.029927
353.710000	0.573856	0.029939
354.610000	0.574591	0.029942
354.690000	0.573783	0.029942
355.580000	0.574105	0.029947
356.470000	0.574202	0.029949
356.560000	0.571260	0.029935
357.410000	0.570981	0.029918
357.490000	0.571939	0.029959
358.290000	0.572080	0.029913
358.370000	0.571027	0.029933
359.220000	0.572329	0.029930
360.110000	0.572406	0.029935
361.000000	0.572429	0.029937
361.890000	0.572436	0.029937
361.970000	0.572638	0.029940
362.860000	0.572717	0.029942
363.750000	0.572741	0.029943
364.640000	0.572748	0.029943
364.720000	0.572764	0.029944
365.600000	0.572785	0.029944
366.450000	0.572758	0.029945
367.300000	0.572801	0.029944
368.180000	0.572818	0.029945
369.070000	0.572823	0.029945
369.960000	0.572824	0.029945
370.850000	0.572825	0.029945
371.740000	0.572825	0.029945
372.630000	0.572825	0.029945
372.710000	0.572820	0.029945
373.600000	0.572817	0.029945
373.680000	0.572822	0.029945
374.570000	0.572823	0.029945
375.410000	0.572821	0.029945
375.500000	0.572823	0.029945
376.350000	0.572823	0.029945
377.230000	0.572823	0.029945
378.080000	0.572825	0.029945
378.970000	0.572825	0.029945
379.860000	0.572825	0.029945
380.740000	0.572825	0.029945
380.830000	0.572825	0.029945
381.730000	0.572826	0.029945
382.620000	0.572826	0.029945
382.700000	0.572826	0.029945
383.550000	0.572826	0.029945
383.630000	0.572826	0.029945
384.530000	0.572826	0.029945
385.380000	0.572827	0.029945
386.260000	0.572827	0.029945
387.150000	0.572827	0.029945
388.000000	0.572827	0.029945
388.900000	0.572827	0.029945
389.790000	0.572828	0.029945
390.680000	0.572828	0.029945
391.580000	0.572828	0.029945
391.660000	0.572828	0.029945
392.550000	0.572828	0.029945
393.400000	0.572828	0.029945
393.520000	0.572828	0.029945
394.410000	0.572828	0.029945
395.300000	0.572828	0.029945
396.150000	0.572828	0.029945
397.050000	0.572828	0.029945
397.900000	0.572828	0.029945
398.790000	0.572828	0.029945
400.580000	0.572828	0.029945
401.470000	0.572828	0.029945
402.310000	0.572828	0.029945
403.200000	0.572828	0.029945
404.140000	0.572828	0.029945
405.030000	0.572828	0.029945
405.970000	0.572828	0.029945
409.350000	0.572828	0.029945
415.300000	0.572828	0.029945
426.400000	0.572828	0.029945
439.280000	0.572828	0.029945
