using files: 
input-train_pred50.series
target-train_pred50.series
input-test_pred50.series
target-test_pred50.series
input-validate_pred50.series
target-validate_pred50.series
0.070000	0.480051	0.052774
0.410000	0.520084	0.050973
0.550000	0.507088	0.046044
0.890000	0.466033	0.047057
1.810000	0.860713	0.041191
2.040000	0.814799	0.040868
2.720000	1.006485	0.020418
3.670000	1.088159	0.027837
10.270000	1.111701	0.024649
10.660000	0.966094	0.021950
15.570000	1.049825	0.019607
18.780000	1.047947	0.017621
34.430000	0.959574	0.010591
54.850000	1.024824	0.010139
94.270000	1.030856	0.010097
97.490000	1.029461	0.009960
103.900000	1.026032	0.009880
108.720000	1.026469	0.009799
113.530000	1.025395	0.009740
116.760000	1.024727	0.009720
118.400000	1.025009	0.009764
120.060000	1.025180	0.009746
123.290000	1.025180	0.009771
126.550000	1.025090	0.009779
128.210000	1.024095	0.009765
131.460000	1.024094	0.009777
160.110000	1.024103	0.009785
161.770000	1.024103	0.009783
163.440000	1.024103	0.009783
165.110000	1.024103	0.009782
166.790000	1.024103	0.009782
168.460000	1.024103	0.009782
170.120000	1.024103	0.009782
171.780000	1.024103	0.009782
173.440000	1.024103	0.009782
175.110000	1.024103	0.009782
176.780000	1.024103	0.009782
178.450000	1.024103	0.009782
180.130000	1.024103	0.009782
181.790000	1.024103	0.009782
183.470000	1.024103	0.009782
185.140000	1.024103	0.009782
186.800000	1.024103	0.009782
188.480000	1.024103	0.009782
190.150000	1.024103	0.009782
191.820000	1.024103	0.009782
193.520000	1.024103	0.009782
195.100000	1.034440	0.009915
207.990000	1.024518	0.009207
209.660000	1.028286	0.009707
212.920000	1.028441	0.009647
216.210000	1.028595	0.009804
219.380000	1.029482	0.009501
224.290000	1.029899	0.009748
227.540000	1.029946	0.009675
233.910000	1.029730	0.009402
234.080000	1.029691	0.009400
238.970000	1.029497	0.009541
243.880000	1.029586	0.009460
247.180000	1.029480	0.009446
248.850000	1.029430	0.009471
250.540000	1.029402	0.009485
253.790000	1.029389	0.009482
255.370000	1.028869	0.009266
257.120000	1.029294	0.009424
261.930000	1.029024	0.009433
263.610000	1.028757	0.009402
265.290000	1.024605	0.009386
266.960000	1.028532	0.009377
267.130000	1.028471	0.009393
268.730000	1.028428	0.009390
268.890000	1.028344	0.009389
270.560000	1.028276	0.009387
272.150000	1.028272	0.009375
273.820000	1.028230	0.009365
274.150000	1.053707	0.007670
282.170000	1.052211	0.007388
283.840000	1.050520	0.007253
285.520000	1.049539	0.007245
290.370000	1.049540	0.007225
292.040000	1.049583	0.007216
293.720000	1.049605	0.007211
295.310000	1.052943	0.006762
306.630000	1.053949	0.006596
308.230000	1.054404	0.006611
308.400000	1.054357	0.006557
310.090000	1.054461	0.006545
311.690000	1.053975	0.006539
313.380000	1.053450	0.006492
315.050000	1.053179	0.006469
316.730000	1.053041	0.006457
318.420000	1.052971	0.006451
320.100000	1.052935	0.006448
321.790000	1.052917	0.006447
321.950000	1.052778	0.006427
323.560000	1.052832	0.006421
323.730000	1.052650	0.006406
325.320000	1.052771	0.006395
327.000000	1.052741	0.006384
328.670000	1.052726	0.006379
330.350000	1.052718	0.006376
332.010000	1.052715	0.006375
332.180000	1.052724	0.006371
333.770000	1.052695	0.006369
333.930000	1.052697	0.006366
335.530000	1.052650	0.006364
337.210000	1.052627	0.006361
338.890000	1.052616	0.006360
340.580000	1.052611	0.006360
340.740000	1.052574	0.006359
342.350000	1.052583	0.006359
342.510000	1.052572	0.006358
344.110000	1.052548	0.006358
344.270000	1.052571	0.006358
345.860000	1.052546	0.006357
347.520000	1.052544	0.006357
349.210000	1.052544	0.006357
350.900000	1.052543	0.006357
352.590000	1.052543	0.006357
352.750000	1.052545	0.006357
354.370000	1.052544	0.006357
354.530000	1.052549	0.006357
356.130000	1.052545	0.006357
356.300000	1.052551	0.006357
357.900000	1.052547	0.006357
358.060000	1.052552	0.006357
359.670000	1.052551	0.006357
361.350000	1.052552	0.006357
361.520000	1.052552	0.006357
363.120000	1.052553	0.006357
363.280000	1.052551	0.006357
364.970000	1.052551	0.006357
366.660000	1.052551	0.006357
368.260000	1.052551	0.006357
369.950000	1.052551	0.006357
371.640000	1.052551	0.006357
373.330000	1.052551	0.006357
373.500000	1.052551	0.006357
375.100000	1.052551	0.006357
375.280000	1.052551	0.006357
376.870000	1.052551	0.006357
377.040000	1.052551	0.006357
378.640000	1.052551	0.006357
380.320000	1.052551	0.006357
382.010000	1.052551	0.006357
383.700000	1.052551	0.006357
383.860000	1.052551	0.006357
385.470000	1.052551	0.006357
385.630000	1.052551	0.006357
387.330000	1.052551	0.006357
387.500000	1.051209	0.006390
389.110000	1.051676	0.006307
390.800000	1.051236	0.006302
392.490000	1.051019	0.006304
394.080000	1.051483	0.006256
395.770000	1.051938	0.006217
397.440000	1.052139	0.006201
397.610000	1.051535	0.006196
397.780000	1.051350	0.006215
399.290000	1.051585	0.006188
399.470000	1.052195	0.006187
401.050000	1.051770	0.006157
401.290000	1.052153	0.006147
402.810000	1.051816	0.006139
404.500000	1.051821	0.006130
406.190000	1.051823	0.006125
407.880000	1.051824	0.006123
408.050000	1.051922	0.006137
409.720000	1.051882	0.006137
411.330000	1.051746	0.006119
413.000000	1.051622	0.006110
414.680000	1.051567	0.006105
414.840000	1.051757	0.006100
416.520000	1.051701	0.006089
418.190000	1.051676	0.006085
419.790000	1.051667	0.006082
421.460000	1.051647	0.006079
423.140000	1.051639	0.006078
424.820000	1.051635	0.006078
424.990000	1.051632	0.006077
426.570000	1.051635	0.006076
426.750000	1.051621	0.006075
426.910000	1.051625	0.006076
428.510000	1.051618	0.006074
430.170000	1.051617	0.006073
430.330000	1.051593	0.006073
431.920000	1.051608	0.006072
432.080000	1.051593	0.006072
433.750000	1.051594	0.006071
435.350000	1.051589	0.006071
436.940000	1.051578	0.006071
438.640000	1.051578	0.006070
440.310000	1.051578	0.006070
441.980000	1.051578	0.006070
443.640000	1.051578	0.006070
443.800000	1.051580	0.006070
445.400000	1.051580	0.006070
445.560000	1.051581	0.006070
445.720000	1.051584	0.006069
447.310000	1.051583	0.006069
447.470000	1.051587	0.006069
449.050000	1.051590	0.006069
449.220000	1.051589	0.006068
450.800000	1.051591	0.006068
452.470000	1.051592	0.006068
454.060000	1.051596	0.006068
455.730000	1.051596	0.006068
457.400000	1.051596	0.006068
457.570000	1.051599	0.006068
459.160000	1.051598	0.006068
459.330000	1.051601	0.006068
460.910000	1.051601	0.006067
461.160000	1.051603	0.006067
462.830000	1.051605	0.006067
464.500000	1.051606	0.006067
466.090000	1.051606	0.006067
467.770000	1.051606	0.006067
469.360000	1.051607	0.006067
471.040000	1.051607	0.006067
472.720000	1.051607	0.006067
474.400000	1.051607	0.006067
476.070000	1.051607	0.006067
476.240000	1.051607	0.006067
477.910000	1.051607	0.006067
478.080000	1.051607	0.006067
479.590000	1.051607	0.006067
479.840000	1.051608	0.006067
481.430000	1.051608	0.006067
481.590000	1.051608	0.006067
483.090000	1.051608	0.006067
484.770000	1.051608	0.006067
486.430000	1.051608	0.006067
486.590000	1.051608	0.006067
488.190000	1.051608	0.006067
488.360000	1.051608	0.006067
490.030000	1.051608	0.006067
491.530000	1.051555	0.006041
494.810000	1.052105	0.006029
494.970000	1.051564	0.006024
496.650000	1.051562	0.006021
498.320000	1.051560	0.006021
499.920000	1.050838	0.006037
500.160000	1.051557	0.006011
501.850000	1.051532	0.006007
503.450000	1.051499	0.006008
503.700000	1.051734	0.006003
508.340000	1.051478	0.006007
508.660000	1.051716	0.006000
510.360000	1.051706	0.005998
511.960000	1.051746	0.005986
513.580000	1.051858	0.005980
513.740000	1.051754	0.005981
515.340000	1.051884	0.005976
515.510000	1.051758	0.005980
517.120000	1.051808	0.005974
518.730000	1.051743	0.005969
520.420000	1.051675	0.005965
522.090000	1.051649	0.005964
523.780000	1.051640	0.005963
524.030000	1.051732	0.005964
525.720000	1.051730	0.005963
527.320000	1.051791	0.005959
528.920000	1.051623	0.005962
529.080000	1.051787	0.005956
530.690000	1.051737	0.005957
532.360000	1.051778	0.005955
532.530000	1.051779	0.005952
534.220000	1.051777	0.005951
535.830000	1.051781	0.005949
537.510000	1.051779	0.005947
539.200000	1.051778	0.005947
540.870000	1.051777	0.005947
541.040000	1.051781	0.005946
542.720000	1.051782	0.005945
544.320000	1.051784	0.005945
544.570000	1.051784	0.005944
546.240000	1.051785	0.005944
546.410000	1.051794	0.005943
548.090000	1.051794	0.005943
549.770000	1.051793	0.005942
551.380000	1.051796	0.005942
553.050000	1.051794	0.005942
554.670000	1.051789	0.005942
556.260000	1.051794	0.005942
556.430000	1.051786	0.005942
558.020000	1.051786	0.005942
559.700000	1.051784	0.005941
561.360000	1.051783	0.005941
561.610000	1.051785	0.005941
563.130000	1.051782	0.005941
563.370000	1.051786	0.005941
565.040000	1.051786	0.005941
565.200000	1.051785	0.005941
566.870000	1.051784	0.005941
568.550000	1.051784	0.005941
570.130000	1.051784	0.005941
571.720000	1.051782	0.005941
573.330000	1.051782	0.005940
573.490000	1.051782	0.005940
575.080000	1.051781	0.005940
576.760000	1.051780	0.005940
578.420000	1.051780	0.005940
578.590000	1.051780	0.005940
580.180000	1.051780	0.005940
580.340000	1.051780	0.005940
581.950000	1.051780	0.005940
582.110000	1.051780	0.005940
582.280000	1.051779	0.005940
583.970000	1.051779	0.005940
585.650000	1.051778	0.005940
587.240000	1.051778	0.005940
588.920000	1.051778	0.005940
590.600000	1.051778	0.005940
590.770000	1.051778	0.005940
592.370000	1.051778	0.005940
592.530000	1.051778	0.005940
594.200000	1.051778	0.005940
594.370000	1.051778	0.005940
595.890000	1.051778	0.005940
596.130000	1.051778	0.005940
597.630000	1.051778	0.005940
597.880000	1.051778	0.005940
599.340000	1.051778	0.005940
601.030000	1.051778	0.005940
602.700000	1.051778	0.005940
604.390000	1.051778	0.005940
604.550000	1.051778	0.005940
604.720000	1.051778	0.005940
606.310000	1.051778	0.005940
606.470000	1.051778	0.005940
608.160000	1.051778	0.005940
609.830000	1.051778	0.005940
611.430000	1.051778	0.005940
613.110000	1.051778	0.005940
614.770000	1.051778	0.005940
616.360000	1.051778	0.005940
616.610000	1.051778	0.005940
618.280000	1.051778	0.005940
618.450000	1.051778	0.005940
620.110000	1.051778	0.005940
621.620000	1.051778	0.005940
623.300000	1.051778	0.005940
624.970000	1.051778	0.005940
626.650000	1.051778	0.005940
628.330000	1.051778	0.005940
628.510000	1.051778	0.005940
630.100000	1.051778	0.005940
630.270000	1.051778	0.005940
630.430000	1.051778	0.005940
631.870000	1.051778	0.005940
632.120000	1.051778	0.005940
633.710000	1.051778	0.005940
633.870000	1.051778	0.005940
635.380000	1.051778	0.005940
637.050000	1.051778	0.005940
637.380000	1.051778	0.005940
638.900000	1.051778	0.005940
639.140000	1.051778	0.005940
640.820000	1.051778	0.005940
642.420000	1.051778	0.005940
644.090000	1.051778	0.005940
645.790000	1.051778	0.005940
645.960000	1.051778	0.005940
647.470000	1.051778	0.005940
649.150000	1.051778	0.005940
650.750000	1.051778	0.005940
652.430000	1.051778	0.005940
654.090000	1.051778	0.005940
655.770000	1.051778	0.005940
655.930000	1.051778	0.005940
656.100000	1.051778	0.005940
657.760000	1.051778	0.005940
657.920000	1.051778	0.005940
659.520000	1.051778	0.005940
661.200000	1.051778	0.005940
662.800000	1.051778	0.005940
664.400000	1.051778	0.005940
666.070000	1.051778	0.005940
667.740000	1.051778	0.005940
669.400000	1.051778	0.005940
671.080000	1.051778	0.005940
672.770000	1.051778	0.005940
674.450000	1.051778	0.005940
674.610000	1.051778	0.005940
676.290000	1.051778	0.005940
676.460000	1.051778	0.005940
678.140000	1.051778	0.005940
679.730000	1.051778	0.005940
681.410000	1.051778	0.005940
683.100000	1.051778	0.005940
684.810000	1.051778	0.005940
684.970000	1.051778	0.005940
686.490000	1.051778	0.005940
688.180000	1.051778	0.005940
689.880000	1.051778	0.005940
691.570000	1.051778	0.005940
691.730000	1.051778	0.005940
693.340000	1.051778	0.005940
693.500000	1.051778	0.005940
693.670000	1.051778	0.005940
695.260000	1.051778	0.005940
696.950000	1.051778	0.005940
698.560000	1.051778	0.005940
698.890000	1.051778	0.005940
700.330000	1.051778	0.005940
700.650000	1.051778	0.005940
702.090000	1.051778	0.005940
702.420000	1.051778	0.005940
703.940000	1.051778	0.005940
704.110000	1.051778	0.005940
705.720000	1.051778	0.005940
707.410000	1.051778	0.005940
709.090000	1.051778	0.005940
709.250000	1.051778	0.005940
710.850000	1.051778	0.005940
711.020000	1.051778	0.005940
712.720000	1.051778	0.005940
712.890000	1.051778	0.005940
714.490000	1.051778	0.005940
714.660000	1.051778	0.005940
716.260000	1.051778	0.005940
717.940000	1.051778	0.005940
719.610000	1.051778	0.005940
721.210000	1.051778	0.005940
722.820000	1.051778	0.005940
722.990000	1.051778	0.005940
724.680000	1.051778	0.005940
726.350000	1.051778	0.005940
726.520000	1.051778	0.005940
728.200000	1.051778	0.005940
729.880000	1.051778	0.005940
730.050000	1.051778	0.005940
731.720000	1.051778	0.005940
733.210000	1.051778	0.005940
734.800000	1.051778	0.005940
736.420000	1.051778	0.005940
738.100000	1.051778	0.005940
739.780000	1.051778	0.005940
739.950000	1.051778	0.005940
741.630000	1.051778	0.005940
741.790000	1.051778	0.005940
743.480000	1.051778	0.005940
745.160000	1.051778	0.005940
746.850000	1.051778	0.005940
748.440000	1.051778	0.005940
748.690000	1.051778	0.005940
750.210000	1.051778	0.005940
750.450000	1.051778	0.005940
752.050000	1.051778	0.005940
752.220000	1.051778	0.005940
753.810000	1.051778	0.005940
753.980000	1.051778	0.005940
755.400000	1.051778	0.005940
757.160000	1.051778	0.005940
758.760000	1.051778	0.005940
760.520000	1.051778	0.005940
762.290000	1.051778	0.005940
778.080000	1.062339	0.005521
787.770000	1.066307	0.005416
789.440000	1.063344	0.005413
791.110000	1.063051	0.005398
792.780000	1.062964	0.005397
794.450000	1.062938	0.005396
796.120000	1.062931	0.005396
797.790000	1.062928	0.005396
797.960000	1.061838	0.005385
799.560000	1.062094	0.005377
801.230000	1.061841	0.005373
801.400000	1.061682	0.005355
803.080000	1.060913	0.005351
804.580000	1.061740	0.005363
806.260000	1.061561	0.005348
806.420000	1.061403	0.005341
808.090000	1.061281	0.005340
809.750000	1.061245	0.005340
809.910000	1.060369	0.005327
811.590000	1.061150	0.005320
813.280000	1.061128	0.005318
813.430000	1.059963	0.005401
816.720000	1.060853	0.005306
818.390000	1.061565	0.005307
820.070000	1.061777	0.005310
821.660000	1.061753	0.005320
823.340000	1.061820	0.005322
825.010000	1.062584	0.005350
826.520000	1.062407	0.005327
828.190000	1.062493	0.005330
829.870000	1.062519	0.005331
830.280000	1.061875	0.005302
831.810000	1.062060	0.005331
833.490000	1.061720	0.005353
835.180000	1.061619	0.005362
836.790000	1.061263	0.005387
837.510000	1.061263	0.005387
