
Validation.MSE	Test.MSE	Train.MSE	Time
0.045005	0.050947	0.044706	0.010000	
0.045226	0.049480	0.045677	0.100000	
0.047213	0.049646	0.046308	0.170000	
0.045394	0.048394	0.044266	0.200000	
0.052225	0.057976	0.051730	0.270000	
0.050351	0.058745	0.051025	0.320000	
0.053759	0.059469	0.050074	0.360000	
0.053919	0.058940	0.049337	0.400000	
0.059871	0.058406	0.053824	0.510000	
0.052126	0.058435	0.051079	0.520000	
0.043857	0.047318	0.043051	0.570000	
0.043498	0.045779	0.042794	0.720000	
0.042720	0.045443	0.040849	0.770000	
0.044353	0.046794	0.043463	0.850000	
0.042448	0.047371	0.041484	0.940000	
0.041617	0.046915	0.041764	1.050000	
0.045588	0.042736	0.042335	1.140000	
0.045644	0.047906	0.044371	1.230000	
0.046927	0.049059	0.045586	1.250000	
0.050466	0.046764	0.047856	1.280000	
0.063993	0.046557	0.047913	1.330000	
0.044283	0.047020	0.044197	1.380000	
0.045695	0.027818	0.033113	1.410000	
0.045662	0.027804	0.032695	1.750000	
0.045694	0.026483	0.032750	1.920000	
0.044221	0.031602	0.037170	2.160000	
0.048545	0.032082	0.038502	2.280000	
0.046690	0.033285	0.039684	2.340000	
0.043212	0.025150	0.032986	2.400000	
0.042867	0.026072	0.032750	2.520000	
0.041911	0.028031	0.034320	2.770000	
0.039016	0.031413	0.034497	2.850000	
0.041303	0.026614	0.032368	2.930000	
0.041292	0.028578	0.033611	3.160000	
0.043576	0.029501	0.035937	3.180000	
0.042666	0.029098	0.034064	3.390000	
0.043170	0.031363	0.034553	3.610000	
0.043290	0.033255	0.035604	3.770000	
0.043800	0.031740	0.035945	3.950000	
0.042506	0.029139	0.035239	4.140000	
0.044338	0.029139	0.036272	4.220000	
0.043149	0.026711	0.033978	4.390000	
0.043206	0.025303	0.033555	4.470000	
0.043574	0.026058	0.033372	4.690000	
0.044688	0.026835	0.035434	4.850000	
0.043872	0.031249	0.036300	5.010000	
0.042791	0.033294	0.038293	5.040000	
0.042909	0.028451	0.034558	5.060000	
0.043385	0.026029	0.033393	5.100000	
0.045694	0.026246	0.032757	5.240000	
0.047778	0.028039	0.036748	5.390000	
0.046567	0.033898	0.039689	5.610000	
0.049344	0.034103	0.036489	5.630000	
0.047770	0.034874	0.040319	5.700000	
0.045726	0.028028	0.035800	5.750000	
0.045920	0.029261	0.034717	5.800000	
0.044121	0.029289	0.033123	5.890000	
0.047190	0.028674	0.033548	5.970000	
0.048654	0.029432	0.037364	6.080000	
0.044534	0.025942	0.032090	6.180000	
0.045604	0.028764	0.036640	6.290000	
0.045904	0.027416	0.033197	6.380000	
0.045761	0.030118	0.034286	6.490000	
0.047498	0.029885	0.033404	6.610000	
0.051389	0.031249	0.038471	6.760000	
0.045373	0.026844	0.034379	6.890000	
0.044862	0.027056	0.034283	7.080000	
0.043224	0.028655	0.034260	7.170000	
0.045696	0.027340	0.031708	7.350000	
0.044600	0.026065	0.031063	7.360000	
0.047026	0.030220	0.038148	7.540000	
0.047580	0.038361	0.041813	7.600000	
0.045773	0.028254	0.034436	7.680000	
0.044721	0.027817	0.033923	7.840000	
0.046177	0.028895	0.033164	7.950000	
0.045244	0.033018	0.037713	8.020000	
0.047783	0.033467	0.037419	8.050000	
0.048077	0.030485	0.034500	8.130000	
0.045686	0.036168	0.039455	8.210000	
0.044728	0.037257	0.040814	8.270000	
0.045352	0.032197	0.035281	8.320000	
0.044274	0.032326	0.035351	8.430000	
0.044035	0.030642	0.035270	8.460000	
0.044601	0.031899	0.035639	8.470000	
0.045667	0.035590	0.037993	8.510000	
0.045344	0.033437	0.038065	8.610000	
0.043061	0.031297	0.035668	8.650000	
0.044682	0.033107	0.037253	8.770000	
0.043642	0.033687	0.038033	8.780000	
0.042492	0.033842	0.035162	8.830000	
0.039679	0.028459	0.033952	8.900000	
0.040944	0.030312	0.034791	8.950000	
0.039887	0.030019	0.035211	9.030000	
0.042152	0.031007	0.036750	9.050000	
0.040890	0.031536	0.035683	9.090000	
0.041253	0.030214	0.035076	9.120000	
0.040752	0.030312	0.034800	9.190000	
0.044367	0.040414	0.041649	9.230000	
0.039300	0.028036	0.033767	9.250000	
0.039535	0.028882	0.034931	9.270000	
0.040362	0.029652	0.035367	9.360000	
0.040525	0.030505	0.035869	9.380000	
0.039220	0.031264	0.035595	9.440000	
0.038792	0.027202	0.033735	9.460000	
0.039704	0.028023	0.034536	9.510000	
0.040080	0.028933	0.035044	9.540000	
0.040197	0.030180	0.035430	9.590000	
0.039734	0.030059	0.035191	9.710000	
0.041365	0.031612	0.036853	9.740000	
0.041332	0.031037	0.036437	9.750000	
0.039647	0.030152	0.035287	9.790000	
0.040637	0.033575	0.037495	9.820000	
0.041523	0.032960	0.036843	9.840000	
0.042861	0.031511	0.036670	9.870000	
0.043903	0.032881	0.037818	9.920000	
0.043639	0.031877	0.035967	9.990000	
0.043906	0.032114	0.037314	10.020000	
0.043599	0.031834	0.036399	10.100000	
0.041301	0.029952	0.034710	10.120000	
0.041776	0.030060	0.034723	10.170000	
0.041743	0.029929	0.035174	10.200000	
0.041673	0.029962	0.035337	10.240000	
0.042870	0.031431	0.036531	10.270000	
0.041794	0.031121	0.035995	10.290000	
0.042078	0.030271	0.035704	10.340000	
0.044672	0.034932	0.039329	10.360000	
0.043984	0.033770	0.037958	10.380000	
0.042388	0.031423	0.035821	10.390000	
0.041745	0.031533	0.036277	10.410000	
0.041725	0.031193	0.035884	10.430000	
0.042102	0.030384	0.035666	10.460000	
0.042665	0.030536	0.035899	10.540000	
0.042020	0.030033	0.035576	10.570000	
0.042329	0.029936	0.035518	10.610000	
0.042964	0.032127	0.036863	10.630000	
0.041706	0.030293	0.035564	10.660000	
0.043443	0.032516	0.036723	10.680000	
0.043683	0.030263	0.035770	10.700000	
0.046713	0.036030	0.040266	10.730000	
0.047598	0.036195	0.038359	10.760000	
0.047254	0.036174	0.039111	10.780000	
0.044687	0.031213	0.035684	10.800000	
0.044404	0.029961	0.035774	10.830000	
0.044763	0.030915	0.035575	10.840000	
0.045374	0.031277	0.035974	10.870000	
0.044489	0.031632	0.035938	10.880000	
0.044011	0.028270	0.034364	10.900000	
0.044327	0.028506	0.034341	11.070000	
0.044506	0.028555	0.034541	11.150000	
0.044764	0.030327	0.035654	11.210000	
0.045560	0.030203	0.035990	11.240000	
0.044405	0.027925	0.033934	11.270000	
0.045033	0.028797	0.035138	11.320000	
0.044709	0.028499	0.034594	11.350000	
0.043527	0.026533	0.033033	11.410000	
0.044115	0.026193	0.033893	11.480000	
0.043580	0.024734	0.031913	11.530000	
0.042989	0.025918	0.030834	11.590000	
0.045616	0.028603	0.034944	11.620000	
0.045002	0.031430	0.037538	11.650000	
0.045230	0.026830	0.034424	11.730000	
0.046019	0.029974	0.034951	11.750000	
0.044960	0.024819	0.030374	11.790000	
0.044931	0.025510	0.030971	11.800000	
0.045265	0.025610	0.030321	11.860000	
0.045815	0.024141	0.030557	11.880000	
0.044764	0.023582	0.030210	11.890000	
0.045515	0.023728	0.029575	11.960000	
0.045656	0.023695	0.029731	12.030000	
0.045495	0.023630	0.031063	12.120000	
0.043465	0.025875	0.033329	12.140000	
0.042101	0.026504	0.033105	12.190000	
0.044044	0.022776	0.029071	12.200000	
0.041759	0.025119	0.031201	12.240000	
0.045573	0.024505	0.031849	12.290000	
0.042135	0.024494	0.031465	12.430000	
0.043525	0.025602	0.033166	12.460000	
0.041910	0.024911	0.031358	12.480000	
0.042583	0.024119	0.029494	12.500000	
0.043221	0.024275	0.029294	12.630000	
0.044285	0.024973	0.030850	12.670000	
0.043313	0.025265	0.030201	12.680000	
0.042784	0.024875	0.029408	12.750000	
0.042884	0.024184	0.030496	12.810000	
0.043026	0.024065	0.030293	12.830000	
0.043563	0.025497	0.030141	12.870000	
0.043319	0.026373	0.030120	12.890000	
0.043137	0.025936	0.030258	12.930000	
0.043896	0.023548	0.029300	12.950000	
0.044442	0.023327	0.029491	13.010000	
0.043595	0.024740	0.030069	13.040000	
0.044301	0.024069	0.031419	13.070000	
0.043140	0.025190	0.030014	13.130000	
0.043607	0.023121	0.028736	13.170000	
0.044511	0.023279	0.030583	13.270000	
0.043782	0.023498	0.029124	13.330000	
0.043825	0.024678	0.029142	13.360000	
0.043856	0.023598	0.029068	13.410000	
0.045016	0.025201	0.029579	13.420000	
0.042578	0.029529	0.034235	13.440000	
0.042697	0.030767	0.036095	13.460000	
0.044199	0.030269	0.033694	13.490000	
0.047048	0.030224	0.035905	13.500000	
0.044357	0.027238	0.031662	13.550000	
0.046669	0.028858	0.033651	13.600000	
0.046702	0.028559	0.034377	13.620000	
0.045295	0.029596	0.033658	13.640000	
0.046172	0.027543	0.032701	13.660000	
0.044632	0.027431	0.033023	13.710000	
0.043043	0.029284	0.034050	13.760000	
0.042326	0.028519	0.034544	13.770000	
0.042943	0.030839	0.036927	13.790000	
0.043608	0.030517	0.035182	13.850000	
0.043487	0.029743	0.034708	13.860000	
0.042799	0.024248	0.030982	13.880000	
0.042501	0.025334	0.032148	13.900000	
0.046629	0.028871	0.036326	13.910000	
0.047171	0.029036	0.033750	13.930000	
0.046613	0.028449	0.032985	13.940000	
0.044027	0.029394	0.033843	13.970000	
0.049043	0.028256	0.033801	13.990000	
0.044740	0.026484	0.033201	14.020000	
0.046921	0.026569	0.032590	14.030000	
0.046003	0.026555	0.033927	14.060000	
0.046251	0.026583	0.034679	14.080000	
0.046310	0.026680	0.035114	14.110000	
0.045484	0.024923	0.032059	14.130000	
0.045486	0.025539	0.034038	14.140000	
0.046098	0.025300	0.031767	14.170000	
0.045007	0.025272	0.032135	14.190000	
0.043631	0.024412	0.031071	14.210000	
0.043823	0.024854	0.031855	14.230000	
0.042793	0.024223	0.031732	14.290000	
0.045321	0.025377	0.033379	14.300000	
0.045156	0.025195	0.032746	14.310000	
0.046509	0.025577	0.030691	14.330000	
0.045662	0.024268	0.030001	14.360000	
0.045229	0.023253	0.029926	14.400000	
0.044420	0.024282	0.032339	14.410000	
0.044836	0.024086	0.030282	14.440000	
0.043632	0.023221	0.030180	14.450000	
0.046154	0.024796	0.031235	14.470000	
0.046144	0.026556	0.033499	14.490000	
0.046503	0.025840	0.031262	14.520000	
0.044703	0.025091	0.030235	14.550000	
0.045733	0.026773	0.031224	14.570000	
0.045828	0.026760	0.031389	14.600000	
0.045245	0.025448	0.030256	14.640000	
0.045155	0.024512	0.029901	14.650000	
0.044699	0.024283	0.029773	14.670000	
0.045045	0.024562	0.030182	14.710000	
0.045149	0.025339	0.030426	14.730000	
0.045442	0.026610	0.032635	14.770000	
0.045285	0.026319	0.031088	14.780000	
0.044964	0.024791	0.030449	14.800000	
0.044682	0.024628	0.030993	14.820000	
0.044632	0.024321	0.029774	14.840000	
0.043577	0.024226	0.029504	14.860000	
0.043688	0.023173	0.028881	14.870000	
0.043825	0.022424	0.028758	14.890000	
0.043947	0.023434	0.029897	14.920000	
0.044264	0.025384	0.033148	14.940000	
0.043740	0.023538	0.029273	14.960000	
0.043852	0.023066	0.028835	14.970000	
0.043768	0.023725	0.028837	15.000000	
0.043983	0.022900	0.028735	15.020000	
0.043885	0.023112	0.028779	15.040000	
0.045021	0.024502	0.030314	15.050000	
0.044917	0.023939	0.029080	15.070000	
0.044973	0.025413	0.030513	15.100000	
0.045630	0.024813	0.029694	15.110000	
0.045711	0.026675	0.032302	15.130000	
0.046685	0.027467	0.034327	15.170000	
0.046554	0.024659	0.030132	15.210000	
0.045343	0.023855	0.029161	15.250000	
0.045717	0.024715	0.029328	15.280000	
0.043836	0.026707	0.031606	15.290000	
0.045687	0.026164	0.030997	15.310000	
0.045657	0.026224	0.031705	15.330000	
0.044839	0.026520	0.031680	15.350000	
0.046924	0.025418	0.031004	15.370000	
0.047828	0.026508	0.032081	15.390000	
0.046769	0.025710	0.030466	15.410000	
0.045352	0.025082	0.030299	15.430000	
0.048383	0.026684	0.032010	15.440000	
0.047038	0.025648	0.032215	15.470000	
0.046542	0.024501	0.030168	15.500000	
0.046814	0.024771	0.030367	15.530000	
0.045110	0.023793	0.029393	15.540000	
0.044809	0.023680	0.029367	15.580000	
0.045087	0.024217	0.029681	15.610000	
0.044034	0.025857	0.030327	15.620000	
0.044397	0.024982	0.029546	15.640000	
0.044490	0.025299	0.029602	15.660000	
0.044973	0.024588	0.029121	15.680000	
0.045517	0.023965	0.029422	15.690000	
0.045510	0.024068	0.029295	15.710000	
0.045076	0.024297	0.029193	15.730000	
0.044849	0.024692	0.029333	15.740000	
0.045175	0.024189	0.029116	15.760000	
0.044261	0.025801	0.030015	15.780000	
0.044570	0.024567	0.029466	15.810000	
0.043955	0.025723	0.030583	15.820000	
0.047129	0.025579	0.030738	15.840000	
0.047321	0.026188	0.031522	15.870000	
0.046154	0.026721	0.031447	15.890000	
0.046156	0.027485	0.032604	15.910000	
0.046121	0.028489	0.034427	15.920000	
0.046716	0.028100	0.033032	15.950000	
0.047418	0.027332	0.031497	15.980000	
0.046847	0.027273	0.030945	15.990000	
0.045532	0.026425	0.029976	16.010000	
0.045573	0.026581	0.030172	16.020000	
0.045193	0.025789	0.029766	16.040000	
0.044636	0.025735	0.029500	16.060000	
0.044482	0.025743	0.029684	16.070000	
0.044377	0.025413	0.029388	16.090000	
0.044422	0.025851	0.029667	16.110000	
0.043830	0.026760	0.030257	16.120000	
0.044316	0.026677	0.030090	16.150000	
0.044286	0.026435	0.029964	16.160000	
0.044459	0.025370	0.029654	16.180000	
0.044506	0.025771	0.029855	16.220000	
0.044410	0.025463	0.029644	16.240000	
0.044519	0.025021	0.029734	16.260000	
0.044683	0.025133	0.030103	16.270000	
0.044969	0.025340	0.030585	16.290000	
0.045398	0.025818	0.031278	16.300000	
0.045380	0.025398	0.030154	16.320000	
0.045281	0.025883	0.030221	16.340000	
0.045591	0.025478	0.030291	16.360000	
0.045502	0.026249	0.030545	16.380000	
0.045255	0.026332	0.030507	16.410000	
0.045580	0.025551	0.030240	16.430000	
0.046035	0.025328	0.030404	16.440000	
0.046081	0.024906	0.030416	16.460000	
0.045774	0.024904	0.030647	16.480000	
0.045298	0.024292	0.029817	16.500000	
0.045767	0.024233	0.029734	16.510000	
0.045281	0.024117	0.029475	16.520000	
0.044989	0.024432	0.029719	16.540000	
0.045566	0.024530	0.029791	16.560000	
0.044305	0.026090	0.030902	16.580000	
0.044970	0.025623	0.030473	16.610000	
0.045175	0.025477	0.030441	16.620000	
0.046008	0.024747	0.029978	16.640000	
0.045771	0.024854	0.029961	16.650000	
0.046241	0.024927	0.030198	16.680000	
0.046326	0.025002	0.030306	16.700000	
0.046278	0.024858	0.030115	16.730000	
0.046309	0.025069	0.030348	16.750000	
0.046356	0.025246	0.030322	16.770000	
0.046013	0.025288	0.030399	16.780000	
0.045846	0.025331	0.030458	16.810000	
0.045517	0.024939	0.030158	16.820000	
0.046025	0.025128	0.030259	16.840000	
0.045996	0.025069	0.030253	16.860000	
0.045656	0.024628	0.029997	16.870000	
0.045544	0.024629	0.030340	16.890000	
0.045669	0.025055	0.030965	16.910000	
0.045625	0.025395	0.031393	16.920000	
0.045896	0.025059	0.030525	16.940000	
0.045871	0.025156	0.030670	16.960000	
0.045927	0.025192	0.030879	16.980000	
0.045654	0.025555	0.031851	17.000000	
0.045682	0.025856	0.032269	17.010000	
0.045588	0.025565	0.031906	17.030000	
0.045434	0.024780	0.030705	17.050000	
0.045393	0.024925	0.031105	17.060000	
0.045536	0.024732	0.030623	17.080000	
0.045611	0.024456	0.029892	17.090000	
0.045522	0.024524	0.029979	17.110000	
0.045228	0.023923	0.029410	17.130000	
0.045313	0.023925	0.029653	17.150000	
0.045495	0.023889	0.029611	17.160000	
0.045412	0.023886	0.029641	17.180000	
0.045273	0.024220	0.030146	17.190000	
0.045422	0.024080	0.029775	17.210000	
0.045384	0.023938	0.029416	17.230000	
0.045269	0.024009	0.029460	17.250000	
0.045301	0.024082	0.029628	17.260000	
0.045282	0.024107	0.029420	17.280000	
0.045338	0.023968	0.029557	17.300000	
0.045208	0.024294	0.030148	17.310000	
0.045186	0.024446	0.030462	17.350000	
0.045225	0.023992	0.029708	17.370000	
0.045270	0.023868	0.029356	17.380000	
0.045039	0.023900	0.029226	17.410000	
0.045164	0.023832	0.029244	17.420000	
0.045132	0.023950	0.029230	17.440000	
0.045213	0.024094	0.029373	17.460000	
0.045123	0.024209	0.029275	17.480000	
0.045184	0.024330	0.029412	17.490000	
0.045300	0.024545	0.029556	17.510000	
0.045358	0.024517	0.029583	17.530000	
0.045339	0.024440	0.029562	17.550000	
0.045315	0.024421	0.029541	17.570000	
0.045222	0.024353	0.029412	17.590000	
0.045207	0.024643	0.029585	17.610000	
0.045028	0.024570	0.029516	17.620000	
0.044879	0.024261	0.029341	17.640000	
0.045018	0.024334	0.029378	17.660000	
0.044865	0.024262	0.029362	17.670000	
0.045034	0.024361	0.029479	17.690000	
0.045094	0.024574	0.029595	17.710000	
0.044804	0.024794	0.029664	17.740000	
0.044697	0.025025	0.029775	17.760000	
0.044551	0.024895	0.029653	17.770000	
0.044421	0.024797	0.029629	17.790000	
0.044476	0.024603	0.029501	17.800000	
0.044596	0.024401	0.029403	17.830000	
0.044745	0.024065	0.029258	17.840000	
0.044621	0.024197	0.029330	17.860000	
0.044639	0.024026	0.029261	17.880000	
0.044743	0.023915	0.029255	17.890000	
0.044878	0.024002	0.029332	17.910000	
0.045155	0.023917	0.029324	17.920000	
0.045079	0.023997	0.029335	17.940000	
0.045226	0.024011	0.029404	17.960000	
0.045194	0.023994	0.029464	17.980000	
0.045083	0.024017	0.029448	17.990000	
0.045033	0.023954	0.029403	18.010000	
0.044966	0.023957	0.029333	18.020000	
0.044894	0.024033	0.029365	18.040000	
0.044901	0.024071	0.029402	18.060000	
0.044887	0.024042	0.029364	18.070000	
0.044907	0.023936	0.029400	18.090000	
0.044821	0.023726	0.029311	18.110000	
0.044835	0.023727	0.029299	18.120000	
0.044805	0.023659	0.029206	18.140000	
0.044804	0.023715	0.029215	18.160000	
0.044661	0.023693	0.029054	18.170000	
0.044596	0.023664	0.029010	18.190000	
0.044626	0.023580	0.029017	18.210000	
0.044618	0.023517	0.028997	18.230000	
0.044597	0.023550	0.028999	18.250000	
0.044631	0.023510	0.028994	18.260000	
0.044741	0.023587	0.029053	18.270000	
0.044896	0.023659	0.029160	18.290000	
0.044933	0.023589	0.029157	18.310000	
0.044979	0.023590	0.029198	18.320000	
0.045021	0.023729	0.029273	18.340000	
0.045028	0.023740	0.029328	18.360000	
0.045007	0.023904	0.029501	18.370000	
0.044997	0.024190	0.029884	18.390000	
0.045017	0.024092	0.029739	18.410000	
0.045028	0.024034	0.029601	18.420000	
0.044999	0.024103	0.029756	18.440000	
0.045022	0.024292	0.030019	18.450000	
0.045054	0.024365	0.030036	18.480000	
0.045064	0.024377	0.030137	18.490000	
0.045042	0.024220	0.029846	18.510000	
0.045092	0.024042	0.029614	18.530000	
0.045090	0.023927	0.029483	18.540000	
0.045064	0.023999	0.029562	18.560000	
0.045138	0.023991	0.029563	18.580000	
0.045141	0.023989	0.029628	18.600000	
0.045149	0.023829	0.029473	18.620000	
0.045182	0.023771	0.029360	18.640000	
0.045160	0.023727	0.029373	18.650000	
0.045143	0.023634	0.029340	18.670000	
0.045155	0.023631	0.029290	18.680000	
0.045139	0.023699	0.029360	18.700000	
0.045198	0.023795	0.029532	18.710000	
0.045246	0.023917	0.029690	18.730000	
0.045253	0.023957	0.029713	18.740000	
0.045206	0.024108	0.029992	18.760000	
0.045254	0.023992	0.029718	18.790000	
0.045236	0.023803	0.029392	18.800000	
0.045252	0.023821	0.029352	18.820000	
0.045287	0.023892	0.029511	18.840000	
0.045265	0.023848	0.029431	18.850000	
0.045271	0.023846	0.029394	18.870000	
0.045261	0.023794	0.029367	18.880000	
0.045215	0.023756	0.029281	18.900000	
0.045229	0.023703	0.029301	18.920000	
0.045235	0.023752	0.029353	18.930000	
0.045214	0.023771	0.029356	18.950000	
0.045235	0.023837	0.029410	18.970000	
0.045196	0.023883	0.029491	18.980000	
0.045165	0.023926	0.029588	19.010000	
0.045139	0.024034	0.029714	19.020000	
0.045108	0.024041	0.029761	19.040000	
0.045086	0.024332	0.030256	19.060000	
0.045068	0.024107	0.029931	19.070000	
0.045052	0.024202	0.030159	19.090000	
0.045040	0.024442	0.030522	19.100000	
0.045044	0.024475	0.030640	19.120000	
0.045051	0.024730	0.031082	19.140000	
0.045063	0.024855	0.031280	19.160000	
0.045060	0.024797	0.031158	19.170000	
0.045069	0.024789	0.031105	19.190000	
0.045075	0.024869	0.031290	19.200000	
0.045109	0.025054	0.031568	19.220000	
0.045108	0.024904	0.031334	19.240000	
0.045114	0.024932	0.031317	19.260000	
0.045129	0.024977	0.031393	19.270000	
0.045132	0.025031	0.031471	19.290000	
0.045143	0.025172	0.031688	19.310000	
0.045140	0.025118	0.031633	19.320000	
