
Validation.MSE	Test.MSE	Train.MSE	Time
0.209769	0.063619	0.030949	0.090000	
0.296593	0.054961	0.023487	0.200000	
0.067752	0.055216	0.054687	0.500000	
0.073931	0.042589	0.032857	2.160000	
0.070068	0.047732	0.046844	2.540000	
0.323650	0.044691	0.024602	4.320000	
0.221485	0.042130	0.027563	5.650000	
2912.779970	0.044673	0.086717	7.990000	
40.249902	0.042298	0.038669	10.580000	
0.417286	0.125288	0.051794	12.990000	
0.092352	0.073664	0.079135	13.110000	
0.090225	0.072805	0.076980	13.240000	
0.087090	0.075472	0.083354	13.380000	
0.082158	0.068163	0.079939	13.520000	
0.086650	0.070704	0.077760	13.660000	
0.081953	0.068025	0.072742	13.890000	
0.081266	0.065192	0.076729	14.040000	
0.079564	0.068733	0.077069	14.260000	
0.084491	0.067052	0.077414	14.420000	
0.084359	0.067188	0.074291	14.570000	
0.082457	0.069485	0.075452	14.880000	
0.081568	0.066328	0.074629	15.030000	
0.082874	0.068048	0.074735	15.190000	
0.088942	0.072037	0.074865	15.350000	
0.083527	0.069424	0.075687	15.510000	
0.087726	0.068448	0.076201	15.660000	
0.086949	0.071283	0.077376	15.820000	
0.085090	0.066413	0.077910	15.980000	
0.091529	0.069104	0.075063	16.320000	
0.083491	0.069882	0.073719	16.490000	
0.088645	0.068578	0.077155	16.910000	
0.084051	0.067753	0.077425	17.070000	
0.074622	0.070735	0.083696	17.230000	
0.088121	0.069781	0.083414	17.490000	
0.085091	0.067147	0.074838	17.740000	
0.087370	0.067306	0.083476	17.990000	
0.092528	0.067596	0.089984	18.160000	
0.083673	0.069971	0.073341	18.500000	
0.084307	0.069656	0.075235	18.740000	
0.091826	0.073258	0.084421	18.910000	
0.086312	0.070662	0.077264	19.080000	
0.083587	0.072109	0.074553	19.240000	
0.086741	0.070106	0.074192	19.410000	
0.087382	0.072644	0.077874	19.580000	
0.083068	0.072909	0.082308	19.740000	
0.092072	0.068071	0.077690	19.910000	
0.094355	0.071159	0.081657	20.440000	
0.083349	0.075128	0.076393	20.700000	
0.085124	0.069183	0.079036	20.860000	
0.090683	0.072151	0.072803	21.040000	
0.080132	0.073814	0.086051	21.200000	
0.084968	0.068464	0.075679	21.370000	
0.086265	0.065552	0.077240	21.710000	
0.090520	0.065376	0.078097	22.340000	
0.086252	0.066606	0.080767	23.770000	
0.087112	0.071271	0.074178	24.030000	
0.098807	0.070352	0.077097	24.200000	
0.084934	0.069934	0.077873	24.370000	
0.088168	0.073506	0.078323	24.630000	
0.081329	0.065113	0.070977	24.890000	
0.093238	0.077533	0.076868	25.420000	
0.083037	0.066009	0.073402	25.590000	
0.080694	0.068324	0.083814	26.390000	
0.084557	0.070107	0.077689	26.660000	
0.094762	0.069372	0.079236	26.830000	
0.095350	0.071299	0.078014	27.370000	
0.082541	0.071330	0.076488	27.540000	
0.089589	0.077237	0.079313	27.710000	
0.086455	0.075157	0.078151	27.880000	
0.080957	0.071732	0.082986	28.040000	
0.083474	0.066546	0.080303	28.310000	
0.085188	0.072899	0.078287	28.470000	
0.091239	0.069486	0.077072	28.650000	
0.095692	0.068191	0.082554	29.010000	
0.091217	0.071514	0.075862	29.170000	
0.087267	0.070718	0.079358	29.350000	
0.081624	0.069074	0.074586	29.620000	
0.083805	0.070486	0.069884	29.880000	
0.085631	0.065957	0.084612	30.420000	
0.087294	0.066517	0.076976	30.590000	
0.083984	0.070321	0.078314	30.760000	
0.087352	0.066574	0.077938	31.020000	
0.084151	0.065703	0.074171	31.740000	
0.087301	0.069130	0.077896	32.550000	
0.093461	0.066250	0.079587	32.720000	
0.087520	0.068370	0.079730	32.900000	
0.086277	0.069803	0.078351	33.170000	
0.084235	0.071662	0.072965	33.430000	
0.086851	0.069856	0.080634	33.690000	
0.094592	0.069624	0.082304	33.950000	
0.081090	0.065607	0.077188	34.130000	
0.083076	0.069483	0.075992	34.940000	
0.083567	0.067562	0.084276	35.300000	
0.090514	0.064784	0.074132	35.470000	
0.086762	0.068022	0.073492	35.640000	
0.092121	0.065906	0.079183	35.900000	
0.085639	0.066085	0.071884	36.170000	
0.094233	0.066735	0.079200	37.070000	
0.081242	0.065280	0.076077	37.520000	
0.087615	0.068158	0.078516	37.690000	
0.085200	0.069738	0.075682	37.960000	
0.086061	0.071287	0.080516	38.220000	
0.087642	0.075605	0.070009	38.390000	
0.085366	0.069670	0.077687	38.570000	
0.084147	0.070380	0.075709	38.840000	
0.086003	0.073106	0.072050	39.010000	
0.089144	0.070509	0.077457	39.190000	
0.092442	0.069738	0.076294	39.350000	
0.086677	0.074231	0.072623	39.710000	
0.082053	0.074920	0.080474	39.870000	
0.087812	0.072100	0.083401	40.040000	
0.084656	0.068626	0.074713	40.210000	
0.101750	0.070877	0.084881	40.470000	
0.081688	0.072378	0.079189	40.650000	
0.087613	0.071674	0.074934	41.000000	
0.088219	0.068284	0.072652	41.360000	
0.087781	0.070577	0.081036	41.620000	
0.083385	0.071866	0.076462	41.890000	
0.095820	0.071501	0.082792	42.070000	
0.090552	0.071018	0.076249	42.240000	
0.084550	0.067039	0.072759	42.500000	
0.089126	0.070391	0.084199	42.860000	
0.085394	0.071193	0.082477	43.020000	
0.083334	0.069829	0.076607	43.190000	
0.081814	0.067740	0.077249	43.550000	
0.083292	0.066568	0.075256	43.810000	
0.091237	0.073569	0.079919	44.350000	
0.085843	0.072491	0.073678	44.530000	
0.083962	0.069224	0.074780	44.690000	
0.087721	0.071412	0.082862	44.860000	
0.093129	0.071444	0.075212	45.030000	
0.081369	0.069566	0.074402	45.290000	
0.084343	0.070898	0.075446	45.460000	
0.086806	0.074636	0.075454	45.630000	
0.094763	0.073546	0.077411	45.800000	
0.081592	0.070692	0.081064	45.970000	
0.088063	0.066120	0.078278	46.230000	
0.087207	0.073756	0.081408	46.410000	
0.082138	0.072247	0.075070	46.570000	
0.089472	0.069369	0.076045	46.750000	
0.088572	0.069655	0.077223	47.010000	
0.087130	0.067739	0.075243	47.270000	
0.082332	0.067010	0.072770	47.530000	
0.084053	0.068916	0.076830	47.800000	
0.082929	0.064676	0.072009	47.970000	
0.080887	0.068711	0.078311	48.140000	
0.088765	0.069845	0.080977	48.410000	
0.081888	0.066805	0.075634	48.580000	
0.092395	0.069807	0.073778	48.840000	
0.088096	0.070737	0.074272	49.010000	
0.089607	0.070504	0.074549	49.180000	
0.079837	0.071416	0.072817	49.450000	
0.085435	0.069453	0.083447	49.620000	
0.095476	0.075484	0.083702	49.790000	
0.084752	0.069542	0.074538	49.960000	
0.087785	0.074560	0.075099	50.130000	
0.085135	0.073373	0.074365	50.390000	
0.088259	0.070968	0.079722	50.560000	
0.088177	0.071462	0.081165	50.730000	
0.088947	0.069716	0.079917	50.900000	
0.089945	0.068341	0.076494	51.260000	
0.081553	0.066838	0.072249	51.430000	
0.082985	0.071395	0.072493	51.600000	
0.094623	0.067962	0.078526	51.780000	
0.081615	0.067925	0.075628	51.950000	
0.085952	0.069231	0.075135	52.120000	
0.082910	0.069399	0.073052	52.290000	
0.091165	0.070604	0.081729	52.640000	
0.083037	0.071001	0.073644	52.810000	
0.080979	0.067206	0.070011	52.980000	
0.093041	0.071179	0.082701	53.610000	
0.080761	0.067386	0.073998	53.790000	
0.085795	0.069171	0.075512	53.960000	
0.085049	0.071987	0.076287	54.220000	
0.086106	0.073664	0.078304	54.390000	
0.092972	0.075374	0.079159	54.560000	
0.082579	0.072260	0.080865	54.730000	
0.084445	0.071434	0.078168	54.910000	
0.084568	0.069074	0.080466	55.080000	
0.084831	0.070375	0.071637	55.260000	
0.084844	0.066644	0.084072	55.430000	
0.085678	0.067434	0.074762	55.880000	
0.088227	0.072675	0.081211	56.050000	
0.090896	0.074861	0.081121	56.220000	
0.081571	0.065898	0.074333	56.400000	
0.088410	0.067791	0.084879	56.570000	
0.079475	0.062872	0.076141	56.740000	
0.088074	0.070599	0.076255	57.560000	
0.084425	0.065903	0.077422	57.830000	
0.084872	0.072775	0.082830	58.190000	
0.084393	0.072964	0.077012	58.360000	
0.093723	0.072415	0.076099	58.530000	
0.084129	0.063933	0.074528	58.710000	
0.085942	0.069398	0.074598	59.430000	
0.095015	0.077317	0.083016	59.600000	
0.090543	0.072337	0.071159	59.780000	
0.086674	0.068738	0.075286	59.950000	
0.084310	0.068917	0.078655	60.400000	
0.083796	0.068399	0.092096	60.570000	
0.084580	0.067120	0.073791	60.840000	
0.088996	0.063652	0.089153	61.010000	
0.085395	0.070793	0.077733	61.190000	
0.087860	0.063868	0.076945	61.720000	
0.085490	0.068908	0.076563	62.260000	
0.084488	0.067591	0.073486	62.530000	
0.082954	0.067317	0.073017	62.700000	
0.086373	0.072501	0.069065	63.340000	
0.083314	0.072418	0.081816	63.510000	
0.080373	0.068753	0.074363	63.680000	
0.081437	0.071078	0.076776	63.860000	
0.094980	0.076145	0.075806	64.030000	
0.083018	0.071808	0.079369	64.200000	
0.085569	0.074153	0.075886	64.370000	
0.088874	0.068751	0.074492	64.650000	
0.083179	0.073680	0.080752	64.820000	
0.086702	0.071258	0.072952	65.000000	
0.081017	0.075585	0.082229	65.260000	
0.089591	0.073255	0.084038	65.430000	
0.078399	0.064625	0.073927	65.600000	
0.085452	0.064155	0.077809	66.140000	
0.081739	0.070915	0.074281	66.320000	
0.092506	0.071669	0.085270	66.490000	
0.082714	0.064789	0.080215	66.660000	
0.086155	0.070031	0.077832	67.290000	
0.082488	0.072246	0.082424	67.460000	
0.087270	0.073132	0.080706	67.640000	
0.094925	0.070702	0.075456	67.990000	
0.088576	0.069109	0.074314	68.160000	
0.077071	0.069399	0.078117	68.430000	
0.085505	0.070500	0.076435	68.700000	
0.086701	0.066836	0.075859	69.150000	
0.084637	0.068795	0.079915	69.320000	
0.084412	0.064946	0.080210	69.490000	
0.084276	0.074068	0.080550	69.750000	
0.090114	0.068049	0.077906	69.920000	
0.082957	0.066914	0.075579	70.190000	
0.086568	0.068265	0.075470	70.460000	
0.091282	0.069236	0.088041	70.900000	
0.082058	0.070879	0.070165	71.080000	
0.088047	0.069008	0.078547	71.250000	
0.076904	0.068185	0.073756	71.420000	
0.082392	0.067375	0.075997	71.590000	
0.081239	0.069868	0.077074	71.770000	
0.093677	0.071422	0.083819	71.930000	
0.087466	0.064857	0.075400	72.120000	
0.089008	0.072886	0.072782	72.380000	
0.080413	0.070856	0.073580	72.550000	
0.082302	0.064733	0.078464	72.720000	
0.082038	0.068646	0.077361	73.170000	
0.088325	0.066274	0.075635	73.350000	
0.095134	0.067625	0.071784	73.620000	
0.078015	0.069547	0.075701	73.780000	
0.089725	0.066546	0.074831	74.050000	
0.088515	0.069756	0.078055	74.220000	
0.082353	0.069292	0.074216	74.390000	
0.080013	0.066587	0.073418	74.660000	
0.091516	0.068111	0.074825	75.200000	
0.084740	0.072217	0.076879	75.370000	
0.091386	0.071115	0.081847	75.540000	
0.084877	0.078486	0.078863	75.710000	
0.094097	0.069787	0.080239	75.880000	
0.082514	0.070228	0.076230	76.050000	
0.087375	0.070968	0.083299	76.230000	
0.084022	0.070537	0.078776	76.400000	
0.087420	0.068773	0.077688	76.570000	
0.083595	0.069965	0.083645	76.740000	
0.083787	0.067069	0.072843	77.100000	
0.083020	0.063235	0.073798	77.280000	
0.085154	0.059681	0.076325	77.450000	
0.085477	0.067904	0.073184	78.910000	
0.091867	0.069609	0.080591	79.080000	
0.086191	0.070843	0.075043	79.340000	
0.085493	0.069833	0.075636	79.610000	
0.086645	0.072716	0.077667	80.230000	
0.081966	0.068262	0.076817	80.490000	
0.084411	0.068497	0.077766	80.670000	
0.088169	0.072337	0.080285	80.840000	
0.091178	0.066447	0.072375	81.010000	
0.092666	0.068000	0.081328	81.190000	
0.081803	0.068820	0.075883	81.350000	
0.087469	0.070969	0.079796	81.530000	
0.088611	0.071978	0.080738	81.700000	
0.092622	0.072802	0.071450	81.870000	
0.091496	0.070459	0.070962	82.040000	
0.093988	0.070403	0.075989	82.310000	
0.106398	0.079781	0.090662	82.580000	
0.085279	0.071095	0.072773	82.750000	
0.090428	0.069233	0.073895	82.920000	
0.092990	0.071631	0.071954	83.090000	
0.085538	0.072029	0.076545	83.260000	
0.081508	0.065875	0.074095	83.430000	
0.088319	0.066080	0.076796	83.610000	
0.081625	0.065716	0.081279	83.880000	
0.083142	0.070814	0.074801	84.050000	
0.085167	0.069668	0.076399	84.220000	
0.088203	0.063985	0.077557	84.400000	
0.082414	0.067931	0.078163	84.940000	
0.085122	0.068422	0.080946	85.110000	
0.088248	0.066380	0.075962	85.380000	
0.082054	0.067331	0.076047	85.730000	
0.084977	0.069639	0.073689	86.560000	
0.092878	0.072831	0.078603	86.910000	
0.080373	0.073275	0.079115	87.080000	
0.084278	0.073073	0.079007	87.250000	
0.087723	0.068793	0.075362	87.430000	
0.079058	0.069112	0.074097	87.790000	
0.087221	0.071280	0.074092	88.050000	
0.089272	0.071881	0.075888	88.230000	
0.087730	0.071710	0.073738	88.400000	
0.084311	0.073661	0.079263	88.570000	
0.089824	0.073029	0.077015	88.740000	
0.087999	0.067569	0.076304	89.000000	
0.085863	0.068818	0.075234	89.650000	
0.085284	0.070403	0.077939	89.820000	
0.080410	0.070663	0.084805	90.080000	
0.088163	0.069628	0.076751	90.250000	
0.089569	0.068671	0.085642	90.420000	
0.084264	0.065005	0.075003	90.600000	
0.089433	0.071677	0.081304	90.770000	
0.085988	0.066321	0.076763	90.940000	
0.087317	0.069435	0.075725	91.120000	
0.087066	0.070632	0.080161	91.380000	
0.084224	0.072623	0.078123	91.560000	
0.084489	0.068138	0.078195	91.730000	
0.084881	0.068485	0.077761	91.990000	
0.084219	0.068582	0.081002	92.170000	
0.084288	0.066810	0.077163	92.330000	
0.084761	0.068590	0.073512	93.070000	
0.093872	0.072112	0.087628	93.230000	
0.082125	0.068810	0.078349	93.410000	
0.089911	0.067391	0.071906	93.570000	
0.081927	0.065617	0.076743	93.750000	
0.088426	0.071391	0.079524	94.290000	
0.086181	0.068127	0.076949	94.460000	
0.088929	0.072138	0.077414	94.630000	
0.086347	0.073328	0.074687	94.810000	
0.093270	0.074490	0.085853	94.980000	
0.092566	0.072458	0.089565	95.150000	
0.088842	0.068905	0.071212	95.320000	
0.079943	0.068628	0.070815	95.500000	
0.088179	0.065971	0.078393	95.760000	
0.089448	0.067658	0.077340	96.110000	
0.101010	0.067514	0.084085	96.290000	
0.084905	0.065831	0.072630	96.550000	
0.082880	0.066146	0.077733	96.810000	
0.094470	0.065254	0.077380	97.080000	
0.086255	0.070219	0.074389	97.540000	
0.084749	0.070571	0.076776	97.710000	
0.083860	0.071002	0.078807	97.880000	
0.086739	0.070034	0.077019	98.050000	
0.083619	0.068161	0.076501	98.310000	
0.089108	0.063880	0.077144	98.580000	
0.088521	0.065993	0.075735	99.390000	
0.083394	0.069760	0.078045	99.750000	
0.098753	0.072335	0.081165	99.920000	
0.081148	0.071216	0.083621	100.090000	
0.088502	0.069607	0.075848	100.530000	
0.084068	0.073699	0.082397	100.800000	
0.087855	0.071321	0.076333	100.970000	
0.087238	0.070299	0.076850	101.150000	
0.084151	0.066870	0.075967	101.320000	
0.087193	0.065939	0.081806	101.580000	
0.083702	0.071952	0.074060	101.770000	
0.081534	0.066992	0.074527	102.030000	
0.081929	0.067171	0.074813	102.200000	
0.087513	0.068298	0.080437	102.650000	
0.082415	0.065917	0.075228	102.920000	
0.090357	0.068764	0.077100	103.270000	
0.085502	0.068982	0.076791	103.540000	
0.086850	0.066800	0.080701	103.890000	
0.083843	0.067383	0.076868	104.430000	
0.084452	0.066357	0.075718	104.610000	
0.079845	0.068960	0.084645	104.780000	
0.087172	0.068827	0.075171	104.950000	
0.081043	0.067092	0.074930	105.130000	
0.079535	0.066671	0.075413	105.480000	
0.083292	0.066871	0.073901	105.660000	
0.082031	0.069111	0.071147	105.830000	
0.087620	0.065764	0.076725	106.000000	
0.087314	0.067874	0.077863	106.450000	
0.084590	0.067692	0.073526	106.710000	
0.089191	0.071168	0.075219	107.170000	
0.085968	0.068846	0.072854	107.340000	
0.084761	0.067948	0.078402	107.510000	
0.085083	0.066792	0.073098	107.870000	
0.085382	0.067568	0.076167	108.130000	
0.082153	0.068107	0.072285	108.300000	
0.082790	0.066536	0.079445	108.470000	
0.084889	0.068269	0.075265	108.840000	
0.085937	0.076567	0.079664	109.010000	
0.083682	0.072232	0.082423	109.180000	
0.088814	0.072933	0.090043	109.350000	
0.082429	0.077408	0.079384	109.520000	
0.088416	0.071981	0.083132	109.700000	
0.093890	0.070115	0.084244	109.870000	
0.088449	0.071333	0.076571	110.130000	
0.087352	0.072976	0.077489	110.300000	
0.084816	0.065534	0.080206	110.480000	
0.087818	0.065879	0.076426	111.010000	
0.091190	0.070773	0.080706	111.360000	
0.083166	0.071683	0.076563	111.530000	
0.083190	0.067926	0.075611	111.700000	
0.083578	0.071730	0.078211	111.880000	
0.088398	0.078421	0.078803	112.050000	
0.083314	0.070732	0.079456	112.230000	
0.085779	0.066864	0.077065	112.400000	
0.089670	0.069843	0.079333	112.570000	
0.084129	0.065809	0.082479	112.740000	
0.080520	0.067269	0.071843	113.000000	
0.081280	0.068586	0.077498	113.260000	
0.090291	0.073506	0.078450	113.520000	
0.091116	0.072811	0.075567	113.790000	
0.081904	0.079329	0.067092	114.060000	
0.087202	0.071503	0.071861	114.220000	
0.088257	0.065240	0.074747	114.400000	
0.091787	0.070749	0.076769	115.500000	
0.094663	0.071886	0.078169	115.760000	
0.084999	0.063053	0.078451	116.030000	
0.085125	0.068044	0.078492	116.670000	
0.086652	0.065726	0.073787	116.830000	
0.084692	0.068285	0.078835	117.010000	
0.081585	0.069420	0.076224	117.270000	
0.079154	0.071008	0.083117	117.450000	
0.083026	0.065211	0.076554	117.710000	
0.092878	0.067340	0.081338	118.060000	
0.089441	0.069736	0.081784	118.330000	
0.081560	0.067320	0.077462	118.600000	
0.081173	0.068402	0.074883	118.950000	
0.082600	0.065660	0.075645	119.220000	
0.084202	0.066081	0.076162	119.390000	
0.082805	0.067740	0.074101	119.930000	
0.086510	0.071875	0.073094	120.280000	
0.084642	0.065779	0.077057	120.460000	
0.082367	0.067912	0.080538	121.190000	
0.089622	0.068987	0.084135	121.360000	
0.085650	0.069999	0.073934	121.620000	
0.082114	0.069072	0.080692	121.800000	
0.088337	0.072047	0.075063	122.250000	
0.083504	0.070912	0.075194	122.420000	
0.082059	0.066583	0.072959	122.590000	
0.084956	0.068038	0.076173	122.870000	
0.085704	0.069906	0.076815	123.040000	
0.085130	0.067053	0.076187	123.220000	
0.081555	0.069361	0.080131	123.490000	
0.084921	0.069937	0.073512	123.760000	
0.086696	0.066463	0.078246	123.940000	
0.086252	0.070268	0.077800	124.200000	
0.078081	0.074901	0.075996	124.380000	
0.095940	0.069278	0.080392	124.560000	
0.082389	0.071429	0.074528	124.730000	
0.086789	0.069441	0.071680	124.910000	
0.084363	0.069705	0.077015	125.070000	
0.084153	0.071867	0.080096	125.250000	
0.084916	0.068902	0.073929	125.430000	
0.087143	0.069794	0.074294	125.600000	
0.084794	0.068456	0.076841	126.060000	
0.085607	0.069393	0.074951	126.230000	
0.097250	0.072927	0.076718	126.590000	
0.091575	0.072129	0.077971	126.760000	
0.088011	0.069990	0.079612	127.040000	
0.084470	0.071178	0.077116	127.590000	
0.081910	0.069522	0.078256	127.850000	
0.083440	0.069893	0.072265	128.030000	
0.086017	0.068544	0.078026	128.200000	
0.087168	0.069789	0.079291	128.470000	
0.092996	0.068709	0.076287	128.640000	
0.089828	0.071838	0.079701	128.810000	
0.087753	0.068878	0.080848	129.080000	
0.088533	0.070960	0.078043	129.250000	
0.088097	0.071322	0.078070	129.420000	
0.084092	0.066420	0.078291	129.600000	
0.078622	0.067663	0.074264	129.870000	
0.092095	0.070007	0.077991	130.050000	
0.084341	0.066485	0.079378	130.220000	
0.083706	0.067098	0.075487	130.580000	
0.086437	0.066144	0.069852	130.850000	
0.087902	0.070636	0.078893	131.200000	
0.091329	0.070301	0.076243	131.380000	
0.077832	0.072608	0.075570	131.740000	
0.106562	0.074362	0.087941	131.910000	
0.093931	0.067889	0.079339	132.090000	
0.088710	0.068002	0.082341	132.350000	
0.086154	0.070339	0.079650	132.530000	
0.080774	0.066850	0.076839	132.700000	
0.085356	0.067418	0.074580	132.880000	
0.085498	0.067125	0.072297	133.140000	
0.086919	0.066841	0.069893	133.400000	
0.095944	0.074834	0.078687	133.580000	
0.092326	0.068494	0.079506	133.750000	
0.085594	0.068034	0.077910	134.020000	
0.089458	0.071091	0.077218	134.280000	
0.087549	0.068685	0.078472	134.460000	
0.085206	0.066867	0.073430	134.630000	
0.088325	0.068013	0.078125	134.800000	
0.081925	0.067516	0.074888	135.350000	
0.083715	0.068268	0.080945	135.520000	
0.085753	0.075092	0.080475	135.880000	
0.087382	0.068350	0.075841	136.050000	
0.090299	0.068901	0.081045	136.320000	
0.085244	0.069810	0.071492	136.500000	
