
Validation.MSE	Test.MSE	Train.MSE	Time
0.024551	0.016713	0.016280	0.100000	
0.025163	0.016441	0.016839	2.070000	
0.027290	0.016512	0.016429	3.680000	
0.025469	0.018130	0.016419	4.900000	
0.024034	0.016483	0.015714	6.380000	
0.023005	0.016773	0.014637	7.760000	
0.027282	0.023855	0.014944	9.160000	
0.045110	0.019228	0.013947	9.390000	
0.030580	0.018809	0.018309	10.200000	
0.034630	0.025112	0.017372	12.860000	
0.031244	0.025665	0.019880	13.690000	
0.030290	0.021145	0.020562	14.140000	
0.030187	0.022664	0.021096	16.130000	
0.035691	0.022114	0.020618	18.320000	
0.032814	0.022624	0.020886	20.000000	
0.040302	0.020078	0.025901	20.960000	
0.036647	0.020407	0.024132	23.820000	
0.066525	0.021861	0.033187	26.980000	
9.319966	0.020461	0.663165	29.010000	
0.034750	0.021133	0.023844	31.860000	
0.036828	0.021090	0.021654	34.300000	
0.032172	0.021962	0.019599	37.010000	
0.040439	0.022037	0.025308	38.370000	
0.034586	0.020063	0.018387	40.800000	
0.043239	0.021187	0.022989	41.820000	
0.058056	0.021595	0.023568	44.750000	
0.035147	0.020195	0.022272	46.940000	
0.035910	0.019231	0.021193	48.730000	
0.039026	0.017802	0.020165	52.950000	
0.036091	0.016539	0.020397	56.100000	
0.035940	0.017676	0.021457	60.200000	
0.039949	0.018949	0.019518	63.830000	
0.039696	0.018409	0.019594	67.050000	
0.034938	0.021658	0.021933	68.230000	
0.035053	0.022868	0.021149	70.020000	
0.033096	0.022101	0.020609	71.890000	
0.028885	0.022231	0.020078	73.190000	
0.029878	0.020644	0.019815	74.660000	
0.035441	0.020694	0.025524	76.330000	
0.040283	0.029033	0.027524	78.400000	
0.032584	0.026630	0.021864	79.720000	
0.037479	0.023760	0.023143	80.280000	
0.030080	0.020608	0.018644	81.200000	
0.030454	0.024428	0.020912	82.120000	
0.038699	0.022549	0.022897	84.560000	
0.040109	0.021186	0.023705	86.000000	
0.035554	0.019157	0.291689	87.670000	
0.036467	0.021361	2.117972	89.980000	
1970988810464.237549	0.021626	47.907087	91.350000	
0.387270	0.021841	0.318166	93.310000	
0.033310	0.021643	6807.574633	96.050000	
0.033883	0.021853	1513573237.644195	97.500000	
0.040941	0.023952	0.027763	98.950000	
31.221338	0.025187	9.704524	100.550000	
1365105551.873395	0.024053	0.065925	101.560000	
0.032174	0.023916	0.020260	103.380000	
0.183704	0.019764	0.019800	104.650000	
0.030512	0.019626	0.020091	105.460000	
0.028655	0.017913	0.020520	107.010000	
0.028457	0.017821	0.018149	108.490000	
0.030736	0.019925	0.021782	108.850000	
0.024645	0.015129	0.013426	109.510000	
0.023952	0.014927	0.013208	113.020000	
0.030026	0.014289	0.016049	115.590000	
0.024204	0.013994	0.013808	119.030000	
0.025463	0.015069	0.014850	121.210000	
0.023512	0.013486	0.013853	124.060000	
0.026204	0.014469	0.014753	126.450000	
0.026267	0.014166	0.014635	130.130000	
0.027902	0.016092	0.015904	132.380000	
0.028770	0.016424	0.015979	134.320000	
0.026082	0.015517	0.015477	135.820000	
0.026654	0.015642	0.016058	139.870000	
0.028154	0.016519	0.016381	141.970000	
0.026716	0.017024	0.014554	144.000000	
0.032852	0.020115	0.021154	145.570000	
0.028410	0.018497	0.020170	147.380000	
0.462020	0.017977	0.434523	148.640000	
0.026410	0.015293	0.015790	150.220000	
0.025809	0.013399	0.014554	151.030000	
0.028706	0.013446	0.016531	153.280000	
0.082637	0.094156	0.066278	155.070000	
0.068199	0.082861	0.073079	155.510000	
0.052427	0.065357	0.025120	155.880000	
0.029396	0.029022	0.021181	156.020000	
0.043496	0.028586	0.032365	156.470000	
0.037643	0.021802	0.024044	156.840000	
0.033230	0.025529	0.026177	157.440000	
0.030390	0.024636	0.019717	157.810000	
0.031341	0.022657	0.019502	157.960000	
0.034439	0.022915	0.026027	158.410000	
0.028876	0.021460	0.019036	158.780000	
0.028317	0.020035	0.017552	160.000000	
0.030581	0.019600	0.018611	161.840000	
0.026417	0.016749	0.016930	162.290000	
0.023867	0.015569	0.016389	163.520000	
0.024427	0.014952	0.015513	165.060000	
0.028176	0.017685	0.018096	166.370000	
0.031203	0.019498	0.017898	167.130000	
0.024719	0.016902	0.016536	168.050000	
0.026770	0.017321	0.017613	169.370000	
0.028839	0.017400	0.016618	171.230000	
0.031918	0.017357	0.017625	171.990000	
0.026426	0.016408	0.019673	173.460000	
0.026684	0.015669	0.016481	174.610000	
0.027815	0.015786	0.016910	176.540000	
0.027823	0.015767	0.016670	179.180000	
0.026710	0.017200	0.016514	181.030000	
0.030283	0.017063	0.016614	183.430000	
0.029902	0.016069	0.015493	183.570000	
0.029060	0.016278	0.015288	184.480000	
0.029549	0.017191	0.015860	185.480000	
0.029381	0.018712	0.015842	186.020000	
0.026538	0.016440	0.016204	186.390000	
0.029033	0.016658	0.016869	187.170000	
0.030571	0.015937	0.015777	189.110000	
0.029048	0.017215	0.017260	190.190000	
0.028860	0.017266	0.014580	190.490000	
0.028327	0.015786	0.014573	191.970000	
0.025019	0.015223	0.014961	192.110000	
0.026382	0.015370	0.015408	192.970000	
0.030744	0.017008	0.015655	193.350000	
0.029059	0.014281	0.016712	194.050000	
0.031432	0.013086	0.016864	195.920000	
0.030014	0.013047	0.014665	197.480000	
0.031553	0.012705	0.015077	199.040000	
0.030873	0.012188	0.015758	200.600000	
0.026250	0.012118	0.014778	201.690000	
0.025992	0.011863	0.015295	203.330000	
0.026038	0.012326	0.014801	204.180000	
0.034854	0.011124	0.014459	205.120000	
0.034475	0.012055	0.015211	207.400000	
0.028401	0.013278	0.013793	207.780000	
0.022807	0.013365	0.013931	209.190000	
0.027442	0.014079	0.015374	209.570000	
0.026535	0.014243	0.014605	210.750000	
0.029148	0.013700	0.014873	212.800000	
0.024905	0.012991	0.015644	214.230000	
0.025582	0.013558	0.015587	214.860000	
0.029064	0.017618	0.015407	215.480000	
0.027914	0.017984	0.013864	216.260000	
0.032089	0.016061	0.014289	216.500000	
0.034627	0.017911	0.016090	216.810000	
0.035126	0.017683	0.019747	217.590000	
0.033705	0.016473	0.020186	217.740000	
0.092427	0.046054	0.040822	217.880000	
0.032449	0.025236	0.021567	218.030000	
0.031982	0.026844	0.020868	218.340000	
0.030582	0.026138	0.021415	218.490000	
0.032282	0.027840	0.023465	219.040000	
0.037915	0.023226	0.023553	219.590000	
0.027851	0.019835	0.021383	220.700000	
0.036333	0.021187	0.021344	221.490000	
0.029091	0.021363	0.021350	221.720000	
0.028901	0.021109	0.021454	223.160000	
0.027342	0.019579	0.020493	224.350000	
0.029173	0.019827	0.019534	225.630000	
0.027175	0.017536	0.019241	226.190000	
0.028547	0.021047	0.027558	227.060000	
0.031082	0.029216	164910.954628	227.450000	
0.031280	0.028426	0.020369	228.000000	
0.032821	0.024100	0.021840	228.150000	
0.026803	0.018439	0.018503	228.540000	
0.027697	0.018408	0.017409	228.680000	
0.027787	0.017395	0.017826	229.310000	
0.028023	0.019955	0.017612	229.530000	
0.028866	0.017705	0.018554	229.770000	
0.027955	0.018252	0.018665	230.400000	
0.028673	0.020306	0.019182	231.100000	
0.028142	0.018812	0.019739	231.260000	
0.028309	0.018039	0.019796	232.610000	
1.835584	28924.152159	0.020961	233.650000	
0.037298	0.035031	0.021512	233.790000	
0.032457	0.022643	0.022332	233.940000	
0.032983	0.021865	0.021906	234.250000	
0.033891	0.020452	0.021567	234.480000	
0.030582	0.020041	2.436756	235.920000	
0.031115	0.018588	504619577669046765617152.000000	236.810000	
0.030462	0.018707	0.021234	238.500000	
0.030258	0.020995	0.021192	240.130000	
0.034336	0.022201	0.022745	241.330000	
9785.466333	0.022633	0.021810	242.210000	
0.033428	0.022798	0.021172	242.680000	
0.036688	0.021749	0.028060	243.410000	
288.383184	0.021842	0.021212	243.640000	
0.032214	0.022082	0.021260	248.020000	
0.033059	0.023156	0.021935	249.220000	
0.050504	0.026264	41963448.827820	251.170000	
0.028174	0.018634	0.020340	251.640000	
1829382.197456	0.017849	13900098823431.599609	252.370000	
0.029549	0.018665	0.018319	254.890000	
0.036445	0.017594	217325745298017.500000	255.850000	
0.029396	0.017990	0.019331	256.000000	
152361732732478946279424.000000	0.017544	613993319435069258989568.000000	257.540000	
0.029242	0.017638	0.018783	258.660000	
1995022897085292.250000	0.019419	1.131475	259.790000	
11885.391534	0.017475	1664306020152378644234240.000000	261.740000	
0.030324	0.018814	0.449061	262.550000	
23448350899928507088896.000000	0.017660	0.020697	263.190000	
0.028314	0.017975	0.019765	266.440000	
0.033433	0.020236	3457091236420.743652	268.710000	
1165093557.408909	0.018655	40237925248264626176.000000	268.850000	
0.030100	0.018129	0.017892	269.330000	
0.029280	0.017429	0.018166	269.730000	
0.025760	0.017219	0.018360	269.880000	
0.027103	0.018460	591170335777.833984	270.910000	
0.026054	0.017211	0.017604	271.470000	
0.027966	0.021387	0.022905	272.440000	
0.027182	0.017736	0.017929	272.580000	
0.026264	0.017342	0.016761	272.900000	
0.025990	0.017276	0.016411	273.380000	
0.027017	0.016735	0.017063	273.600000	
0.025711	0.016054	0.016959	274.500000	
0.026855	0.017727	0.017737	275.200000	
0.027978	0.017064	0.018008	275.520000	
0.027641	0.016720	0.018237	275.750000	
0.027534	0.017221	0.018305	276.300000	
0.028395	0.017819	0.017513	276.690000	
0.027628	0.016578	0.018283	276.840000	
0.027293	0.016566	0.018004	277.070000	
0.027838	0.016038	0.017606	277.380000	
0.027643	0.015243	0.017222	277.530000	
0.028028	0.015523	0.017385	278.970000	
0.029405	0.016143	0.017535	279.520000	
0.029326	0.015129	0.017315	280.400000	
0.029977	0.015689	0.018187	281.040000	
0.027973	0.016737	0.017856	281.260000	
0.029317	0.015910	0.017430	281.650000	
0.028342	0.016566	0.017787	281.880000	
0.029276	0.018303	0.018264	282.350000	
0.029087	0.016305	0.018127	282.580000	
0.029384	0.016304	0.018836	282.730000	
0.028099	0.016725	0.018122	283.520000	
0.026866	0.016594	0.017599	283.670000	
0.027538	0.017253	0.017973	283.980000	
0.027595	0.020114	0.017913	284.120000	
0.028204	0.020918	0.018119	284.270000	
0.028904	0.021835	0.018487	284.420000	
0.026259	0.017360	0.017898	284.560000	
0.026334	0.017279	0.017543	284.710000	
0.028419	0.020387	0.018444	284.950000	
0.026866	0.017035	0.018470	285.250000	
0.027420	0.016584	0.018265	285.400000	
0.028912	0.016717	0.017801	285.720000	
0.025921	0.017377	0.018097	285.860000	
0.026060	0.018769	0.018306	286.180000	
0.025904	0.019208	0.018272	286.880000	
0.026587	0.017263	0.017588	287.120000	
0.026352	0.016158	0.016698	287.350000	
0.025928	0.015884	0.016864	287.580000	
0.026769	0.016045	0.017148	288.130000	
0.026388	0.016133	0.016803	288.360000	
0.027377	0.016160	0.016974	288.500000	
0.027366	0.015516	0.017566	288.890000	
0.028484	0.018529	0.017810	289.040000	
0.026338	0.016938	0.017041	289.190000	
0.027173	0.016780	0.017396	289.340000	
0.028007	0.018344	0.017051	289.490000	
0.027089	0.016670	0.016987	289.640000	
0.028645	0.017237	0.017093	289.860000	
0.028519	0.016471	0.017618	290.090000	
0.028590	0.016813	0.017808	290.400000	
0.028901	0.017277	0.210947	290.870000	
0.028955	0.018551	0.017117	291.340000	
4.748180	0.017414	0.017656	291.490000	
0.027709	0.019286	0.024904	292.030000	
0.028703	0.019928	70.228124	292.580000	
0.028469	0.017475	303723619.160296	292.740000	
0.038456	0.017841	0.017334	293.040000	
0.026046	0.019652	0.018687	293.190000	
25771617.109852	0.021445	0.019107	293.420000	
0.027631	0.019242	0.018145	293.890000	
0.028525	0.020045	0.022837	294.040000	
0.027407	0.017458	0.018497	294.340000	
42101832091.851883	0.017992	0.018584	294.490000	
0.027506	0.016653	0.018384	294.650000	
0.026612	0.017445	7154650529888180633600.000000	295.030000	
14600873.626479	0.016945	21939939140059716.000000	295.340000	
0.026642	0.017018	35579.397533	295.560000	
0.026571	0.016565	43921831115448418304.000000	295.720000	
0.028414	0.016624	0.017424	296.100000	
0.027437	0.016251	0.017729	296.400000	
0.027548	0.017094	0.017643	296.870000	
0.027864	0.019286	0.017586	297.020000	
0.027962	0.017794	0.017673	297.250000	
0.027221	0.017758	0.017747	297.390000	
0.026940	0.018078	0.017669	297.790000	
0.026895	0.016524	0.017535	298.250000	
6.512604	0.016649	0.017586	299.190000	
0.025822	0.018113	0.017651	299.420000	
0.025285	0.016842	0.017919	299.650000	
0.027854	0.017245	0.017891	300.110000	
0.026665	0.017705	0.017882	300.260000	
0.026438	0.017634	0.022113	300.410000	
0.026653	0.017927	0.017551	300.640000	
0.027304	0.017168	0.017206	300.790000	
0.027413	0.017241	0.017250	301.330000	
0.028196	0.017631	0.018027	301.480000	
0.027734	0.017537	0.017879	301.700000	
40295.635112	0.018046	0.018060	301.930000	
0.354846	0.017611	0.018522	302.160000	
0.027685	0.017671	0.017964	302.390000	
0.028113	0.017445	0.018166	302.610000	
0.028480	0.019081	0.017782	302.760000	
0.028848	0.018714	9780984161572526.000000	302.910000	
0.032925	0.019722	0.018337	303.060000	
3.665517	0.019833	0.018218	303.210000	
0.029161	0.019100	0.018386	303.430000	
0.029465	0.019278	7.658120	303.580000	
771.557629	0.019843	0.018201	304.060000	
0.030112	0.019971	0.017870	304.200000	
0.028933	0.018396	0.017744	304.510000	
0.030470	0.018276	0.018537	304.660000	
0.557481	0.018932	0.017689	304.810000	
0.032501	0.019246	0.078579	304.960000	
0.033788	0.018825	0.018237	305.110000	
0.028276	0.020147	0.017840	305.260000	
0.027971	0.019514	0.017779	305.410000	
0.028873	0.020623	0.017776	305.560000	
0.502674	0.020726	0.017734	305.710000	
0.028648	0.019915	0.019149	305.860000	
0.028414	0.021536	0.017688	306.010000	
0.028866	0.020781	0.017945	306.230000	
0.028484	0.021866	0.017648	306.370000	
0.995887	0.023074	0.017628	306.530000	
0.029024	0.021504	1600.776492	306.670000	
814322738.632116	0.019941	0.017958	306.980000	
0.028924	0.020452	0.017834	307.130000	
0.028534	0.020025	0.017559	307.280000	
0.028929	0.019948	0.017808	307.430000	
0.027530	0.017567	64305950781469229056.000000	307.580000	
0.027629	0.018123	0.017401	307.980000	
0.028114	0.019495	0.017261	308.120000	
0.027984	0.019308	0.017349	308.350000	
0.322462	0.018139	0.017645	308.580000	
0.027486	0.017384	0.017552	308.890000	
0.027770	0.018259	0.028923	309.040000	
0.027641	0.019968	0.018401	309.270000	
0.027664	0.019654	0.017620	309.420000	
0.028322	0.019174	0.018262	309.970000	
0.027777	0.018873	0.018032	310.120000	
0.028196	0.019743	0.017835	310.270000	
0.028063	0.020468	0.017685	310.500000	
0.027197	0.019279	0.018019	310.640000	
0.028505	0.020079	0.017828	310.800000	
0.027748	0.018886	0.018070	310.950000	
0.027114	0.018754	0.017433	311.100000	
0.026971	0.019820	0.017573	311.240000	
0.027168	0.019172	0.017989	311.480000	
0.027256	0.018077	0.018001	311.630000	
0.027884	0.019911	0.017753	311.780000	
0.027430	0.018867	0.017839	311.920000	
0.027659	0.018886	0.017667	312.160000	
0.027338	0.016870	0.017707	312.310000	
0.027417	0.016563	0.017857	312.540000	
0.028294	0.016890	0.018068	312.770000	
0.027504	0.016348	0.017928	312.910000	
0.028130	0.017031	0.024844	313.220000	
0.027583	0.016899	0.017797	313.370000	
0.028964	0.016918	0.017960	313.510000	
0.028009	0.017030	0.017916	313.670000	
0.028435	0.017155	0.017960	313.810000	
0.027852	0.017086	0.017868	314.050000	
0.027570	0.016723	0.017845	314.190000	
0.027552	0.016625	0.017645	314.340000	
0.027194	0.016760	0.017559	314.490000	
0.027407	0.016901	0.017823	314.640000	
0.027362	0.016598	0.017516	314.790000	
0.026678	0.016567	0.017702	314.940000	
0.026511	0.016206	0.017918	315.080000	
0.027500	0.016615	0.017610	315.390000	
0.027365	0.016447	0.017632	315.620000	
0.027567	0.016540	0.018106	315.850000	
0.027236	0.016496	0.017568	316.000000	
0.027099	0.016527	0.017363	316.150000	
0.027521	0.017319	0.017606	316.300000	
7937859896.585887	0.017602	0.017433	316.450000	
0.027325	0.017071	0.017446	316.670000	
0.027634	0.017033	0.017463	316.820000	
0.028342	0.017550	0.018034	316.970000	
0.027649	0.017734	1700749640319326224384.000000	317.120000	
0.028154	0.018050	0.017579	317.270000	
0.028002	0.017939	0.023289	317.420000	
0.027717	0.018213	0.017490	317.560000	
0.028203	0.017778	0.017487	317.720000	
0.027870	0.017308	0.017562	317.870000	
0.027830	0.016941	0.017729	318.100000	
0.027666	0.017160	0.017705	318.330000	
0.027370	0.016805	0.017781	318.470000	
0.027040	0.016666	0.017998	318.620000	
0.070625	0.016795	0.017885	318.780000	
0.027576	0.016887	0.018009	318.920000	
0.027944	0.016727	0.018490	319.070000	
0.027438	0.017023	0.018109	319.220000	
0.027445	0.017698	0.017947	319.370000	
1.157261	0.017681	0.018007	319.520000	
0.027935	0.018527	0.018279	319.670000	
0.027500	0.018502	0.017931	319.890000	
0.027286	0.017683	25.504034	320.040000	
0.027309	0.016548	0.018348	320.190000	
0.026977	0.016520	0.017937	320.820000	
0.026696	0.016726	0.018013	321.050000	
0.026182	0.016215	272743351456683294720.000000	321.280000	
0.026571	0.015963	0.017916	321.430000	
0.026718	0.016115	0.017844	321.990000	
0.027138	0.016393	33445.741435	322.130000	
0.026735	0.016122	0.017727	322.270000	
0.067483	0.016445	0.018070	322.670000	
0.027064	0.016443	0.017581	322.820000	
0.026914	0.016182	0.017738	322.960000	
0.027196	0.016241	28589.432941	323.200000	
0.026720	0.016836	0.017823	323.430000	
39.103837	0.016818	0.017668	323.570000	
0.027704	0.016865	0.018461	323.730000	
0.027078	0.016974	0.017800	323.880000	
0.027428	0.017279	0.017848	324.030000	
0.027014	0.017323	0.017926	324.410000	
7.002558	0.017283	0.017755	324.560000	
0.026804	0.016928	0.017552	324.710000	
96.460635	0.017586	0.017847	324.870000	
0.027430	0.017461	0.022368	325.020000	
0.027407	0.017696	0.017707	325.240000	
0.026890	0.016583	0.025640	325.390000	
0.027111	0.016949	0.017611	325.540000	
0.027740	0.017004	0.017912	325.940000	
0.027518	0.017257	39637.385974	326.160000	
0.028553	0.017129	0.017973	326.310000	
0.027383	0.017385	17479.106764	326.460000	
0.027365	0.017687	0.017427	326.610000	
112440069157508.953125	0.017153	0.017548	326.760000	
0.028872	0.017371	15.987878	326.920000	
0.027964	0.017940	0.017533	327.070000	
0.027246	0.017625	0.017426	327.210000	
0.027223	0.016834	0.017604	327.360000	
0.027809	0.017720	0.017657	327.840000	
4403443601831763968.000000	0.017895	0.018293	327.980000	
0.027144	0.017371	0.202148	328.140000	
0.027258	0.016619	0.052856	328.360000	
0.027615	0.017555	0.018087	328.510000	
0.033578	0.017198	0.017911	328.650000	
0.028110	0.017909	0.018149	328.800000	
0.027927	0.018174	0.018484	328.950000	
0.027408	0.016873	0.017990	329.110000	
0.027148	0.017173	0.017978	329.420000	
0.027520	0.017877	0.017791	329.570000	
0.027510	0.017301	0.068805	329.710000	
0.026823	0.017156	0.017987	329.860000	
0.027207	0.017263	0.017834	330.020000	
0.027337	0.016987	0.017832	330.170000	
0.027484	0.016865	0.018041	330.320000	
0.027536	0.017470	0.017809	330.460000	
0.028074	0.017896	0.018407	330.610000	
0.026913	0.016925	0.017874	330.760000	
0.028653	0.018746	0.017954	331.140000	
0.027506	0.017028	434801.883152	331.290000	
0.027758	0.017231	4.011253	331.530000	
4.448990	0.016838	0.018243	331.760000	
255844566740566.500000	0.017452	0.017971	331.910000	
0.027127	0.017623	12447.068102	332.060000	
0.027564	0.017487	0.018456	332.280000	
0.028221	0.018164	0.018637	332.430000	
0.027101	0.016794	0.018132	332.590000	
0.026305	0.018209	0.019081	332.740000	
8056672.436315	0.016594	0.017872	332.880000	
11.926327	0.016539	0.017968	333.030000	
0.027427	0.017400	0.018096	333.180000	
0.027322	0.017431	0.018216	333.330000	
0.026929	0.016830	0.017944	333.550000	
0.027234	0.016755	0.061857	333.710000	
0.027111	0.016917	0.017948	333.850000	
0.027319	0.016361	0.018112	334.000000	
0.026719	0.016391	1667474.440641	334.150000	
1.023189	0.016651	0.018512	334.300000	
0.027036	0.016352	0.018304	334.450000	
0.027293	0.016509	0.018141	334.600000	
0.026859	0.016559	0.018187	334.750000	
0.026974	0.016453	8.315196	334.900000	
0.026761	0.016296	1828.643112	335.050000	
0.027145	0.016515	0.018313	335.200000	
0.027509	0.016075	0.018383	335.350000	
0.026996	0.016697	0.021586	335.490000	
0.026830	0.016331	61.423373	335.730000	
0.026999	0.016238	0.018311	335.870000	
0.026881	0.016690	0.018138	336.020000	
0.026958	0.016393	0.018117	336.170000	
0.026656	0.016386	0.018172	336.320000	
0.026891	0.016522	0.017984	336.550000	
0.027796	0.016631	0.018532	336.700000	
0.026416	0.016747	0.018601	336.840000	
0.026938	0.016536	0.018025	336.990000	
0.026598	0.016454	0.017988	337.140000	
0.027478	0.017151	0.018563	337.280000	
0.028323	0.017477	0.018855	337.430000	
0.027275	0.016437	0.017896	337.580000	
0.026870	0.016670	0.018034	337.720000	
0.027104	0.016817	0.018037	337.950000	
0.026939	0.016539	0.018740	338.100000	
324.762754	0.016581	0.017981	338.240000	
0.026784	0.016316	0.017991	338.400000	
0.026723	0.016491	0.017917	338.700000	
