
Validation.MSE	Test.MSE	Train.MSE	Time
0.008253	0.008833	0.006755	0.110000	
0.006599	0.007049	0.005589	0.220000	
0.010025	0.003302	0.002191	0.490000	
0.006143	0.002464	0.002088	1.970000	
0.004495	0.002833	0.002327	5.370000	
0.002008	0.002394	1055293.750292	8.560000	
0.001963	0.002229	0.001921	12.430000	
0.002185	0.002161	0.001304	13.710000	
0.002046	0.002132	0.001306	17.470000	
0.001366	0.001458	0.002638	18.480000	
0.001397	0.001200	0.001075	23.030000	
0.001226	0.001186	0.001077	26.640000	
0.001250	0.000985	0.000874	30.690000	
0.000656	0.000700	0.000517	33.650000	
0.000313	0.000415	0.000429	37.120000	
0.000363	0.000413	0.000250	42.410000	
0.000427	0.000403	0.000271	47.620000	
0.000327	0.000357	0.000256	52.850000	
0.000539	0.000369	0.000246	57.900000	
0.000432	0.000376	0.000259	61.860000	
0.000319	0.000319	0.000229	66.500000	
0.000260	0.000257	0.000148	71.190000	
0.000225	0.000241	0.000153	75.460000	
0.000160	0.000182	0.000147	80.440000	
0.000151	0.000194	0.000104	87.240000	
0.001409	0.001644	0.001512	90.400000	
0.000708	0.001113	0.000617	92.540000	
0.000917	0.001140	0.000790	95.890000	
0.000778	0.000825	0.000638	97.960000	
0.000507	0.000622	0.000431	101.270000	
0.000509	0.000618	0.000497	104.930000	
0.000494	0.000536	0.000481	109.850000	
0.000438	0.000472	0.000404	113.730000	
524776153.426497	0.000494	0.000298	116.810000	
0.000551	0.000672	0.000488	120.040000	
0.000544	0.000593	0.260224	122.960000	
0.000341	0.000387	0.000286	126.910000	
0.000245	0.000216	0.000161	130.420000	
0.000243	0.000209	0.000161	135.730000	
0.000205	0.000166	0.000141	139.760000	
0.000173	0.000149	0.000118	145.030000	
0.000181	0.000150	0.000126	150.910000	
0.000184	0.000150	0.000840	155.890000	
0.000182	0.000145	0.000121	160.420000	
0.000128	0.000113	0.000093	163.120000	
0.000131	0.000128	0.000110	167.050000	
0.000172	0.000144	0.001464	172.100000	
0.000165	0.000122	0.000129	177.080000	
5625995.125565	0.000112	0.000092	181.260000	
0.000129	0.000100	0.000088	186.660000	
0.000130	0.000102	0.000095	190.790000	
0.000136	0.000105	3870219.516203	196.540000	
0.000125	0.000104	0.000088	202.550000	
0.000106	0.000096	0.000065	206.880000	
0.000115	0.000094	0.000064	211.140000	
0.039328	0.036853	42.355699	213.340000	
0.010398	0.012670	0.007696	213.630000	
0.005117	0.006540	0.004013	213.920000	
0.004000	0.004397	0.002597	214.440000	
0.004017	0.004461	0.003049	216.390000	
0.014626	0.015333	0.012813	217.300000	
0.004203	0.004571	0.003186	217.810000	
0.003882	0.004272	0.002120	219.570000	
0.003501	0.003497	0.002377	221.250000	
0.001705	0.001616	0.000915	222.690000	
0.001267	0.001030	0.000693	225.670000	
0.000605	0.000729	0.000495	229.110000	
0.000409	0.000430	0.000283	232.950000	
0.000354	0.000372	0.000228	237.080000	
0.000349	0.000369	0.000472	240.450000	
0.000372	0.000349	0.000276	244.740000	
0.000408	0.000382	0.000282	248.500000	
0.000380	0.000373	0.000233	252.030000	
0.000370	0.000339	0.000225	255.100000	
0.000320	0.000300	0.000391	258.400000	
0.000251	0.000251	0.000212	262.320000	
0.134085	0.104710	0.254968	263.320000	
0.055225	0.042079	0.026075	263.460000	
0.023372	0.025456	0.022241	263.910000	
0.008623	0.008712	0.174682	264.300000	
0.006422	0.007917	0.005258	265.460000	
0.005927	0.006443	0.003740	265.920000	
0.004178	0.004628	0.003098	267.310000	
3228.962621	0.003174	0.002304	268.170000	
0.003118	0.002947	0.002085	269.410000	
0.003259	0.003227	0.002424	273.860000	
0.002305	0.002311	0.001573	276.430000	
0.002890	0.002935	0.002017	278.850000	
0.014607	0.015838	0.012951	279.540000	
0.009308	0.010507	0.007510	280.080000	
0.009557	0.010356	0.008033	280.550000	
0.003712	0.003705	0.002502	281.000000	
0.003211	0.003358	0.002577	282.030000	
0.003124	0.003257	0.002258	283.680000	
0.002750	0.003041	0.002158	286.290000	
0.003075	0.003233	0.002340	288.580000	
0.002744	0.002988	0.002022	291.820000	
0.002865	0.003081	0.002176	294.910000	
0.002747	0.002995	0.002318	296.890000	
0.002070	0.002630	0.001207	297.040000	
0.002418	0.002222	0.001726	297.180000	
0.002142	0.001941	0.001496	299.880000	
0.001839	0.001849	0.001249	302.660000	
0.001703	0.001716	0.001140	303.440000	
0.001216	0.001382	0.000923	306.630000	
0.001159	0.001206	0.000818	309.410000	
0.001052	0.001076	0.000762	313.780000	
0.000826	0.000816	0.000585	317.120000	
0.000785	0.000803	0.000605	321.100000	
0.000651	0.000613	0.000462	325.000000	
0.000781	0.000727	0.000495	328.910000	
0.000725	0.000719	0.000579	331.370000	
0.000608	0.000610	0.000393	334.310000	
0.000646	0.000613	0.000394	338.770000	
0.002945	0.003588	0.002534	339.870000	
0.003488	0.003802	0.002530	340.260000	
0.003847	0.003429	0.002217	341.530000	
0.001715	0.001563	0.001283	342.160000	
0.001459	0.001501	0.001086	344.320000	
0.001452	0.001482	0.000962	346.640000	
0.001392	0.001479	0.000903	349.760000	
0.000969	0.001084	0.000563	351.760000	
0.001051	0.001019	0.000668	354.400000	
0.001035	0.001020	0.000521	357.920000	
0.004137	0.004780	0.003906	360.950000	
0.003403	0.003994	0.003140	361.580000	
0.003302	0.003493	0.002346	362.060000	
0.002520	0.003189	0.001681	362.760000	
0.002867	0.003020	0.002013	362.910000	
0.002354	0.002736	0.001750	364.110000	
0.002275	0.002481	0.001370	365.540000	
0.002129	0.002128	0.001354	366.740000	
0.000726	0.000932	0.000624	366.960000	
0.000819	0.000830	0.000560	368.570000	
0.000696	0.000720	0.000426	371.050000	
0.000439	0.000417	0.000239	374.180000	
0.000345	0.000342	0.000193	376.170000	
0.000342	0.000342	0.000175	378.490000	
0.000271	0.000265	0.000132	382.020000	
0.000272	0.000268	0.000125	385.540000	
0.000304	0.000299	0.000139	389.880000	
0.000303	0.000300	0.000174	393.240000	
0.000317	0.000301	0.000146	397.640000	
0.000315	0.000296	0.000143	401.470000	
0.000315	0.000289	0.000137	405.630000	
0.000311	0.000285	0.000141	410.670000	
0.000346	0.000302	0.000161	414.910000	
0.000238	0.000212	0.000125	417.380000	
0.000233	0.000195	0.000119	422.170000	
0.000237	0.000197	0.000121	426.080000	
0.000240	0.000195	0.000135	429.350000	
0.000268	0.000219	0.000160	432.450000	
0.006677	0.007405	0.006022	433.650000	
0.003935	0.004555	0.003128	433.950000	
0.005124	0.005243	0.003813	434.260000	
0.006708	0.006916	0.004575	434.400000	
0.006872	0.006228	0.004600	434.560000	
0.003338	0.003960	0.002870	434.700000	
0.003796	0.003866	0.002598	434.850000	
0.004379	0.004207	0.002970	435.240000	
0.002779	0.002871	0.001809	435.480000	
0.002569	0.002610	0.001543	435.620000	
0.002236	0.002085	0.001378	436.100000	
0.002180	0.001978	0.001494	436.900000	
0.002284	0.001972	0.001519	438.680000	
0.002045	0.001896	0.001429	440.860000	
0.001550	0.001305	0.001007	442.480000	
0.001606	0.001338	0.000957	442.950000	
0.001541	0.001351	0.000910	445.290000	
0.001554	0.001252	0.000855	447.230000	
0.001452	0.001222	0.000945	449.900000	
0.001354	0.001127	0.000817	452.410000	
0.001428	0.001246	0.000927	454.030000	
0.001440	0.001130	0.000857	455.320000	
0.000919	0.000761	0.000563	457.110000	
0.001014	0.000851	0.000575	459.630000	
0.001049	0.000811	0.000595	461.720000	
0.000879	0.000806	0.000535	463.510000	
0.001084	0.000895	0.000635	465.530000	
0.001059	0.000855	0.000634	467.810000	
0.000924	0.000718	0.000510	470.490000	
0.000924	0.000677	0.000498	474.480000	
0.000960	0.000693	0.000508	477.640000	
0.000909	0.000644	0.000472	479.270000	
0.000887	0.000679	0.000488	482.190000	
0.000692	0.000565	0.000370	482.990000	
0.000520	0.000464	0.000283	486.320000	
0.002006	0.001749	0.001117	487.200000	
0.001276	0.001177	0.000782	487.750000	
0.001252	0.001173	0.000798	489.940000	
0.001215	0.001195	0.000828	490.740000	
0.001113	0.000992	0.000692	491.550000	
0.000889	0.000927	0.000646	492.430000	
0.000820	0.000828	0.000492	493.150000	
0.000716	0.000720	0.000434	494.440000	
0.000764	0.000716	0.000439	495.800000	
0.000775	0.000692	0.000426	497.510000	
0.000764	0.000700	0.000424	499.210000	
0.000553	0.000493	0.000300	501.470000	
0.000566	0.000483	0.000312	505.040000	
0.000560	0.000468	0.000311	508.610000	
0.000677	0.000526	0.000317	510.300000	
0.000733	0.000564	0.000373	512.640000	
0.000701	0.000564	0.000372	513.850000	
0.000774	0.000560	0.000361	515.940000	
0.000662	0.000525	0.000336	519.190000	
0.000573	0.000484	0.000288	519.830000	
0.000528	0.000420	0.000269	522.030000	
0.000665	0.000526	0.000347	523.230000	
0.000594	0.000519	0.000313	523.960000	
0.000507	0.000457	0.000295	525.730000	
0.000531	0.000450	0.000310	528.320000	
0.000590	0.000534	0.000296	529.780000	
0.000535	0.000551	0.000306	530.570000	
0.000640	0.000532	0.000304	531.290000	
0.000526	0.000512	0.000315	532.750000	
0.000520	0.000504	0.000305	533.960000	
0.000514	0.000511	0.000324	534.590000	
0.000602	0.000526	0.000342	535.720000	
0.000541	0.000501	0.000360	536.690000	
0.000574	0.000480	0.000309	537.730000	
0.000543	0.000475	0.000325	538.040000	
0.000465	0.000401	0.000281	539.910000	
0.000451	0.000356	0.000285	541.440000	
0.000399	0.000347	0.000267	542.000000	
0.000381	0.000313	0.000204	542.640000	
0.000381	0.000302	0.000183	544.500000	
0.000397	0.000308	0.000198	545.630000	
0.000416	0.000312	0.000218	547.480000	
0.000404	0.000306	0.000210	549.100000	
0.000380	0.000303	0.000190	550.640000	
0.000395	0.000306	0.000196	551.690000	
0.000388	0.000297	0.000188	554.120000	
0.000363	0.000275	0.000171	556.710000	
0.000334	0.000256	0.000155	559.140000	
0.000338	0.000257	0.000153	561.820000	
0.000353	0.000263	0.000163	562.380000	
0.000339	0.000261	0.000195	563.180000	
0.000313	0.000215	0.000151	565.770000	
0.000329	0.000219	0.000147	568.600000	
0.000282	0.000204	0.000151	569.980000	
0.000287	0.000206	0.000152	572.470000	
0.000276	0.000217	0.000147	573.920000	
0.000296	0.000221	0.000161	575.540000	
0.000263	0.000204	0.000146	578.290000	
0.000259	0.000232	0.000151	579.910000	
0.000313	0.000222	0.000166	580.710000	
0.000322	0.000242	0.000155	582.000000	
0.000312	0.000237	0.000162	584.610000	
0.000292	0.000202	0.000140	585.740000	
0.000304	0.000206	0.000143	588.420000	
0.000293	0.000205	0.000139	590.610000	
0.000320	0.000207	0.000159	590.840000	
0.000269	0.000202	0.000147	592.950000	
0.000281	0.000194	0.000138	594.480000	
0.000266	0.000193	0.000131	597.560000	
0.000276	0.000192	0.000131	600.750000	
0.000338	0.000213	0.000156	603.090000	
0.000296	0.000202	0.000128	603.650000	
0.000249	0.000186	0.000132	604.780000	
0.000225	0.000181	0.000118	605.420000	
0.000191	0.000163	0.000105	606.800000	
0.000252	0.000186	0.000131	608.740000	
0.000182	0.000158	0.000096	610.110000	
0.000214	0.000163	0.000100	611.890000	
0.000189	0.000146	0.000105	612.610000	
0.000181	0.000130	0.000112	613.260000	
0.000174	0.000129	0.000109	616.410000	
0.000194	0.000139	0.000110	616.980000	
0.000190	0.000160	0.000121	618.840000	
0.000199	0.000153	0.000123	620.540000	
0.000191	0.000153	0.000128	621.920000	
0.000157	0.000130	0.000111	623.620000	
0.000153	0.000150	0.000117	625.560000	
0.000198	0.000171	0.000127	626.370000	
0.000194	0.000179	0.000142	627.000000	
0.000214	0.000176	0.000127	627.150000	
0.000133	0.000125	0.000094	627.550000	
0.000162	0.000142	0.000104	628.270000	
0.000185	0.000164	0.000120	630.780000	
0.000188	0.000164	0.000120	632.150000	
0.000185	0.000157	0.000116	633.600000	
0.000190	0.000166	0.000117	635.470000	
0.000175	0.000157	0.000126	636.680000	
0.000127	0.000118	0.000090	637.890000	
0.000124	0.000116	0.000085	640.890000	
0.000129	0.000122	0.000091	642.510000	
0.000169	0.000154	0.000127	644.130000	
0.000134	0.000124	0.000097	645.750000	
0.000147	0.000142	0.000109	646.150000	
0.000161	0.000138	0.000077	646.290000	
0.000158	0.000139	0.000076	647.340000	
0.000153	0.000128	0.000078	648.060000	
0.000148	0.000130	0.000080	648.210000	
0.000163	0.000129	0.000086	649.340000	
0.000175	0.000149	0.000082	649.980000	
0.000166	0.000146	0.000090	651.280000	
0.000176	0.000144	0.000079	651.430000	
0.000168	0.000139	0.000079	652.570000	
0.000179	0.000142	0.000099	653.040000	
0.000158	0.000126	0.000082	653.760000	
0.000165	0.000127	0.000076	653.910000	
0.000182	0.000140	0.000090	654.640000	
0.000168	0.000141	0.000079	655.190000	
0.000178	0.000151	0.000084	655.430000	
0.000213	0.000167	0.000095	656.400000	
0.000204	0.000158	0.000096	656.630000	
0.000187	0.000146	0.000084	657.510000	
0.000175	0.000142	0.000078	658.970000	
0.000174	0.000136	0.000076	660.100000	
0.000175	0.000132	0.000074	662.610000	
0.000170	0.000135	0.000074	664.150000	
0.000159	0.000129	0.000073	665.600000	
0.000176	0.000145	0.000083	666.910000	
0.000173	0.000140	0.000081	667.790000	
0.000176	0.000160	0.000096	668.840000	
0.000164	0.000133	0.000079	669.810000	
0.000175	0.000141	0.000080	670.610000	
0.000189	0.000148	0.000097	671.740000	
0.000186	0.000146	0.000092	672.790000	
0.000184	0.000140	0.000083	673.430000	
0.000175	0.000141	0.000092	673.760000	
0.000179	0.000136	0.000089	674.880000	
0.000164	0.000128	0.000082	675.530000	
0.000199	0.000158	0.000110	676.500000	
0.000193	0.000152	0.000088	676.740000	
0.000222	0.000178	0.000100	677.210000	
0.000197	0.000153	0.000086	678.510000	
0.000193	0.000160	0.000097	679.640000	
0.000198	0.000145	0.000085	679.950000	
0.000204	0.000146	0.000083	680.510000	
0.000188	0.000146	0.000090	681.400000	
0.000173	0.000134	0.000081	682.110000	
0.000175	0.000133	0.000076	683.250000	
0.000183	0.000141	0.000083	684.870000	
0.000183	0.000144	0.000087	685.500000	
0.000208	0.000165	0.000104	685.650000	
0.000210	0.000161	0.000089	686.050000	
0.000205	0.000156	0.000089	687.010000	
0.000228	0.000166	0.000093	687.240000	
0.000218	0.000158	0.000088	687.550000	
0.000217	0.000162	0.000094	687.860000	
0.000203	0.000159	0.000086	688.100000	
0.000175	0.000140	0.000074	688.900000	
0.000169	0.000135	0.000077	689.380000	
0.000168	0.000134	0.000078	689.760000	
0.000167	0.000131	0.000076	690.740000	
0.000178	0.000135	0.000076	691.620000	
0.000164	0.000127	0.000075	692.090000	
0.000160	0.000135	0.000078	693.310000	
0.000158	0.000129	0.000077	694.020000	
0.000149	0.000126	0.000076	694.590000	
0.000161	0.000130	0.000077	694.900000	
0.000168	0.000134	0.000077	696.370000	
0.000165	0.000133	0.000076	697.510000	
0.000172	0.000137	0.000080	698.310000	
0.000193	0.000149	0.000083	699.200000	
0.000183	0.000142	0.000079	699.430000	
0.000177	0.000140	0.000082	700.080000	
0.000192	0.000147	0.000082	700.240000	
0.000171	0.000140	0.000092	700.470000	
0.000164	0.000133	0.000084	700.700000	
0.000169	0.000133	0.000080	702.150000	
0.000178	0.000134	0.000079	702.300000	
0.000172	0.000136	0.000089	702.620000	
0.000195	0.000157	0.000096	703.180000	
0.000185	0.000141	0.000087	703.330000	
0.000189	0.000149	0.000095	703.490000	
0.000180	0.000137	0.000083	703.720000	
0.000183	0.000140	0.000086	703.950000	
0.000177	0.000135	0.000078	704.430000	
0.000175	0.000136	0.000079	704.990000	
0.000176	0.000136	0.000083	705.880000	
0.000181	0.000140	0.000084	706.020000	
0.000186	0.000139	0.000080	706.750000	
0.000180	0.000137	0.000082	707.790000	
0.000182	0.000140	0.000086	708.930000	
0.000214	0.000166	0.000104	709.400000	
0.000236	0.000197	0.000122	709.880000	
0.000239	0.000195	0.000127	710.030000	
0.000227	0.000180	0.000118	710.840000	
0.000223	0.000185	0.000120	710.990000	
0.000234	0.000186	0.000120	711.300000	
0.000231	0.000185	0.000117	711.610000	
0.000227	0.000190	0.000120	712.010000	
0.000228	0.000185	0.000116	712.250000	
0.000220	0.000171	0.000101	712.400000	
0.000218	0.000170	0.000102	712.620000	
0.000212	0.000167	0.000100	713.590000	
0.000209	0.000164	0.000102	714.650000	
0.000196	0.000157	0.000095	715.130000	
0.000204	0.000158	0.000092	715.280000	
0.000192	0.000155	0.000101	715.760000	
0.000212	0.000173	0.000119	716.070000	
0.000192	0.000163	0.000109	716.390000	
0.000188	0.000159	0.000099	716.540000	
0.000206	0.000167	0.000110	717.180000	
0.000210	0.000168	0.000108	717.500000	
0.000217	0.000170	0.000106	717.650000	
0.000232	0.000169	0.000093	717.890000	
0.000227	0.000168	0.000095	718.120000	
0.000211	0.000161	0.000092	718.280000	
0.000209	0.000164	0.000100	718.510000	
0.000211	0.000164	0.000101	718.990000	
0.000226	0.000168	0.000100	719.220000	
0.000227	0.000169	0.000100	719.370000	
0.000232	0.000172	0.000103	720.010000	
0.000238	0.000181	0.000114	720.320000	
0.000275	0.000200	0.000115	720.470000	
0.000258	0.000192	0.000113	720.700000	
0.000250	0.000193	0.000123	721.430000	
0.000262	0.000212	0.000125	721.740000	
0.000240	0.000189	0.000122	721.970000	
0.000247	0.000194	0.000113	722.290000	
0.000241	0.000190	0.000122	722.680000	
0.000233	0.000194	0.000135	723.080000	
0.000228	0.000190	0.000130	723.560000	
0.000209	0.000182	0.000122	723.710000	
0.000205	0.000192	0.000126	723.860000	
0.000203	0.000201	0.000128	724.340000	
0.000206	0.000211	0.000129	724.890000	
0.000204	0.000205	0.000125	725.210000	
0.000192	0.000174	0.000117	725.360000	
0.000295	0.000256	0.000185	725.510000	
0.000211	0.000200	0.000136	725.660000	
0.000202	0.000189	0.000126	725.980000	
0.000199	0.000163	0.000110	726.220000	
0.000198	0.000161	0.000108	726.610000	
0.000195	0.000159	0.000103	727.090000	
0.000215	0.000170	0.000104	727.320000	
0.000215	0.000166	0.000103	727.720000	
0.000214	0.000166	0.000104	727.870000	
0.000205	0.000160	0.000101	728.030000	
0.000203	0.000160	0.000107	728.180000	
0.000202	0.000159	0.000106	728.570000	
0.000201	0.000159	0.000107	728.720000	
0.000186	0.000151	0.000099	728.950000	
0.000187	0.000152	0.000097	729.430000	
0.000191	0.000154	0.000096	729.660000	
0.000187	0.000146	0.000092	729.890000	
0.000188	0.000150	0.000099	730.120000	
0.000188	0.000149	0.000095	730.280000	
0.000180	0.000144	0.000095	730.760000	
0.000183	0.000147	0.000093	730.900000	
0.000173	0.000139	0.000089	731.390000	
0.000174	0.000142	0.000089	731.530000	
0.000177	0.000145	0.000089	732.260000	
0.000184	0.000145	0.000090	732.500000	
0.000177	0.000139	0.000087	732.800000	
0.000192	0.000161	0.000105	732.960000	
0.000193	0.000160	0.000106	733.270000	
0.000187	0.000147	0.000094	733.590000	
0.000182	0.000144	0.000091	733.740000	
0.000184	0.000145	0.000094	733.890000	
0.000187	0.000157	0.000100	734.030000	
0.000180	0.000158	0.000102	734.520000	
0.000176	0.000145	0.000098	734.750000	
0.000178	0.000146	0.000100	734.980000	
0.000174	0.000147	0.000097	735.130000	
0.000176	0.000150	0.000103	735.370000	
0.000177	0.000152	0.000104	735.520000	
0.000204	0.000171	0.000119	735.670000	
0.000183	0.000152	0.000103	735.890000	
0.000184	0.000154	0.000104	736.290000	
0.000199	0.000163	0.000111	736.440000	
0.000188	0.000157	0.000107	736.590000	
0.000176	0.000152	0.000100	736.820000	
0.000184	0.000166	0.000111	736.970000	
0.000178	0.000164	0.000106	737.120000	
0.000174	0.000162	0.000106	737.360000	
0.000178	0.000157	0.000106	737.590000	
0.000168	0.000147	0.000096	737.740000	
0.000169	0.000144	0.000093	737.890000	
0.000194	0.000159	0.000106	738.040000	
0.000183	0.000146	0.000094	738.190000	
0.000188	0.000147	0.000091	738.330000	
0.000186	0.000146	0.000091	738.480000	
0.000185	0.000146	0.000091	738.630000	
0.000189	0.000150	0.000095	738.790000	
0.000193	0.000157	0.000101	739.020000	
0.000193	0.000158	0.000105	739.170000	
0.000182	0.000147	0.000096	739.480000	
0.000187	0.000149	0.000095	739.710000	
0.000195	0.000159	0.000101	740.030000	
0.000190	0.000153	0.000095	740.180000	
0.000189	0.000150	0.000091	740.330000	
0.000187	0.000153	0.000095	740.560000	
0.000192	0.000163	0.000100	740.790000	
0.000186	0.000153	0.000095	740.940000	
0.000188	0.000158	0.000099	741.090000	
0.000174	0.000144	0.000093	741.240000	
0.000177	0.000145	0.000092	741.470000	
0.000196	0.000157	0.000095	741.700000	
0.000199	0.000157	0.000094	741.850000	
0.000201	0.000158	0.000095	742.000000	
0.000191	0.000157	0.000094	742.150000	
0.000198	0.000166	0.000098	742.300000	
0.000197	0.000165	0.000098	742.460000	
0.000199	0.000175	0.000105	742.760000	
0.000200	0.000178	0.000107	742.920000	
