
Validation.MSE	Test.MSE	Train.MSE	Time
0.011804	0.012991	0.012753	0.030000	
0.013580	0.014589	0.014320	0.190000	
0.013518	0.014331	0.014521	0.240000	
0.015650	0.014656	0.015502	0.300000	
0.012523	0.012962	0.012794	0.470000	
0.014071	0.014506	0.014392	0.650000	
0.012609	0.013740	0.013463	0.850000	
0.009549	0.010365	0.009299	0.910000	
0.009887	0.011652	0.010313	1.810000	
0.011513	0.013129	0.012739	2.650000	
0.011748	0.012366	0.012054	2.960000	
0.012493	0.012759	0.013262	3.190000	
0.013742	0.015086	0.014196	3.650000	
0.014076	0.015307	0.014456	3.770000	
0.013698	0.014902	0.014408	4.100000	
0.013455	0.015123	0.013576	4.300000	
0.014219	0.015366	0.014271	4.380000	
0.013854	0.015305	0.013986	4.550000	
124415724052225.671875	0.013108	0.012919	4.590000	
0.014328	0.014951	0.014395	4.670000	
0.013327	0.014420	0.013727	4.770000	
0.011960	0.013201	0.012780	4.900000	
0.012212	0.013214	0.012913	5.530000	
0.012462	0.013528	0.013054	6.200000	
0.012266	0.013730	0.012843	6.480000	
0.013842	0.014307	0.014397	6.860000	
0.013185	0.013962	0.013843	6.960000	
0.012604	0.014308	0.013285	7.020000	
0.012604	0.013624	0.013224	7.250000	
0.013090	0.013721	0.013723	7.460000	
0.012427	0.014365	0.012938	7.520000	
0.013489	0.014188	0.013951	7.560000	
0.013621	0.014592	0.013799	7.970000	
0.014319	0.015118	0.014795	8.080000	
0.013157	0.014420	0.013870	8.140000	
0.012173	0.013644	0.012673	8.290000	
0.012316	0.013812	0.013049	8.460000	
0.012149	0.013593	0.012774	8.520000	
0.013687	0.014571	0.014316	8.580000	
0.012567	0.013704	0.012840	8.670000	
0.012813	0.014093	0.013414	8.860000	
0.013315	0.014707	0.014013	8.970000	
20438504650371473408.000000	0.014624	0.014878	9.090000	
0.014006	0.015126	0.014741	9.200000	
0.013781	0.015451	0.014602	9.240000	
0.013525	0.015422	0.014315	9.430000	
0.013141	0.014369	0.013675	9.490000	
0.012378	0.014372	0.012704	9.530000	
0.012833	0.014503	0.013365	9.570000	
0.013022	0.013849	0.013916	9.640000	
0.013247	0.014421	0.013972	9.770000	
0.012721	0.013799	0.013362	9.880000	
0.012431	0.013828	0.013148	9.920000	
0.013117	0.014777	0.013516	9.980000	
0.013919	0.014360	0.014477	10.050000	
0.013632	0.015003	0.014334	10.090000	
0.013134	0.013929	0.013750	10.150000	
0.012469	0.014037	0.013466	10.190000	
0.013319	0.014607	0.013834	10.250000	
0.013524	0.014118	0.014255	10.300000	
0.015198	0.015542	0.016065	10.360000	
0.013904	0.014760	0.014552	10.400000	
0.013007	0.013875	0.013799	10.460000	
0.013771	0.014793	0.014392	10.620000	
0.012493	0.013912	0.013254	10.680000	
39304348232926560256.000000	0.014398	0.013637	10.780000	
0.013958	0.014987	0.014197	10.870000	
0.015115	0.015322	0.015583	10.990000	
0.015150	0.015404	0.015409	11.150000	
1164497937770922148626432.000000	0.014798	1552911654103268294918144.000000	11.200000	
658034991765717256241152.000000	0.014775	1243528009155992472256512.000000	12.920000	
1157293651398990057439232.000000	0.014048	16964281572526561735737344.000000	13.110000	
32779237651383656120320.000000	0.013721	52857253143614630920192.000000	13.250000	
1198286980410289684480.000000	0.013838	1324264305822565400576.000000	14.010000	
2536462760681543827456.000000	0.013717	23568368848668967542194176.000000	14.630000	
407476363004976394403840.000000	0.014597	5749921484086916226744320.000000	14.990000	
773847021214615467982848.000000	0.013696	5665283327540681760571392.000000	15.100000	
11187779766186326668345344.000000	0.013965	0.013333	15.180000	
1195893245102809940756529152.000000	0.013898	321702206446831354807058432.000000	15.410000	
4482394607008091184562176.000000	0.013165	1750503777148814749597696.000000	15.470000	
0.012644	0.013968	0.013200	15.620000	
4701765840522089857024.000000	0.013462	766640345684352903938048.000000	15.680000	
1621498461789340546629632.000000	0.014631	0.013490	15.880000	
0.012895	0.014694	160505864042403772497920.000000	16.630000	
269912835787699152486400.000000	0.014556	7635331361262780458991616.000000	16.760000	
13706047937662372135567360.000000	0.014682	18184327842895083622891520.000000	16.880000	
1040851523735646613012480.000000	0.014429	0.013369	17.130000	
13389338242053645285720064.000000	0.014253	104230449229677739804459008.000000	17.640000	
3351357492308270802534400.000000	0.013958	8260644291508761295585280.000000	17.900000	
0.013054	0.014291	0.013741	17.990000	
0.012218	0.013671	0.013105	18.230000	
506514983632211581861888.000000	0.013837	789822975055863595663360.000000	18.420000	
0.012561	0.013767	0.013250	18.500000	
7.762307	0.014438	0.013646	18.590000	
3194354631522469.000000	0.014028	0.013537	18.700000	
0.012942	0.014144	0.013430	18.780000	
0.012776	0.013904	0.013194	18.820000	
0.012703	0.013967	0.013280	18.860000	
0.012766	0.014038	0.013094	18.910000	
20007072870205880447008768.000000	0.013994	8157242220865719793352704.000000	18.950000	
0.012618	0.013767	0.013326	19.060000	
0.012580	0.014015	0.013290	19.250000	
0.012743	0.014057	88637789133787185152.000000	19.380000	
0.013012	0.014070	0.013554	19.420000	
0.012723	0.013996	0.013116	19.460000	
566.360011	0.013751	0.013089	19.550000	
4814838559903380813119488.000000	0.013864	0.013371	19.590000	
0.012671	0.014129	0.013351	19.630000	
0.012398	0.013807	5166097510054364872441856.000000	19.760000	
0.012346	0.013495	0.013214	19.820000	
0.012687	0.013727	0.013453	19.880000	
0.012970	0.013931	0.013542	19.970000	
0.013150	0.014187	0.013688	20.040000	
0.012762	0.013971	0.013426	20.100000	
0.012201	0.013823	0.013066	20.140000	
0.012527	0.013779	0.013231	20.210000	
0.012505	0.013886	0.013250	20.250000	
0.013487	0.013966	0.013613	20.290000	
0.012781	0.013966	0.013253	20.330000	
0.133997	0.013698	0.013128	20.370000	
0.012630	0.013697	0.013205	20.410000	
0.013033	0.013841	0.013621	20.500000	
0.013059	0.013846	0.013514	20.560000	
0.012823	0.013954	0.018113	20.670000	
0.022681	0.013876	0.013218	20.730000	
0.012669	0.013821	0.013423	20.770000	
0.012832	0.014301	0.013181	20.820000	
0.012420	0.014503	0.013045	20.920000	
0.012773	0.014053	0.013493	20.970000	
0.012653	0.014093	1960933595371.638184	21.030000	
0.013865	0.013940	0.013272	21.110000	
0.012450	0.013914	0.013082	21.180000	
0.012636	0.014050	0.013304	21.220000	
0.012734	0.014322	0.045152	21.260000	
0.012517	0.014020	0.013143	21.300000	
0.012752	0.014154	0.013207	21.350000	
0.013142	0.014513	65005488031646228215234560.000000	21.390000	
0.013116	0.014436	0.013448	21.430000	
0.013139	0.014628	134442375087704903568588800.000000	21.490000	
0.012791	0.014274	0.013185	21.530000	
0.012985	0.014529	0.013439	21.570000	
0.013013	0.014371	0.013400	21.630000	
0.012555	0.014225	24015921593344009533652992.000000	21.680000	
0.013067	0.014396	0.013333	21.720000	
0.012516	0.014223	0.012996	21.760000	
15923916152153678735736832.000000	0.013801	0.013128	21.800000	
0.012189	0.013764	0.012851	21.850000	
0.012494	0.013769	0.013063	21.890000	
151965580735503007299403776.000000	0.013554	0.012950	21.930000	
0.012401	0.013903	0.012796	21.970000	
12620350274226.435547	0.013889	0.013272	22.010000	
0.013137	0.014194	0.013689	22.050000	
0.012923	0.014301	16964109299478587737374720.000000	22.090000	
0.012848	0.014224	0.013359	22.160000	
0.013072	0.014200	2060761299005493216607731712.000000	22.270000	
461702145397585881333760.000000	0.014465	54918236884558716904407040.000000	22.360000	
97401280370.168610	0.014303	0.013830	22.440000	
8362308199593.211914	0.014358	0.013959	22.480000	
605435.000643	0.014037	0.013444	22.570000	
0.013085	0.014253	0.013238	22.610000	
1081121198477661907881820160.000000	0.014188	0.013343	22.660000	
0.013236	0.014400	0.013344	22.720000	
78716726473323072978944.000000	0.014468	0.013620	22.760000	
728785214770263296.000000	0.014295	0.013364	22.840000	
0.013465	0.014751	5855404081.807545	22.950000	
0.013372	0.014454	0.013774	23.000000	
1023952587675407.000000	0.014556	0.013974	23.060000	
11290005841186044271132672.000000	0.015097	0.014572	23.310000	
2551361074822035013632.000000	0.015545	0.015020	23.420000	
27608.917629	0.015805	5044592950475215601664.000000	23.490000	
29725499560295655041662976.000000	0.016026	3364363000553559388323840.000000	23.570000	
181344512535419.281250	0.015948	0.015519	23.750000	
400631.743811	0.015890	0.015731	23.790000	
0.014868	0.015819	0.015320	23.840000	
241.458493	0.015445	0.014723	23.970000	
658.085866	0.014781	0.014389	24.060000	
0.013957	0.014973	0.014612	24.100000	
0.013566	0.014630	0.014239	24.140000	
0.014271	0.014929	0.015282	24.230000	
370945822627562891771904.000000	0.015768	0.015294	24.280000	
54528901752601100905611264.000000	0.016038	628700096145507331008888832.000000	24.340000	
781597684237.131714	0.015419	0.014650	24.380000	
396662278364417042153472.000000	0.015439	146552248961108230742736896.000000	24.430000	
157924076508285468672.000000	0.015277	73581693964610221314670592.000000	24.460000	
33946010582780010865623040.000000	0.014865	0.014079	24.600000	
983956785925469773869613056.000000	0.015632	0.015066	24.690000	
913606885963615174656.000000	0.015000	0.014941	24.780000	
25650.409521	0.014850	0.014343	24.820000	
58756233663606535237926912.000000	0.015146	10589316098710165535064064.000000	24.950000	
213954473347325282735882240.000000	0.014649	0.014778	25.060000	
34945718776914299169275904.000000	0.014573	0.014625	25.130000	
1813.796841	0.015613	0.015677	25.170000	
143.871774	0.014484	0.014479	25.300000	
0.013615	0.014130	0.014374	25.360000	
50.619378	0.014220	0.014288	25.450000	
0.013569	0.014204	0.014003	25.510000	
0.013612	0.014288	0.013787	25.580000	
47063860724040163328.000000	0.014204	1039198725184490613650751488.000000	25.620000	
0.013506	0.014230	0.014051	25.660000	
0.013429	0.014058	0.013993	25.710000	
92968926376890868957184.000000	0.014365	0.014151	25.780000	
5.219607	0.014109	0.013830	25.840000	
2346805079901609786343424.000000	0.014095	0.014113	25.880000	
316745715882130155430215680.000000	0.014146	0.013882	25.930000	
0.013402	0.014210	404986369201024115448741888.000000	25.970000	
10831513044744690607325184.000000	0.014223	4229012427802050901835776.000000	26.020000	
8815537759236357676335104.000000	0.014163	0.013695	26.060000	
0.013615	0.014220	0.014251	26.100000	
1877553319691252614037504.000000	0.014528	0.013917	26.140000	
0.013392	0.014411	0.013519	26.180000	
0.013410	0.014272	0.013686	26.230000	
0.013378	0.014351	0.013704	26.270000	
0.013505	0.014339	0.013657	26.340000	
255994626175708773782388736.000000	0.014164	0.013762	26.410000	
0.013214	0.014059	0.013622	26.450000	
0.013215	0.014158	0.013695	26.490000	
3503.645753	0.014138	0.013845	26.530000	
7947786938265158.000000	0.014203	0.014382	26.590000	
12562513469440223036309504.000000	0.014216	0.014120	26.680000	
0.013503	0.014273	0.013980	26.750000	
0.013343	0.014079	0.013850	26.790000	
0.013452	0.014162	0.013818	26.830000	
0.013596	0.014299	0.013832	26.880000	
0.013554	0.014243	0.014038	26.930000	
0.013390	0.014190	0.013771	26.970000	
0.013472	0.014257	0.013601	27.010000	
0.013483	0.014339	0.013799	27.060000	
0.013251	0.014173	0.013585	27.100000	
0.013337	0.014331	90805617024284045351059456.000000	27.160000	
0.013215	0.014170	0.013515	27.200000	
0.013283	0.014160	326411919654845022208.000000	27.270000	
0.013303	0.014132	0.013718	27.360000	
0.013260	0.014098	0.013642	27.420000	
0.013503	0.014074	0.014080	27.460000	
0.013485	0.014077	20630259093370678628319232.000000	27.500000	
9.222243	0.014120	0.013863	27.570000	
214349438181226224591831040.000000	0.014137	0.013828	27.660000	
0.013358	0.014042	0.013776	27.700000	
95042472191047679141216256.000000	0.014115	0.013900	27.760000	
0.013415	0.014072	101123636269022774116220928.000000	27.800000	
10208852580329512960.000000	0.013993	0.013839	27.850000	
0.013483	0.014191	0.014224	27.930000	
0.013249	0.014056	78362953100125437253648384.000000	27.980000	
0.713117	0.013981	0.013828	28.110000	
0.013189	0.014077	0.013859	28.170000	
0.013209	0.013956	0.014012	28.220000	
0.013080	0.013953	0.013934	28.260000	
0.013060	0.013910	0.013823	28.320000	
0.013021	0.013847	0.013686	28.360000	
0.012895	0.013828	0.013586	28.430000	
92250524954201271014785024.000000	0.013872	0.013810	28.470000	
0.012948	0.013881	0.013785	28.510000	
246867122833632.562500	0.013835	0.013979	28.560000	
10815268594280679424.000000	0.013963	0.013903	28.600000	
0.013382	0.014194	0.014150	28.640000	
0.015126	0.014782	0.015044	28.680000	
0.015702	0.015299	100160071341479185455513600.000000	28.720000	
0.015044	0.014661	0.014980	28.770000	
0.014895	0.014665	0.014922	28.880000	
160234086577415006629920768.000000	0.014911	0.015205	29.050000	
0.015813	0.015753	0.016336	29.140000	
0.015634	0.015491	0.015978	29.180000	
0.649931	0.014650	0.015111	29.220000	
13016.989748	0.015130	0.015686	29.310000	
0.015806	0.015003	0.015619	29.350000	
0.789885	0.014710	0.014854	29.400000	
0.013694	0.014268	0.014314	29.460000	
0.013588	0.014284	0.014336	29.500000	
0.013507	0.014243	0.014240	29.590000	
5496754724238003449888768.000000	0.014550	0.014462	29.660000	
0.013836	0.014438	0.014523	29.700000	
0.013607	0.014410	0.014641	29.740000	
0.013743	0.014378	0.014575	29.810000	
0.013602	0.014301	0.014504	29.880000	
0.013602	0.014297	0.014543	29.920000	
0.013588	0.014199	0.014476	29.970000	
0.013415	0.014133	0.014311	30.030000	
10712264300954291556843520.000000	0.014110	0.014430	30.070000	
37040252312872984576.000000	0.014162	0.014361	30.120000	
0.013526	0.014330	312884711312717112147968.000000	30.160000	
0.013593	0.014127	0.014298	30.200000	
0.013831	0.014448	1732731274278720145496997888.000000	30.270000	
0.013765	0.014322	0.014374	30.330000	
0.374783	0.014235	0.014500	30.370000	
0.013625	0.014274	0.014300	30.440000	
0.013739	0.014331	0.014413	30.500000	
0.013749	0.014464	0.014498	30.550000	
0.013911	0.014451	0.014501	30.590000	
0.013625	0.014312	0.014436	30.630000	
154745.001545	0.014406	0.014563	30.700000	
0.014097	0.014601	0.014812	30.800000	
1.312149	0.014459	623576045176429349961728.000000	30.840000	
0.014618	0.014331	0.014454	30.890000	
0.013607	0.014350	0.014203	30.970000	
0.013231	0.014323	0.014041	31.020000	
0.013182	0.014119	53459984428240546587213824.000000	31.060000	
0.013342	0.014261	0.014039	31.100000	
8.255318	0.014184	0.014156	31.230000	
2.162311	0.014362	0.014249	31.280000	
0.187400	0.014342	0.014341	31.320000	
0.013653	0.014292	0.014307	31.360000	
0.013648	0.014351	0.014289	31.450000	
0.013741	0.014242	0.014281	31.490000	
0.013639	0.014314	0.014303	31.530000	
0.013519	0.014189	0.014138	31.570000	
0.013415	0.014333	65635341620126992.000000	31.610000	
370769209698.595154	0.014055	0.013942	31.680000	
0.013208	0.013895	24390822015425316074291200.000000	31.740000	
55.339536	0.013975	0.014097	31.790000	
0.013238	0.013938	0.013949	31.840000	
0.013357	0.013925	0.014000	31.900000	
0.013763	0.014608	0.014406	31.940000	
0.013315	0.013898	0.014033	31.980000	
0.013327	0.013785	0.013997	32.050000	
0.013338	0.013838	0.014048	32.100000	
0.013771	0.014336	0.014275	32.140000	
0.013187	0.013884	0.013857	32.180000	
1624.685558	0.014022	0.013887	32.220000	
0.013431	0.014079	0.014014	32.260000	
0.547401	0.013847	0.013909	32.310000	
3092019908579631590014976.000000	0.013958	0.013826	32.350000	
0.013151	0.013795	0.013860	32.390000	
0.013159	0.013824	0.013782	32.430000	
0.013130	0.013819	0.013619	32.480000	
9.581434	0.013914	0.013739	32.520000	
0.013275	0.013763	0.013923	32.650000	
0.013252	0.013891	0.013778	32.720000	
3.482214	0.013849	0.013697	32.760000	
29.869083	0.013795	0.013645	32.800000	
0.013178	0.013811	0.013691	32.850000	
0.013197	0.013835	0.013765	32.920000	
0.013198	0.014010	0.013844	32.960000	
0.013356	0.013961	0.013983	33.000000	
0.013266	0.013866	0.013756	33.040000	
0.013253	0.013878	18084245786851376.000000	33.090000	
0.013168	0.013842	0.013700	33.130000	
0.013085	0.013904	0.013707	33.200000	
0.013162	0.013809	0.013739	33.240000	
0.013197	0.013884	0.013771	33.280000	
0.013204	0.013823	1964555269976695462952960.000000	33.320000	
0.013203	0.013817	0.013801	33.380000	
0.013206	0.013996	0.013952	33.430000	
0.013131	0.013772	0.013755	33.490000	
0.013108	0.013747	0.013741	33.580000	
0.013195	0.013854	0.013853	33.620000	
0.048093	0.013717	2323182672834519929716736.000000	33.710000	
0.013178	0.013747	0.013804	33.760000	
0.013279	0.013856	0.013884	33.820000	
0.013244	0.013766	0.013876	33.860000	
0.013186	0.013784	0.013815	33.900000	
0.013117	0.013764	0.013788	33.970000	
0.013194	0.013827	0.013831	34.010000	
0.013201	0.013867	0.013899	34.050000	
0.013242	0.013859	0.013903	34.100000	
0.013244	0.013924	0.013849	34.140000	
29.919862	0.013970	0.013934	34.180000	
175.126976	0.013780	0.013818	34.220000	
0.013115	0.013746	0.013729	34.260000	
0.013176	0.013856	26989074103648299125833728.000000	34.350000	
22.179887	0.013838	0.013765	34.420000	
0.013124	0.013787	0.013758	34.480000	
39.082233	0.013788	0.013849	34.520000	
0.013130	0.013789	0.013768	34.590000	
0.013174	0.013819	0.013800	34.630000	
513213093771051.812500	0.013870	1005188178629713582882816.000000	34.670000	
0.013290	0.014000	0.013834	34.740000	
142.142225	0.013763	0.013864	34.800000	
3362917389.312051	0.013853	0.013846	34.840000	
0.013192	0.013806	0.013852	34.930000	
0.013118	0.013805	0.013730	34.970000	
0.013306	0.014027	0.013898	35.040000	
0.013184	0.013879	2668465040371125051195392.000000	35.120000	
0.013187	0.013823	0.013809	35.170000	
0.013204	0.013825	15652695821856509632970752.000000	35.210000	
0.013116	0.013739	0.013777	35.270000	
0.013148	0.013777	0.013742	35.310000	
0.013189	0.013810	0.013806	35.380000	
161.876728	0.013792	0.013782	35.420000	
0.013156	0.013800	25831400042705474295955456.000000	35.510000	
0.013071	0.013801	0.013717	35.550000	
0.013121	0.013905	0.013775	35.590000	
0.013072	0.013747	0.013721	35.630000	
0.013414	0.014094	0.013858	35.680000	
0.013049	0.013805	85179317066887040117768192.000000	35.720000	
0.013321	0.014124	0.014014	35.760000	
0.012996	0.013723	0.013679	35.850000	
0.013001	0.013758	0.013670	35.910000	
0.013084	0.013751	0.013699	35.960000	
0.012939	0.013748	0.013597	36.000000	
0.013046	0.013663	0.013715	36.050000	
0.013031	0.013863	0.013729	36.140000	
0.013087	0.013836	0.013773	36.180000	
0.013059	0.013751	0.013701	36.220000	
0.013042	0.013770	0.013719	36.300000	
215730781315562222097793024.000000	0.013793	0.013761	36.340000	
23567204.623332	0.013984	778349858723302407910981632.000000	36.410000	
0.013031	0.013669	0.013642	36.450000	
0.012974	0.013739	0.013680	36.490000	
0.012968	0.013678	0.013643	36.550000	
0.013221	0.013903	116087339966817383634436096.000000	36.600000	
149259989461562368662175744.000000	0.013671	0.013615	36.750000	
0.012986	0.013684	0.013683	36.880000	
0.013149	0.013863	926451002063853678747451392.000000	36.920000	
0.013015	0.013800	0.013703	36.970000	
0.013007	0.013687	0.013631	37.010000	
0.013086	0.013947	0.013723	37.080000	
19.091642	0.013730	0.013636	37.120000	
0.012972	0.013727	0.013571	37.170000	
0.013102	0.014069	229960149822975535793307648.000000	37.230000	
0.012997	0.013765	0.013652	37.270000	
0.012972	0.013775	0.013630	37.310000	
0.232395	0.013780	0.013624	37.490000	
0.013042	0.013838	0.013591	37.530000	
37.465069	0.013827	1017251669914815104850853888.000000	37.600000	
0.012961	0.013801	0.013555	37.660000	
0.013043	0.013821	0.013556	37.710000	
0.013024	0.013870	0.013602	37.750000	
0.129182	0.013863	0.013613	37.790000	
0.012980	0.013777	0.013575	37.830000	
48966239385412886671130624.000000	0.013933	0.013688	37.870000	
0.012988	0.013722	0.013616	37.920000	
361.950361	0.013858	0.013615	37.960000	
161.068779	0.013924	0.013664	38.000000	
290.458734	0.013866	0.013626	38.040000	
0.013010	0.013868	0.013650	38.090000	
0.012984	0.013782	0.013582	38.130000	
0.012964	0.013775	0.013571	38.190000	
0.013143	0.013996	0.013714	38.230000	
0.012986	0.013808	0.013610	38.280000	
0.044126	0.013921	0.013672	38.320000	
0.013465	0.013803	0.013636	38.360000	
0.013014	0.013757	0.013619	38.400000	
0.013021	0.013831	0.013641	38.470000	
0.013054	0.013837	0.013615	38.510000	
0.013002	0.013801	239970860555511838105665536.000000	38.600000	
0.013199	0.014075	0.013826	38.660000	
0.013074	0.013891	0.013701	38.700000	
155198130471990355759726592.000000	0.013855	0.013668	38.740000	
14183050.491837	0.013747	578323743563331036321415168.000000	38.790000	
3703854539594375928741888.000000	0.013803	0.013625	38.830000	
0.050217	0.013705	0.013684	38.870000	
2188361185734.255615	0.013869	0.013733	38.910000	
269125710.124844	0.013851	0.013642	38.950000	
0.013072	0.013993	0.013911	39.000000	
0.013210	0.013920	0.013705	39.060000	
0.013067	0.013767	0.013758	39.110000	
0.013022	0.013889	0.013653	39.170000	
0.012987	0.013772	0.013635	39.240000	
0.013060	0.013863	0.013611	39.280000	
0.957608	0.013930	0.013665	39.370000	
0.013033	0.013929	0.013628	39.410000	
0.012994	0.013797	0.013584	39.460000	
36911300448715222047260672.000000	0.013886	0.013632	39.500000	
20795246923025551286337536.000000	0.013903	97131211336175895405658112.000000	39.540000	
0.013009	0.013891	0.013768	39.580000	
0.012969	0.013828	940284547966647137399209984.000000	39.670000	
0.013124	0.013891	0.013689	39.710000	
1036147485282110866980864.000000	0.013825	0.013618	39.760000	
0.013047	0.013907	0.013677	39.800000	
0.013030	0.013869	0.013600	39.860000	
0.013077	0.013898	0.013637	39.900000	
6.051268	0.014007	0.013665	39.950000	
0.013122	0.013828	0.013696	40.020000	
0.013053	0.013898	0.013641	40.060000	
205888030458079067917778944.000000	0.013821	0.013641	40.100000	
53331384699877015552.000000	0.013813	0.013606	40.170000	
0.013053	0.013855	0.013629	40.230000	
0.012998	0.013870	0.013614	40.280000	
0.012996	0.013801	0.013601	40.320000	
0.013037	0.013950	0.013646	40.380000	
2742461154664224942718976.000000	0.013737	0.013615	40.420000	
0.012960	0.013759	0.013614	40.520000	
0.013025	0.013864	0.013610	40.580000	
173903238578400360837152768.000000	0.013973	0.013673	40.620000	
0.012991	0.013828	0.013577	40.660000	
11569022971038845359882240.000000	0.013816	46846168993716642634530816.000000	40.710000	
0.013091	0.013901	0.013665	40.770000	
0.013036	0.013815	116966935742844437927034880.000000	40.810000	
11.174255	0.013862	0.013613	40.850000	
0.012986	0.013806	0.013615	40.900000	
0.012968	0.013866	0.013620	40.940000	
6.957912	0.013767	0.013611	40.980000	
0.012979	0.013770	0.013589	41.020000	
0.013009	0.013920	0.013728	41.070000	
80500854072921724813312.000000	0.013866	294287967940204827812823040.000000	41.110000	
0.012919	0.013913	0.013642	41.150000	
0.012966	0.013776	0.013545	41.200000	
0.012988	0.013861	0.013607	41.300000	
0.012966	0.013699	0.013583	41.340000	
0.012940	0.013767	0.013551	41.380000	
0.012983	0.013851	0.013576	41.430000	
0.012924	0.013880	0.013604	41.470000	
0.012940	0.013777	0.013642	41.510000	
0.012892	0.013719	0.013600	41.580000	
41829889435740.742188	0.013769	0.013587	41.620000	
0.012947	0.013806	0.013609	41.670000	
0.012986	0.013716	0.013543	41.710000	
0.012956	0.013720	0.013592	41.750000	
0.013022	0.013940	0.013612	41.810000	
303.538094	0.013813	0.013600	41.860000	
