
Validation.MSE	Test.MSE	Train.MSE	Time
0.040203	0.043805	0.041536	0.020000	
0.036299	0.040020	0.036201	0.050000	
0.033786	0.038729	0.034386	0.080000	
0.030635	0.033206	0.030038	0.130000	
0.040903	0.040460	0.040168	0.190000	
0.031437	0.033537	0.031330	0.200000	
0.028543	0.030716	0.028448	0.240000	
0.026418	0.029801	0.025957	0.280000	
0.027882	0.029525	0.027803	0.300000	
0.029003	0.032224	0.030446	0.360000	
0.027440	0.030626	0.027906	0.450000	
0.029922	0.031520	0.029778	0.520000	
0.029633	0.029935	0.029543	0.550000	
0.027057	0.027687	0.027559	0.560000	
0.026230	0.027215	0.026981	0.620000	
0.024853	0.026521	112392590091508.437500	0.700000	
0.027744	0.027847	0.027595	0.850000	
0.026208	0.027048	0.026037	0.950000	
0.031334	0.032141	0.031265	1.040000	
0.031726	0.031545	0.030921	1.120000	
0.024448	0.025430	0.029780	1.140000	
0.024416	0.023748	0.023586	1.430000	
0.022047	0.022785	0.052775	1.720000	
0.071490	0.073448	0.074130	1.950000	
0.074889	0.077211	0.078473	1.980000	
0.065945	0.066889	0.068356	1.990000	
1232934562255.669434	0.073522	0.075012	2.020000	
133715293.833674	0.068782	133714230.477240	2.040000	
704554726429.365845	0.070812	0.073235	2.090000	
0.058935	0.059198	0.061298	2.110000	
0.054380	0.054889	0.052655	2.180000	
0.061093	0.060572	0.061785	2.200000	
478087327370.282654	0.063349	0.063430	2.290000	
0.063412	0.063670	0.064295	2.310000	
0.045032	0.045577	0.046352	2.350000	
1042002190056186.500000	0.039482	0.039195	2.370000	
25008788428716.914062	0.035135	0.033293	2.390000	
0.031803	0.035516	0.031850	2.460000	
22318687458680.902344	0.030138	0.027756	2.500000	
16874643383851.365234	0.036062	16543155185600.134766	2.590000	
5326250040634.275391	0.037690	5326207803949.925781	2.710000	
0.033140	0.037000	0.033341	2.720000	
96236.777563	0.035344	2120855334319203.750000	2.790000	
2927.776226	0.034556	1043695024944.286865	2.840000	
952.057475	0.036705	0.034451	2.890000	
0.035515	0.038149	0.035729	2.970000	
0.035144	0.038487	155548398459974.343750	3.020000	
1393521212648244.250000	0.035894	0.039128	3.040000	
3497779315748.963379	0.027487	0.028437	3.140000	
0.027284	0.027370	0.028555	3.240000	
0.026937	0.026853	0.027885	3.300000	
0.159077	0.047197	0.161341	3.340000	
0.031452	0.033921	0.031134	3.360000	
0.034581	0.034550	0.033995	3.410000	
0.031044	0.027028	0.030305	3.500000	
0.032455	0.027468	0.036813	3.710000	
0.029931	0.025534	0.028189	3.830000	
0.025237	0.025712	0.028212	3.990000	
0.028518	0.026890	0.030062	4.080000	
5432.425501	0.025500	0.028695	4.250000	
0.028082	0.026194	0.028135	4.400000	
0.026664	0.025632	0.027229	4.640000	
0.029817	0.026020	0.029257	4.890000	
0.026059	0.026200	4946.677597	5.160000	
0.026024	0.026135	0.027259	5.240000	
0.029080	0.027349	0.030656	5.390000	
0.031995	0.027465	58.003441	5.530000	
0.028752	0.026497	0.028829	5.720000	
0.026638	0.024910	0.025956	5.880000	
0.026967	0.024493	0.026198	6.130000	
0.024690	0.024624	0.026819	6.360000	
0.025989	0.025517	0.024709	6.640000	
0.030691	0.026132	222876.103240	6.750000	
115784.384968	0.026639	0.029617	6.990000	
0.032717	0.027726	0.030140	7.180000	
0.027001	0.028319	0.026512	7.230000	
0.038731	0.053090	0.050984	7.300000	
0.042158	0.055567	0.147019	7.320000	
97.432717	0.038013	0.033441	7.340000	
0.083435	0.036230	0.031534	7.360000	
0.030144	0.029156	0.032279	7.380000	
0.028179	0.027113	3.989411	7.500000	
0.028733	0.027240	0.030124	7.530000	
0.029967	0.028476	0.031156	7.600000	
0.032458	0.027791	0.031405	7.660000	
0.031306	0.027127	0.030092	7.810000	
0.030022	0.030356	0.032156	7.850000	
0.891105	0.028056	0.031067	7.990000	
0.031927	0.030607	0.033058	8.040000	
0.034042	0.031073	0.033698	8.150000	
0.032567	0.031507	0.033997	8.200000	
0.030469	0.034649	0.031453	8.240000	
0.031930	0.032579	0.032325	8.260000	
0.034469	0.031066	0.032468	8.280000	
0.269559	0.031146	0.031684	8.400000	
0.033258	0.030935	0.033813	8.420000	
0.515782	0.033373	0.181881	8.500000	
0.541863	0.033082	0.542449	9.010000	
0.661975	0.033828	0.180848	9.530000	
0.049998	0.037919	0.046222	9.580000	
0.039185	0.037303	25.274380	9.710000	
0.034747	0.037211	0.038334	9.740000	
0.039012	0.039370	0.038910	9.820000	
0.032622	0.038082	0.034067	9.850000	
0.037126	0.036088	0.037733	9.880000	
0.033034	0.033673	0.034328	9.980000	
0.033297	0.032382	0.033505	10.000000	
0.034913	0.033518	0.033983	10.140000	
228955.535816	0.034694	0.035174	10.180000	
0.036844	0.039970	0.041563	10.230000	
0.034133	0.036094	0.037840	10.260000	
0.031648	0.027225	0.031062	10.280000	
4599838.634697	0.029013	0.031691	10.380000	
0.038386	0.038984	0.040085	10.400000	
0.349694	0.028177	0.029438	10.480000	
139.244006	0.028061	0.029833	10.500000	
3.033037	0.028793	0.042083	10.640000	
47285.455422	0.029076	47245.602860	10.710000	
0.026674	0.025415	0.039029	10.830000	
0.030892	0.026483	0.028869	11.060000	
684385.488879	0.028019	683056.570506	11.130000	
0.038641	0.028290	0.027643	11.180000	
1439.260507	0.029333	2498.587507	11.670000	
0.036966	0.029183	0.029945	11.970000	
65.725924	0.030509	0.029365	12.430000	
34.713961	0.029773	0.033576	12.760000	
0.026099	0.027426	1.070255	12.910000	
0.030393	0.027675	0.029713	12.960000	
0.034668	0.027494	0.034041	13.040000	
3.904677	0.029241	117.461624	13.360000	
0.029309	0.028819	0.039391	13.520000	
0.039920	0.039106	0.049042	13.830000	
0.029920	0.038349	0.035041	13.860000	
0.183077	0.032301	0.035399	13.890000	
0.021082	0.030616	0.022371	13.970000	
1.210692	0.030934	0.027667	14.040000	
0.053347	0.030002	0.055028	14.070000	
0.033030	0.027646	0.029113	14.200000	
0.050728	0.024844	0.027983	14.470000	
15.782286	0.026908	0.056167	14.620000	
0.029068	0.027127	0.029373	14.740000	
0.059493	0.033022	0.048492	15.000000	
0.034901	0.029604	0.033231	15.030000	
0.041299	0.046724	0.032721	15.050000	
0.053650	0.038420	0.053327	15.090000	
37.790668	0.027126	0.030014	15.120000	
0.045712	0.025694	0.031964	15.160000	
0.051777	0.025275	0.027919	15.260000	
0.058717	0.041190	0.036617	15.390000	
0.028194	0.030823	0.030289	15.410000	
1389.174506	0.030773	0.030481	15.460000	
0.033123	0.036408	0.047105	15.490000	
0.026524	0.030030	0.024982	15.510000	
0.025966	0.030781	0.026602	15.530000	
0.034197	0.030406	0.036741	15.620000	
0.042151	0.030635	0.031871	15.630000	
0.031101	0.026564	0.027110	15.670000	
0.028705	0.025124	0.029284	15.720000	
0.048792	0.026005	0.032106	15.840000	
492.285136	0.024504	0.028503	15.980000	
511.636592	0.024567	0.027213	16.110000	
0.024932	0.024821	0.033670	16.200000	
0.033920	0.024583	0.025206	16.280000	
0.044917	0.026202	0.031221	16.350000	
0.036889	0.024712	0.028795	16.620000	
0.029680	0.024480	0.027134	16.750000	
0.024213	0.024889	0.026234	16.950000	
0.028167	0.025878	0.029688	17.020000	
0.023702	0.029353	0.032002	17.150000	
0.024927	0.026098	0.027099	17.170000	
0.028707	0.025769	0.030042	17.240000	
0.026542	0.024990	0.027960	17.280000	
3.276997	0.026416	0.037252	17.490000	
0.025477	0.026435	0.025876	17.600000	
0.083553	0.024088	0.025253	17.670000	
4.288837	0.025251	0.029289	17.870000	
0.025182	0.024101	0.030543	18.140000	
0.333449	0.026042	0.033594	18.330000	
0.026811	0.025990	0.040239	18.340000	
0.034146	0.029323	0.023892	18.690000	
0.024600	0.029200	0.032795	18.730000	
0.028912	0.030841	0.032525	18.750000	
0.026717	0.028241	0.034260	18.830000	
0.037764	0.028746	0.040918	18.850000	
3.115282	0.028466	0.031178	18.870000	
32.973974	0.027903	0.030937	18.890000	
0.067679	0.027299	0.029653	18.920000	
0.052654	0.029113	0.032583	19.050000	
0.026340	0.026961	0.029024	19.110000	
0.592054	0.028829	0.036233	19.150000	
0.026186	0.026023	0.028864	19.170000	
0.029266	0.027059	0.030537	19.190000	
0.033764	0.029659	0.038212	19.230000	
298.452361	0.028567	0.029980	19.260000	
0.079558	0.027367	0.031947	19.300000	
0.030031	0.027392	0.030670	19.390000	
0.033406	0.026637	0.029619	19.440000	
0.095981	0.025938	0.029188	19.470000	
0.026820	0.027691	0.031454	19.510000	
0.024658	0.031737	0.037361	19.550000	
0.028661	0.031354	0.026335	19.560000	
0.027549	0.030978	0.029227	19.610000	
0.032453	0.028097	0.029809	19.630000	
0.034997	0.027533	0.030369	19.650000	
0.025852	0.028321	0.030223	19.690000	
0.053973	0.025651	0.030815	19.700000	
0.028233	0.025191	1.273528	19.750000	
0.024954	0.024969	0.028222	19.790000	
0.024302	0.024810	0.027422	19.830000	
233.282812	0.025564	0.049965	19.900000	
3.334348	0.026909	0.030173	19.920000	
77.887682	0.027144	113.480596	19.950000	
0.027230	0.027100	0.025428	20.000000	
0.026220	0.025942	0.028799	20.040000	
0.024449	0.024469	0.029332	20.070000	
0.025721	0.024466	0.029062	20.110000	
0.026070	0.025070	0.026836	20.140000	
49.920731	0.025713	0.027988	20.170000	
0.873223	0.025998	0.026907	20.240000	
0.105948	0.025068	0.026352	20.280000	
0.279234	0.025122	0.025501	20.320000	
0.025519	0.024519	19.091951	20.380000	
0.025222	0.025001	0.048761	20.430000	
0.026712	0.025097	0.027833	20.480000	
0.026209	0.025450	0.027810	20.510000	
0.027312	0.024402	0.027806	20.540000	
0.026179	0.024919	0.028123	20.550000	
0.026128	0.026087	0.027750	20.580000	
0.023731	0.023955	0.025671	20.600000	
0.025740	0.025417	0.026488	20.630000	
0.039019	0.025169	0.026567	20.640000	
119.175797	0.027585	0.033286	20.690000	
8355.044763	0.029557	0.032256	20.790000	
0.032511	0.025353	0.034873	20.820000	
0.029866	0.024153	0.029294	20.840000	
0.025084	0.024107	0.025124	20.920000	
43.225935	0.024435	0.025617	20.970000	
0.025312	0.023476	0.025313	21.000000	
0.026616	0.024998	0.026582	21.040000	
0.025265	0.024623	0.027981	21.090000	
0.025415	0.026832	0.035249	21.180000	
4050.670499	0.022881	0.023141	21.190000	
0.036250	0.022602	0.025036	21.250000	
0.028961	0.022477	543.085963	21.290000	
0.026851	0.024938	0.027237	21.450000	
0.028879	0.024119	0.023052	21.510000	
0.027723	0.024045	0.049397	21.610000	
0.025597	0.025101	0.024007	21.660000	
0.026065	0.025240	0.032071	21.690000	
0.029795	0.027004	0.027052	21.710000	
0.023550	0.028807	0.110250	21.740000	
0.057960	0.024677	0.024362	21.750000	
7.399050	0.025978	0.023754	21.830000	
0.028168	0.026542	0.024731	21.870000	
0.027099	0.029628	0.024774	21.910000	
0.034721	0.027621	6.723319	21.930000	
0.029445	0.026470	0.026070	21.950000	
169.110687	0.024351	0.029293	22.010000	
0.042910	0.029273	0.028476	22.020000	
0.088595	0.027600	0.029570	22.080000	
0.024500	0.025154	0.025953	22.120000	
0.026733	0.023626	0.025531	22.140000	
34.518707	0.023241	39782.100287	22.200000	
0.028012	0.026153	0.071149	22.230000	
3009.539850	0.023177	0.027979	22.250000	
5408.007391	0.023706	0.025324	22.450000	
0.037365	0.024434	0.028821	22.580000	
0.031793	0.023825	0.034568	22.620000	
0.022641	0.023831	0.025849	22.710000	
0.025600	0.026425	0.036861	22.770000	
0.029499	0.027356	0.037213	22.810000	
5549.149888	0.029156	0.025361	22.840000	
0.361578	0.026296	0.047744	22.870000	
0.049115	0.027323	0.025288	22.960000	
0.022768	0.026345	0.023824	23.090000	
15470.562885	0.024636	35141.575209	23.210000	
0.115300	0.025822	0.033833	23.460000	
0.024737	0.025198	0.023664	23.500000	
0.972915	0.026784	0.048719	23.530000	
0.027484	0.026967	0.031696	23.690000	
0.023714	0.026798	0.033219	23.900000	
42.450035	0.026827	0.024841	23.970000	
37486.658686	0.026250	0.025166	24.060000	
0.076839	0.026712	0.023672	24.070000	
44287.226243	0.024186	0.023534	24.100000	
0.099966	0.028552	0.027222	24.130000	
0.099018	0.026697	0.025976	24.140000	
0.026412	0.025707	0.028879	24.180000	
471784.896859	0.024820	0.029099	24.210000	
48209.186833	0.024746	0.024027	24.270000	
177431.986742	0.025586	177344.368173	24.320000	
0.031477	0.025991	0.030851	24.580000	
0.027040	0.025934	0.023562	24.610000	
0.027554	0.028867	0.028282	24.720000	
0.122425	0.027265	0.034907	24.740000	
0.025471	0.024802	0.030671	24.760000	
8810.046878	0.024653	0.026502	24.800000	
0.285379	0.027116	0.028931	25.010000	
0.029247	0.031978	0.028704	25.040000	
390353.187209	0.026771	390060.022051	25.060000	
550487.335783	0.025115	550394.236717	25.090000	
0.025372	0.024694	319936.691303	25.160000	
0.130770	0.026287	0.134189	25.260000	
0.027217	0.025748	0.027072	25.300000	
0.027312	0.026678	7361.967152	25.340000	
0.026324	0.026212	16098.763189	25.370000	
725324.653863	0.024359	0.026875	25.390000	
0.026860	0.025464	0.027291	25.420000	
0.026384	0.024606	0.026112	25.470000	
0.027729	0.025114	0.027071	25.490000	
65.884285	0.024996	0.028096	25.520000	
0.028469	0.026908	0.028456	25.540000	
0.026517	0.025304	0.027135	25.570000	
364644.121963	0.025464	364748.872384	25.590000	
0.027599	0.024533	417322.538769	25.630000	
0.029536	0.026978	0.026965	25.660000	
0.027495	0.025559	0.030647	25.690000	
0.031892	0.024987	0.028122	25.710000	
408110.714317	0.025358	407955.112392	25.810000	
0.026946	0.025191	0.026827	25.860000	
0.065179	0.025919	0.026922	25.940000	
0.027526	0.025260	568102.680540	25.950000	
0.026773	0.026821	0.027090	26.000000	
0.026717	0.025193	375591.712461	26.100000	
0.074047	0.025298	0.026205	26.120000	
618839.324469	0.025204	0.030437	26.180000	
15980.619578	0.030097	15974.797624	26.220000	
0.793480	0.031112	0.030153	26.250000	
814032.822139	0.029197	0.065244	26.280000	
0.028213	0.025953	0.027869	26.320000	
0.037886	0.026945	0.027364	26.340000	
640065.372089	0.024976	639541.901628	26.380000	
0.027387	0.025261	0.027227	26.460000	
0.027942	0.025172	0.027473	26.500000	
35.062281	0.024975	57732.004188	26.520000	
0.058469	0.024275	69.326511	26.550000	
0.029307	0.025917	3749.391906	26.610000	
0.027135	0.025438	402225.904639	26.650000	
0.031168	0.026450	0.027232	26.710000	
0.026731	0.025177	530400.972046	26.790000	
0.027206	0.025128	0.026857	26.830000	
0.026870	0.025614	0.026726	26.890000	
0.027901	0.025153	18792.898670	26.900000	
396166.666014	0.025894	0.031691	26.950000	
0.030099	0.025368	0.037259	27.040000	
877606.600748	0.025102	0.029589	27.130000	
0.028747	0.026564	0.028619	27.150000	
0.028468	0.024799	80.907774	27.200000	
669.042518	0.025966	0.026993	27.220000	
652815.254994	0.025411	0.345133	27.310000	
172932.955664	0.025043	172815.041557	27.330000	
0.027504	0.024493	285920.032104	27.410000	
0.026522	0.025196	347.424516	27.430000	
91518.754852	0.026612	0.023758	27.450000	
0.027229	0.024698	0.026688	27.470000	
0.553140	0.024278	0.686902	27.510000	
294542.381680	0.025360	0.025114	27.550000	
0.761504	0.024201	464075.322211	27.580000	
0.353662	0.024436	0.029868	27.680000	
0.028522	0.025460	0.025141	27.800000	
140.817457	0.024679	314068.163387	27.840000	
0.026326	0.024723	242028.275592	27.910000	
0.891775	0.024255	0.026088	28.030000	
406638.109557	0.024861	0.024111	28.200000	
0.027782	0.026463	0.025158	28.280000	
123.597966	0.025763	0.025082	28.310000	
330083.739675	0.024665	329154.729670	28.330000	
0.085855	0.024496	527845.820895	28.400000	
0.027534	0.025535	0.025024	28.450000	
338.426756	0.024610	6755.445996	28.540000	
84835.480192	0.024824	0.024166	28.610000	
0.029515	0.024446	144.987465	28.670000	
0.030495	0.109704	0.112097	28.700000	
713961.931481	0.026849	1.769662	28.720000	
0.025869	0.024565	0.026564	28.740000	
0.026434	0.025257	0.027261	28.850000	
200.856787	0.025812	146999.277209	28.900000	
0.031986	0.024664	0.026312	28.920000	
0.028146	0.025329	0.026937	29.030000	
794.117662	0.025640	0.027396	29.060000	
0.027306	0.024928	5311.232394	29.140000	
57921.531713	0.024357	0.026699	29.220000	
45547.090551	0.024327	0.023844	29.360000	
130467.857089	0.024789	35825.254481	29.450000	
0.028385	0.025598	0.026906	29.590000	
265.264232	0.024514	37829.690575	29.640000	
1.920914	0.025486	38.840158	29.680000	
0.027684	0.027346	0.038072	29.730000	
0.027278	0.026235	0.031371	29.760000	
0.026257	0.025477	0.024481	29.780000	
0.026117	0.024971	0.024205	29.850000	
0.024906	0.025430	13605.273997	29.890000	
0.024832	0.024444	0.055750	29.910000	
0.024486	0.024517	411529.150891	29.930000	
0.024556	0.023538	0.023123	29.940000	
9189.852057	0.023815	299274.010702	29.960000	
7107.661114	0.023820	0.023496	30.010000	
0.024345	0.023811	0.023288	30.030000	
3116.684979	0.024162	0.023757	30.050000	
0.027815	0.024542	0.023559	30.110000	
0.025728	0.026307	6.970860	30.140000	
0.024817	0.024565	434893.158572	30.180000	
0.025882	0.023825	0.026349	30.210000	
566384.956622	0.023881	0.023527	30.250000	
419834.047280	0.023850	0.026172	30.280000	
0.024869	0.023888	0.030993	30.320000	
7912.640412	0.023462	400215.225460	30.330000	
0.025299	0.024779	0.023464	30.370000	
63556.938400	0.023946	0.023801	30.420000	
163286.297321	0.023498	4408.420571	30.450000	
0.025210	0.024726	0.024022	30.500000	
526.227790	0.024991	0.352080	30.520000	
0.966137	0.023826	0.060994	30.540000	
0.815828	0.024122	0.023101	30.570000	
28764.550862	0.023538	0.023192	30.600000	
0.026110	0.025726	0.030436	30.620000	
0.026606	0.025502	0.069892	30.660000	
0.024910	0.024330	66.917190	30.670000	
0.027687	0.024303	0.024157	30.720000	
0.025109	0.024561	0.024178	30.770000	
0.024971	0.024255	0.024506	30.790000	
46366.009829	0.023873	224743.176328	30.880000	
0.025112	0.024201	0.023044	30.950000	
14.295495	0.024148	0.024112	30.970000	
0.024272	0.023899	0.024609	31.020000	
0.024046	0.023332	0.023401	31.100000	
12.162819	0.024627	0.024200	31.130000	
0.027138	0.024654	0.024631	31.140000	
261.168135	0.023717	0.023297	31.170000	
0.029027	0.024739	0.022962	31.190000	
119434.226551	0.023714	0.023187	31.210000	
200.831116	0.023405	0.023316	31.370000	
0.024613	0.023577	0.023339	31.400000	
0.255193	0.024427	0.022712	31.460000	
0.034753	0.024581	0.052168	31.510000	
0.025645	0.025595	0.026594	31.530000	
0.026351	0.025579	0.041778	31.550000	
0.031093	0.025144	0.028695	31.570000	
0.025468	0.024516	0.023703	31.580000	
0.209132	0.024102	27433.244310	31.630000	
11334.062596	0.023436	6268.804640	31.650000	
0.035792	0.024502	0.025265	31.710000	
0.102626	0.023896	0.023812	31.730000	
0.026180	0.024010	0.023251	31.810000	
0.024883	0.023760	0.024191	31.820000	
7465.191572	0.023816	0.068854	31.840000	
0.024683	0.023828	0.023301	31.880000	
404484.370280	0.023725	0.040734	31.910000	
12.017100	0.024254	0.024114	31.930000	
11.922478	0.024551	0.024192	31.950000	
0.025286	0.024575	0.023981	31.970000	
0.024631	0.023567	0.024449	31.990000	
0.024034	0.023813	361.395484	32.040000	
0.024308	0.023712	0.023453	32.050000	
0.361815	0.025005	0.026118	32.070000	
3700.236462	0.026466	0.023053	32.100000	
0.024269	0.024104	485.761118	32.110000	
15151.597192	0.023629	242918.636185	32.130000	
0.024278	0.023648	248441.734538	32.260000	
50867.174642	0.024196	0.023466	32.310000	
0.025006	0.023821	17415.372785	32.340000	
0.025038	0.024295	0.024586	32.400000	
0.024062	0.023851	252.005449	32.430000	
0.024414	0.023669	0.023416	32.450000	
39803.978052	0.024087	0.086151	32.490000	
9.568819	0.024500	0.024209	32.510000	
200.816423	0.024209	0.023169	32.550000	
0.025750	0.024356	0.024198	32.620000	
0.787468	0.025022	0.024272	32.640000	
0.025961	0.023764	0.035677	32.650000	
0.940016	0.023688	0.025561	32.700000	
11.517670	0.023853	0.023956	32.750000	
0.026180	0.025951	0.026601	32.770000	
7.007774	0.024384	0.023005	32.790000	
42772.582624	0.024268	0.023443	32.810000	
7719.147227	0.023837	0.023349	32.830000	
0.033428	0.024303	0.037967	32.850000	
0.025280	0.024704	0.024551	32.890000	
0.024955	0.024326	0.067884	32.920000	
0.363955	0.024745	4.780657	32.940000	
12290.127868	0.023899	33457.752590	32.980000	
10751.197851	0.023823	0.023557	33.010000	
0.025277	0.024187	0.024149	33.050000	
0.029236	0.024379	0.024378	33.070000	
0.026223	0.024348	0.024131	33.100000	
0.025976	0.025433	0.068205	33.170000	
0.030912	0.025384	0.025047	33.240000	
0.025674	0.024658	0.124717	33.280000	
0.095946	0.024080	0.024718	33.290000	
0.025546	0.024193	0.025360	33.320000	
0.025635	0.024500	0.029102	33.340000	
0.179287	0.023748	6926.895451	33.370000	
0.028458	0.023705	0.024653	33.430000	
343.395091	0.023626	0.023314	33.450000	
0.270313	0.023706	20898.461352	33.460000	
0.402777	0.023549	13322.336034	33.480000	
0.344629	0.023408	100003.183989	33.550000	
0.041884	0.023712	0.023493	33.570000	
0.039014	0.025242	0.033355	33.640000	
0.024755	0.024235	20.054121	33.670000	
