
Validation.MSE	Test.MSE	Train.MSE	Time
0.063209	0.055850	0.059457	0.010000	
0.067224	0.057206	0.059690	0.020000	
0.075232	0.060864	0.065897	0.040000	
0.071037	0.058010	0.061333	0.070000	
0.068867	0.057218	929416987.739334	0.080000	
201821.416792	0.056102	205346.261062	0.110000	
0.063674	0.054601	36349891559.128044	0.120000	
585590376.789844	0.057364	585109876.757165	0.130000	
71659456.068009	0.057220	0.061482	0.190000	
0.063481	0.056490	0.059777	0.230000	
0.070971	0.058394	5334493.902074	0.250000	
0.068997	0.057958	0.060909	0.280000	
0.061949	0.055836	0.060805	0.350000	
0.068252	0.057553	5094329.141778	0.450000	
0.061032	0.056056	0.059804	0.480000	
0.065277	0.057007	0.062583	0.510000	
13994385632.454485	0.058030	0.062877	0.520000	
761138021.580111	0.056910	1028802191.028250	0.550000	
0.062920	0.056580	0.059643	0.580000	
58546533657.585808	0.058082	61332135746.642326	0.630000	
0.066926	0.057836	9162498935909272.000000	0.650000	
2204301.044004	0.058287	2211063.979103	0.690000	
3841035306.310237	0.058166	0.062109	0.730000	
0.061860	0.057063	0.063504	0.760000	
0.063260	0.057077	2768931.776465	0.790000	
0.082713	0.059076	0.070180	0.820000	
0.064674	0.057461	0.060522	0.830000	
0.065389	0.054652	0.055531	0.850000	
43.100645	0.064235	0.066680	0.930000	
0.079110	0.070160	0.076889	0.950000	
0.076937	0.062767	2396105209439.132324	0.970000	
3584358760.110043	0.058372	0.062724	0.990000	
116447333.688107	0.064005	116447879.958419	1.010000	
0.079212	0.063536	0.069159	1.030000	
0.080866	0.063548	0.069605	1.060000	
0.079214	0.063494	0.069951	1.090000	
0.082152	0.063624	0.066430	1.110000	
0.111347	0.064067	0.070835	1.130000	
0.079374	0.063507	0.070180	1.140000	
0.080638	0.063935	0.069818	1.170000	
0.080529	0.063658	0.070117	1.200000	
104.103263	0.063522	0.069891	1.210000	
0.078838	0.063443	0.069914	1.230000	
0.084130	0.065750	0.085495	1.250000	
0.150739	0.063087	0.069210	1.270000	
0.078890	0.062169	0.069343	1.290000	
0.077847	0.061241	0.070132	1.310000	
0.081100	0.063975	0.069832	1.330000	
0.077045	0.061819	0.075808	1.350000	
0.083179	0.065357	0.068517	1.360000	
0.079266	0.063740	0.069469	1.390000	
0.081524	0.064248	0.069864	1.400000	
0.079333	0.064089	0.070219	1.410000	
0.084376	0.063669	0.070737	1.430000	
0.093012	0.068652	0.069558	1.450000	
0.082986	0.066389	0.069117	1.460000	
0.098619	0.068451	0.069837	1.480000	
0.077078	0.064698	0.067250	1.490000	
0.080112	0.063582	0.069657	1.510000	
0.079146	0.063579	0.070113	1.530000	
0.081033	0.062155	0.068839	1.560000	
0.092093	0.063431	0.069947	1.590000	
63531657.840093	0.056282	0.060450	1.600000	
173321.904593	0.057144	0.060249	1.660000	
0.064887	0.058749	0.061695	1.670000	
121462145.068231	0.059316	0.062048	1.710000	
352371838.821531	0.058020	0.062177	1.740000	
0.079321	0.063613	0.068924	1.750000	
0.079012	0.066775	0.069897	1.770000	
5148557257.768185	0.057398	0.062328	1.790000	
27568053344.929554	0.056645	0.061988	1.890000	
0.063288	0.056636	137466115882.516418	1.920000	
0.064016	0.057323	0.061331	1.950000	
0.065022	0.057483	0.061461	2.000000	
0.064335	0.057756	0.061601	2.020000	
0.067578	0.058564	0.062490	2.060000	
805099238787.274414	0.056841	0.061457	2.080000	
0.061820	0.056361	0.061864	2.110000	
0.065166	0.057050	0.062656	2.140000	
0.064390	0.057026	0.062873	2.200000	
0.065090	0.057963	0.062693	2.240000	
0.066162	0.058089	4101085604339.579590	2.260000	
1548800.398342	0.057978	0.062479	2.290000	
0.072951	0.059870	0.063492	2.310000	
0.070531	0.059222	70055331.675310	2.320000	
0.068726	0.057435	0.061926	2.340000	
0.079003	0.063503	0.070788	2.390000	
34442927.820970	0.062204	26612291.355192	2.410000	
699109208.719487	0.059807	10717.189197	2.420000	
26498855673.547916	0.060130	0.063155	2.490000	
0.068137	0.057944	0.063034	2.510000	
0.069115	0.058777	54135642.327446	2.530000	
0.068270	0.059093	0.063600	2.560000	
0.070341	0.057888	0.062878	2.590000	
22970519.801535	0.058105	152767271.321869	2.620000	
0.064161	0.056816	0.062415	2.630000	
0.071245	0.059530	0.063879	2.650000	
1206981500.095914	0.057959	0.062324	2.660000	
0.078983	0.064062	0.070002	2.690000	
0.069546	0.058850	0.062548	2.730000	
0.071715	0.057622	0.062068	2.740000	
0.067484	0.057290	0.062316	2.780000	
0.068968	0.057092	0.062120	2.800000	
0.068618	0.057210	0.061995	2.820000	
82464.546043	0.057040	17788930407.616814	2.830000	
0.069029	0.058394	0.062468	2.860000	
0.076031	0.057790	0.062621	2.900000	
0.068906	0.057823	0.062584	2.910000	
0.077000	0.058214	0.063048	3.000000	
0.078821	0.062263	0.070341	3.030000	
0.088498	0.062871	0.069688	3.040000	
0.099470	0.064681	0.066987	3.070000	
0.085774	0.064114	0.076283	3.080000	
0.083808	0.060601	0.073214	3.100000	
0.084093	0.066735	0.071506	3.120000	
0.080754	0.063997	0.072094	3.130000	
0.080781	0.065135	0.072005	3.150000	
0.081807	0.064044	0.069220	3.160000	
0.080217	0.063394	0.068546	3.180000	
0.081330	0.063803	0.069236	3.200000	
0.080482	0.064885	0.069452	3.210000	
0.081309	0.063827	0.068605	3.230000	
0.079030	0.065264	0.068150	3.240000	
0.079840	0.063345	0.070712	3.270000	
0.079830	0.063940	0.068621	3.280000	
0.080908	0.065714	0.070454	3.300000	
0.077945	0.062953	0.070976	3.320000	
0.078055	0.064888	0.070171	3.340000	
0.083191	0.064665	0.072003	3.360000	
0.076303	0.062776	0.073027	3.370000	
0.081565	0.063420	0.068849	3.390000	
0.077421	0.064803	0.068517	3.400000	
0.084078	0.063337	0.068196	3.420000	
18169.352291	0.063070	0.067338	3.440000	
0.076546	0.062943	0.068276	3.460000	
0.079818	0.064756	0.070235	3.480000	
0.078411	0.063213	0.070001	3.510000	
0.068386	0.058133	100412403.167100	3.520000	
0.107207	0.059985	0.079473	3.550000	
0.076862	0.064595	0.069958	3.570000	
0.084474	0.068100	0.071068	3.610000	
0.082605	0.067040	0.068658	3.640000	
0.081348	0.064835	0.077073	3.650000	
0.071789	0.064915	0.068086	3.680000	
0.085597	0.062096	0.069269	3.690000	
0.081866	0.067959	0.071908	3.710000	
0.080266	0.066303	0.069994	3.730000	
0.078907	0.063060	0.072005	3.740000	
0.078815	0.064278	0.069629	3.760000	
0.580404	0.058995	0.058003	3.780000	
2.344508	0.059651	0.058356	3.800000	
0.362528	0.058906	8893260762321304576.000000	3.830000	
1369893408058893139968.000000	0.058623	0.058176	3.840000	
1.181112	0.058995	0.058382	3.860000	
0.085389	0.063435	0.069841	3.890000	
0.083667	0.063584	0.068319	3.910000	
0.076583	0.066556	0.072557	3.960000	
0.078008	0.064791	0.071146	3.970000	
0.079630	0.064113	0.071988	3.990000	
0.080295	0.063849	0.070846	4.010000	
0.078536	0.058132	0.088235	4.020000	
0.081169	0.064081	0.070333	4.040000	
0.077875	0.065868	0.068560	4.060000	
0.081814	0.063105	0.070062	4.070000	
0.079819	0.063128	0.070057	4.100000	
0.080265	0.065314	0.071191	4.110000	
0.079773	0.063867	0.069534	4.140000	
0.079590	0.063688	0.069123	4.150000	
0.079386	0.063332	0.069894	4.170000	
0.082046	0.065093	0.070132	4.180000	
0.081719	0.065272	0.070135	4.200000	
0.077688	0.064085	0.069444	4.220000	
0.088261	0.065096	0.076452	4.230000	
0.079090	0.064295	0.070257	4.250000	
0.079919	0.063591	0.069789	4.260000	
0.076260	0.064844	0.067569	4.280000	
0.079984	0.063360	0.070211	4.300000	
0.086418	0.064744	0.070106	4.310000	
0.083247	0.065474	0.069618	4.330000	
0.079331	0.064080	0.070333	4.350000	
0.080092	0.063081	0.068503	4.370000	
0.078414	0.063032	0.068799	4.380000	
0.078250	0.063632	0.070143	4.400000	
0.080381	0.064626	0.069622	4.410000	
0.074015	0.064080	0.069568	4.430000	
0.079723	0.063689	0.070200	4.450000	
0.079541	0.064224	0.069632	4.480000	
0.079366	0.064342	0.070435	4.500000	
0.078424	0.063514	0.069972	4.520000	
0.079521	0.063960	0.070068	4.530000	
0.079208	0.062741	0.070090	4.560000	
0.079823	0.063443	0.070342	4.590000	
0.079198	0.063245	0.069880	4.610000	
0.079399	0.063459	0.070006	4.630000	
41209.886983	0.064946	141917.348165	4.650000	
0.084849	0.064687	0.069497	4.670000	
0.080837	0.063685	0.069586	4.680000	
0.079153	0.064310	0.069975	4.700000	
0.079646	0.063615	0.069872	4.710000	
0.078962	0.063359	0.070855	4.730000	
0.079491	0.063958	0.069945	4.750000	
0.079208	0.062916	0.070292	4.790000	
0.079274	0.063473	0.070041	4.820000	
0.078916	0.065275	0.070196	4.840000	
0.081099	0.065080	0.070025	4.860000	
785993.598706	0.061929	275888.894756	4.870000	
0.081492	0.067887	0.073083	4.890000	
0.072548	0.061379	0.067200	4.910000	
0.079684	0.063717	0.070517	4.930000	
0.074998	0.061898	0.067340	4.950000	
0.079452	0.063632	0.070126	4.980000	
0.079360	0.063846	0.070815	5.000000	
0.077384	0.066156	0.071576	5.010000	
0.078718	0.068574	0.069958	5.030000	
0.079176	0.063376	0.070012	5.050000	
0.080978	0.068573	0.069966	5.070000	
0.080028	0.064406	0.071029	5.090000	
0.080222	0.064449	0.070964	5.100000	
0.076930	0.064043	0.071872	5.120000	
0.078201	0.065008	0.070715	5.130000	
0.078806	0.064853	0.071119	5.160000	
0.079992	0.063564	0.069914	5.170000	
0.079521	0.063674	0.070502	5.200000	
0.081309	0.064306	0.070134	5.240000	
0.080422	0.063746	0.069861	5.260000	
0.078648	0.065691	0.069775	5.280000	
0.081337	0.065558	0.071322	5.300000	
0.082014	0.064229	0.070027	5.320000	
0.079489	0.063785	0.070531	5.340000	
0.087603	0.065189	0.075026	5.360000	
0.079028	0.063440	0.069965	5.380000	
0.079658	0.063837	0.070456	5.400000	
0.079762	0.064758	0.070039	5.420000	
0.080169	0.064212	0.069986	5.430000	
0.078996	0.063819	0.070395	5.460000	
0.078646	0.063906	0.069512	5.490000	
0.092594	0.065871	0.073427	5.530000	
0.078713	0.063656	0.071614	5.540000	
0.082982	0.064650	0.071706	5.560000	
0.079093	0.063545	0.070277	5.580000	
0.078792	0.063410	0.069648	5.610000	
0.174960	0.063239	0.112455	5.640000	
0.077631	0.064206	0.070669	5.650000	
0.100672	0.064666	0.070925	5.680000	
0.083188	0.066634	0.069061	5.690000	
0.077928	0.065970	0.070236	5.730000	
0.089861	0.069418	0.069747	5.740000	
0.078357	0.066470	0.072302	5.760000	
0.078586	0.064408	0.070212	5.780000	
0.082911	0.064773	0.072865	5.790000	
0.080134	0.063155	0.069034	5.820000	
0.078862	0.063676	0.069911	5.830000	
0.083778	0.066777	0.070300	5.850000	
0.082437	0.067954	0.076731	5.860000	
0.082116	0.067976	0.075573	5.890000	
0.077907	0.063740	0.070379	5.900000	
0.083628	0.063529	0.070786	5.940000	
0.086423	0.064945	0.086700	5.960000	
0.082488	0.072869	0.078845	5.980000	
0.081064	0.064463	0.070213	6.000000	
0.078922	0.063460	0.070573	6.020000	
1201581.409285	0.060622	1186751.533977	6.040000	
0.081400	0.065557	0.072150	6.090000	
0.078059	0.063518	0.070463	6.110000	
0.079273	0.065138	0.070297	6.120000	
0.078647	0.064615	0.071148	6.140000	
0.079582	0.063923	0.070290	6.190000	
2820592.327445	0.060349	4788866.949068	6.200000	
0.079212	0.063411	0.072206	6.230000	
0.079437	0.064334	0.069960	6.240000	
0.079947	0.063396	0.070463	6.260000	
0.080302	0.064843	0.075628	6.280000	
0.080740	0.063837	0.072529	6.290000	
0.078657	0.064567	0.070351	6.330000	
0.081824	0.064457	0.071164	6.340000	
0.082234	0.063843	0.069800	6.360000	
0.080857	0.064749	0.069554	6.370000	
0.079101	0.062576	0.070822	6.390000	
0.077469	0.066123	0.073794	6.410000	
0.080029	0.063202	0.069795	6.430000	
0.079639	0.064298	0.069929	6.460000	
0.078932	0.063605	0.069918	6.480000	
0.078463	0.063085	0.070924	6.490000	
0.081305	0.063532	0.069972	6.510000	
0.079015	0.064257	0.072906	6.530000	
0.078913	0.063838	0.070379	6.550000	
0.078731	0.063861	0.070484	6.570000	
0.078824	0.063935	0.073030	6.590000	
0.078872	0.064554	0.071466	6.610000	
0.078864	0.063574	0.070033	6.630000	
1986360691258654720000.000000	0.057922	1917427270792837332992.000000	6.650000	
0.078601	0.063713	0.070333	6.730000	
0.083791	0.064007	0.071627	6.750000	
0.080212	0.065394	0.070576	6.770000	
1794223.195987	0.062600	1598466.657011	6.790000	
0.078885	0.063346	0.069664	6.810000	
0.078913	0.064008	0.070141	6.840000	
0.078556	0.065333	0.070397	6.870000	
0.079319	0.065684	0.070535	6.890000	
0.078258	0.065556	0.070002	6.920000	
0.080973	0.064171	0.070766	6.950000	
0.079839	0.063498	0.070677	6.960000	
0.079390	0.063509	0.070217	6.980000	
0.078424	0.063749	0.069930	6.990000	
0.078088	0.063666	0.069990	7.010000	
273348653777879760896.000000	0.057777	0.057932	7.040000	
0.078956	0.063580	0.069944	7.080000	
0.856955	0.057425	266527475357219094528.000000	7.100000	
528203812209378000896.000000	0.057469	955265089907948388352.000000	7.120000	
415144024898335932416.000000	0.057363	0.057972	7.160000	
0.081827	0.064329	0.070863	7.260000	
0.082790	0.065013	0.072014	7.280000	
0.079214	0.063545	0.070614	7.290000	
0.079961	0.063757	0.070406	7.310000	
0.079386	0.063728	0.070299	7.360000	
0.078996	0.064769	0.070022	7.380000	
0.081226	0.065614	0.084836	7.400000	
1071380345331614220288.000000	0.057044	245225733459712737280.000000	7.430000	
0.079232	0.066507	0.071284	7.460000	
0.078712	0.063213	0.070228	7.470000	
0.080419	0.063921	0.070798	7.490000	
0.079410	0.062918	0.070179	7.510000	
0.078562	0.063518	0.070985	7.520000	
0.079395	0.070330	0.077036	7.530000	
0.080928	0.063769	0.070403	7.550000	
0.084056	0.067313	0.070783	7.570000	
0.079205	0.063516	0.070008	7.580000	
0.080254	0.068126	0.072485	7.600000	
0.078949	0.063627	0.069858	7.620000	
0.079494	0.064439	0.070184	7.640000	
0.079400	0.063582	0.070393	7.650000	
0.079488	0.063754	0.070335	7.670000	
0.079912	0.063609	0.070193	7.690000	
0.078259	0.063629	0.071890	7.700000	
0.080831	0.065199	0.073170	7.730000	
0.078743	0.064405	0.070450	7.740000	
0.079015	0.064898	0.070063	7.760000	
0.078245	0.064663	0.072438	7.790000	
0.079254	0.063260	0.070364	7.810000	
0.082346	0.065649	0.070414	7.840000	
0.078113	0.064832	0.070318	7.850000	
0.091587	0.062712	0.075102	7.890000	
0.081855	0.064909	0.077811	7.920000	
0.079258	0.063615	0.069959	7.930000	
0.079301	0.064093	0.070096	7.950000	
0.080214	0.064409	0.070746	7.980000	
0.084406	0.063088	0.072238	8.010000	
0.079189	0.063887	0.070092	8.060000	
0.080245	0.064027	0.070314	8.070000	
0.079324	0.064059	0.070887	8.090000	
0.078653	0.064364	0.069548	8.110000	
0.083394	0.065203	0.070960	8.140000	
0.080380	0.062512	0.074071	8.160000	
0.079447	0.063260	0.071502	8.180000	
0.077818	0.064035	0.070237	8.200000	
0.080140	0.065511	0.077968	8.220000	
0.078784	0.064422	0.070343	8.230000	
0.079503	0.063505	0.069987	8.250000	
0.080283	0.062981	0.071243	8.280000	
0.079045	0.063451	0.070258	8.320000	
0.078745	0.063732	0.070263	8.330000	
0.079841	0.063060	0.070237	8.360000	
0.079845	0.064441	0.070865	8.390000	
0.081773	0.064670	0.070461	8.400000	
0.082259	0.064108	0.070970	8.440000	
0.080661	0.064778	0.071343	8.450000	
0.079312	0.064052	0.070073	8.490000	
0.079430	0.063343	0.070252	8.510000	
0.079408	0.063529	0.069847	8.530000	
0.078322	0.063628	0.070057	8.560000	
0.080429	0.066141	0.070299	8.590000	
0.077931	0.063842	0.070057	8.610000	
0.078722	0.063600	0.070516	8.620000	
0.078586	0.064889	0.069857	8.650000	
0.080259	0.065095	0.070951	8.670000	
0.079653	0.063634	0.070019	8.690000	
0.079241	0.063528	0.069974	8.710000	
0.080192	0.063498	0.069565	8.730000	
0.081143	0.064577	0.071088	8.750000	
0.079536	0.064487	0.070399	8.780000	
0.079310	0.064392	0.072477	8.790000	
0.081343	0.063616	0.070893	8.830000	
0.078919	0.063728	0.072157	8.850000	
0.082351	0.063516	0.079008	8.880000	
0.079399	0.063761	0.070755	8.900000	
0.080187	0.063407	0.070367	8.930000	
0.078828	0.063572	0.070004	8.960000	
0.079664	0.064028	0.070037	8.970000	
0.079442	0.064730	0.069969	8.990000	
0.079133	0.064330	0.070295	9.010000	
0.080605	0.064756	0.072138	9.060000	
0.085351	0.069565	0.081052	9.090000	
0.077805	0.065057	0.071695	9.110000	
0.081381	0.065621	0.071496	9.130000	
0.081232	0.063513	0.072404	9.150000	
0.079227	0.063662	0.070147	9.160000	
0.080735	0.063623	0.070826	9.180000	
0.078812	0.063932	0.069257	9.190000	
0.080771	0.063798	0.070262	9.210000	
0.079205	0.064166	0.070907	9.230000	
0.078767	0.063496	0.069625	9.250000	
0.080240	0.065436	0.070598	9.290000	
0.080961	0.065942	0.069805	9.310000	
0.083704	0.062033	0.071920	9.330000	
780720492704765575168.000000	0.057098	519345119157664350208.000000	9.360000	
0.080546	0.064343	0.070199	9.420000	
0.081188	0.063583	0.070410	9.440000	
0.089286	0.072904	0.070375	9.460000	
0.080465	0.063606	0.073420	9.470000	
0.080654	0.063865	0.069954	9.490000	
0.080695	0.066014	0.070716	9.500000	
0.083145	0.064309	0.072403	9.520000	
0.079764	0.064421	0.071026	9.560000	
0.079035	0.063629	0.070397	9.570000	
0.079614	0.063825	0.070470	9.590000	
0.079847	0.064630	0.070306	9.600000	
0.085430	0.065108	0.075600	9.650000	
0.082925	0.065134	0.071614	9.670000	
0.080223	0.063302	0.070485	9.700000	
0.087825	0.070805	0.076572	9.720000	
0.087445	0.063266	0.075332	9.730000	
0.079105	0.063476	0.074940	9.750000	
0.079156	0.063960	0.071222	9.760000	
0.080779	0.063285	0.070621	9.790000	
0.078219	0.063407	0.070502	9.810000	
0.079111	0.064674	0.071745	9.830000	
0.079618	0.063416	0.070166	9.840000	
0.079741	0.063961	0.069145	9.860000	
0.079281	0.063597	0.069979	9.890000	
0.086658	0.065964	0.071886	9.920000	
0.079542	0.063502	0.070050	9.940000	
0.079483	0.063517	0.071768	9.960000	
0.078898	0.062903	0.071098	9.980000	
0.077913	0.063421	0.070417	9.990000	
0.079409	0.063394	0.070408	10.040000	
0.078804	0.064446	0.072387	10.060000	
0.079176	0.064161	0.070215	10.090000	
0.086626	0.063364	0.069993	10.110000	
0.081316	0.064193	0.072519	10.130000	
0.079405	0.063548	0.070177	10.150000	
0.079786	0.063717	0.070983	10.170000	
0.080575	0.064622	0.070721	10.200000	
0.078353	0.063356	0.070401	10.210000	
0.078682	0.063296	0.070853	10.230000	
0.079085	0.064360	0.069986	10.250000	
0.078535	0.062925	0.069415	10.270000	
0.082206	0.064007	0.070105	10.300000	
0.079901	0.063364	0.069837	10.310000	
0.078753	0.063939	0.072357	10.340000	
0.079644	0.063485	0.070038	10.360000	
0.078275	0.062981	0.076574	10.390000	
0.078968	0.063626	0.071451	10.410000	
0.080965	0.063403	0.070531	10.420000	
0.078852	0.064346	0.070364	10.440000	
0.079835	0.063587	0.070061	10.450000	
0.077633	0.063440	0.071911	10.500000	
0.081450	0.064565	0.072545	10.520000	
0.079701	0.064600	0.070068	10.540000	
0.077794	0.066388	0.077653	10.570000	
0.081922	0.063939	0.069966	10.580000	
0.078741	0.064257	0.070559	10.600000	
0.078754	0.063109	0.069723	10.620000	
0.082418	0.065162	0.071216	10.640000	
0.078480	0.064264	0.075488	10.650000	
4147741.555022	0.062805	5253652.311514	10.680000	
0.079795	0.063474	0.070063	10.690000	
0.078664	0.063322	0.082132	10.710000	
0.079535	0.064159	0.070067	10.740000	
0.083331	0.063259	0.076497	10.770000	
0.079448	0.063036	0.070035	10.810000	
0.078847	0.063490	0.070324	10.830000	
3244512.077162	0.062829	0.067010	10.870000	
0.078682	0.063453	0.070235	10.890000	
0.080460	0.063616	0.071111	10.910000	
0.085646	0.065484	0.073767	10.930000	
652353799820965707776.000000	0.057218	74531048548582899712.000000	10.950000	
0.081213	0.064675	0.075226	11.000000	
0.079685	0.064784	0.069968	11.010000	
0.080626	0.063306	0.071060	11.030000	
0.082870	0.063912	0.070848	11.060000	
0.079549	0.063473	0.069517	11.080000	
4842101.020926	0.062744	0.067083	11.110000	
0.081713	0.066372	0.069992	11.120000	
0.083656	0.063354	0.071156	11.150000	
0.079617	0.063936	0.069854	11.160000	
0.077813	0.062980	0.070113	11.180000	
0.081213	0.064245	0.070083	11.210000	
0.079324	0.063582	0.069920	11.240000	
0.079265	0.064430	0.070442	11.250000	
0.086596	0.066281	0.070010	11.270000	
0.079705	0.064716	0.070509	11.290000	
0.085011	0.064362	0.070406	11.310000	
0.078798	0.065419	0.071766	11.320000	
0.081946	0.063347	0.073919	11.350000	
4467899.881462	0.062841	3667939.833885	11.380000	
0.079537	0.065193	0.070734	11.400000	
0.076680	0.064606	0.072918	11.420000	
0.088538	0.062933	0.081572	11.430000	
0.079215	0.064951	0.071762	11.450000	
0.078937	0.063621	0.070699	11.460000	
